{
  "time": 683,
  "annotations": [
    {
      "start": 0,
      "end": 9,
      "spot": "컬럼비아 대학교와",
      "confidence": 1.0,
      "title": "컬럼비아 대학교",
      "uri": "http://ko.wikipedia.org/wiki/컬럼비아_대학교",
      "label": "컬럼비아 대학교"
    }
  ],
  "lang": "ko",
  "timestamp": "2019-10-24T19:13:18.406"
}