{
  "time": 1,
  "annotations": [
    {
      "start": 6,
      "end": 23,
      "spot": "born in the U.S.A",
      "confidence": 0.8323,
      "id": 67583,
      "title": "Born in the U.S.A.",
      "uri": "http://en.wikipedia.org/wiki/Born_in_the_U.S.A.",
      "label": "Born in the U.S.A."
    }
  ],
  "lang": "en",
  "timestamp": "2019-10-24T19:12:52.304"
}