{
  "time": 3,
  "annotations": [
    {
      "start": 0,
      "end": 5,
      "spot": "Brady",
      "confidence": 0.7392,
      "id": 339841,
      "title": "Tom Brady",
      "uri": "http://en.wikipedia.org/wiki/Tom_Brady",
      "label": "Tom Brady"
    },
    {
      "start": 52,
      "end": 60,
      "spot": "Patriots",
      "confidence": 0.7446,
      "id": 21719,
      "title": "New England Patriots",
      "uri": "http://en.wikipedia.org/wiki/New_England_Patriots",
      "label": "New England Patriots"
    }
  ],
  "lang": "en",
  "timestamp": "2019-10-24T19:13:29.628"
}