{
  "time": 0,
  "annotations": [
    {
      "start": 0,
      "end": 24,
      "spot": "Leonard v. Pepsico, Inc.",
      "confidence": 0.8609,
      "id": 2033992,
      "title": "Leonard v. Pepsico, Inc.",
      "uri": "http://en.wikipedia.org/wiki/Leonard_v._Pepsico%2C_Inc.",
      "label": "Leonard v. Pepsico, Inc."
    }
  ],
  "lang": "en",
  "timestamp": "2019-10-24T19:13:30.068"
}