{
  "time": 1,
  "annotations": [
    {
      "start": 0,
      "end": 10,
      "spot": "blue whale",
      "confidence": 0.8609,
      "id": 4925,
      "title": "Blue whale",
      "uri": "http://en.wikipedia.org/wiki/Blue_whale",
      "label": "Blue whale"
    }
  ],
  "lang": "en",
  "timestamp": "2019-10-24T19:13:29.141"
}