{
  "time": 1,
  "annotations": [
    {
      "start": 0,
      "end": 19,
      "spot": "Khalid ibn Abdullah",
      "confidence": 0.8609,
      "id": 4129658,
      "title": "Khalid ibn Abdullah",
      "uri": "http://en.wikipedia.org/wiki/Khalid_ibn_Abdullah",
      "label": "Khalid Abdullah"
    }
  ],
  "lang": "en",
  "timestamp": "2019-10-24T19:13:30.238"
}