{
  "time": 1,
  "annotations": [
    {
      "start": 22,
      "end": 37,
      "spot": "Jackson Heights",
      "confidence": 0.8783,
      "id": 5641637,
      "title": "Roosevelt Avenue/74th Street (New York City Subway)",
      "uri": "http://en.wikipedia.org/wiki/Roosevelt_Avenue%2F74th_Street_%28New_York_City_Subway%29",
      "label": "Roosevelt Avenue / 74th Street"
    },
    {
      "start": 41,
      "end": 49,
      "spot": "Brooklyn",
      "confidence": 0.7916,
      "id": 47384,
      "title": "Brooklyn",
      "uri": "http://en.wikipedia.org/wiki/Brooklyn",
      "label": "Brooklyn"
    }
  ],
  "lang": "en",
  "timestamp": "2019-10-24T19:13:31.573"
}