{
  "time": 13,
  "annotations": [
    {
      "start": 6,
      "end": 18,
      "spot": "Crown Prince",
      "confidence": 0.7215,
      "id": 236210,
      "title": "Crown prince",
      "uri": "http://en.wikipedia.org/wiki/Crown_prince",
      "label": "Crown prince"
    },
    {
      "start": 12,
      "end": 38,
      "spot": "Prince Mohammed bin Salman",
      "confidence": 0.7558,
      "id": 38689358,
      "title": "Mohammad bin Salman Al Saud",
      "uri": "http://en.wikipedia.org/wiki/Mohammad_bin_Salman_Al_Saud",
      "label": "Mohammad bin Salman Al Saud"
    },
    {
      "start": 67,
      "end": 84,
      "spot": "Manchester United",
      "confidence": 0.8822,
      "id": 19961,
      "title": "Manchester United F.C.",
      "uri": "http://en.wikipedia.org/wiki/Manchester_United_F.C.",
      "label": "Manchester United"
    },
    {
      "start": 90,
      "end": 97,
      "spot": "kingdom",
      "confidence": 0.6416,
      "id": 349303,
      "title": "Saudi Arabia",
      "uri": "http://en.wikipedia.org/wiki/Saudi_Arabia",
      "label": "Saudi Arabia"
    },
    {
      "start": 147,
      "end": 168,
      "spot": "sovereign wealth fund",
      "confidence": 0.8803,
      "id": 11420440,
      "title": "Sovereign wealth fund",
      "uri": "http://en.wikipedia.org/wiki/Sovereign_wealth_fund",
      "label": "Sovereign wealth fund"
    },
    {
      "start": 201,
      "end": 215,
      "spot": "Premier League",
      "confidence": 0.7583,
      "id": 11250,
      "title": "Premier League",
      "uri": "http://en.wikipedia.org/wiki/Premier_League",
      "label": "Premier League"
    },
    {
      "start": 247,
      "end": 262,
      "spot": "Prince Mohammad",
      "confidence": 0.6356,
      "id": 2366551,
      "title": "Muhammad bin Abdulaziz Al Saud",
      "uri": "http://en.wikipedia.org/wiki/Muhammad_bin_Abdulaziz_Al_Saud",
      "label": "Muhammad bin Abdulaziz Al Saud"
    },
    {
      "start": 311,
      "end": 322,
      "spot": "Saudi media",
      "confidence": 0.6826,
      "id": 16602830,
      "title": "Media of Saudi Arabia",
      "uri": "http://en.wikipedia.org/wiki/Media_of_Saudi_Arabia",
      "label": "Media of Saudi Arabia"
    },
    {
      "start": 332,
      "end": 337,
      "spot": "Turki",
      "confidence": 0.7109,
      "id": 3888434,
      "title": "Turki bin Abdullah bin Muhammad",
      "uri": "http://en.wikipedia.org/wiki/Turki_bin_Abdullah_bin_Muhammad",
      "label": "Turki bin Abdullah bin Muhammad"
    }
  ],
  "lang": "en",
  "timestamp": "2019-10-24T19:13:31.672"
}