{
  "time": 867,
  "annotations": [
    {
      "start": 24,
      "end": 31,
      "spot": "Chicago",
      "confidence": 1.0,
      "title": "Chicago",
      "uri": "http://pl.wikipedia.org/wiki/Chicago",
      "label": "Chicago"
    }
  ],
  "lang": "pl",
  "timestamp": "2019-10-24T19:12:55.587"
}