{
  "time": 2,
  "annotations": [
    {
      "start": 24,
      "end": 31,
      "spot": "Ballard",
      "confidence": 0.6885,
      "id": 233422,
      "title": "Ballard Power Systems",
      "uri": "http://en.wikipedia.org/wiki/Ballard_Power_Systems",
      "label": "Ballard Power Systems"
    }
  ],
  "lang": "en",
  "timestamp": "2019-10-24T19:13:31.480"
}