{
  "time": 2,
  "annotations": [
    {
      "start": 6,
      "end": 9,
      "spot": "app",
      "confidence": 0.699,
      "id": 33496160,
      "title": "Mobile app",
      "uri": "http://en.wikipedia.org/wiki/Mobile_app",
      "label": "Mobile app"
    },
    {
      "start": 11,
      "end": 18,
      "spot": "Dropbox",
      "confidence": 0.8957,
      "id": 19477138,
      "title": "Dropbox (service)",
      "uri": "http://en.wikipedia.org/wiki/Dropbox_%28service%29",
      "label": "Dropbox"
    },
    {
      "start": 37,
      "end": 46,
      "spot": "USB drive",
      "confidence": 0.7653,
      "id": 400414,
      "title": "USB flash drive",
      "uri": "http://en.wikipedia.org/wiki/USB_flash_drive",
      "label": "USB flash drive"
    }
  ],
  "lang": "en",
  "timestamp": "2019-10-24T19:13:28.449"
}