{
  "time": 2,
  "annotations": [
    {
      "start": 0,
      "end": 12,
      "spot": "Barack Obama",
      "confidence": 0.9418,
      "id": 534366,
      "title": "Barack Obama",
      "uri": "http://en.wikipedia.org/wiki/Barack_Obama",
      "label": "Barack Obama"
    },
    {
      "start": 20,
      "end": 61,
      "spot": "President of the United States of America",
      "confidence": 0.813,
      "id": 24113,
      "title": "President of the United States",
      "uri": "http://en.wikipedia.org/wiki/President_of_the_United_States",
      "label": "President"
    },
    {
      "start": 78,
      "end": 84,
      "spot": "Hawaii",
      "confidence": 0.8388,
      "id": 13270,
      "title": "Hawaii",
      "uri": "http://en.wikipedia.org/wiki/Hawaii",
      "label": "Hawaii"
    }
  ],
  "lang": "en",
  "timestamp": "2019-10-24T19:13:30.692"
}