{
  "time": 1,
  "annotations": [
    {
      "start": 0,
      "end": 5,
      "spot": "Apple",
      "confidence": 0.9006,
      "id": 39726,
      "title": "Apple",
      "uri": "http://ru.wikipedia.org/wiki/Apple",
      "label": "Apple"
    },
    {
      "start": 7,
      "end": 13,
      "spot": "Google",
      "confidence": 0.8746,
      "id": 265,
      "title": "Google (компания)",
      "uri": "http://ru.wikipedia.org/wiki/Google_%28%D0%BA%D0%BE%D0%BC%D0%BF%D0%B0%D0%BD%D0%B8%D1%8F%29",
      "label": "Google"
    }
  ],
  "lang": "ru",
  "timestamp": "2019-10-24T19:13:10.694"
}