{
  "time": 2,
  "annotations": [
    {
      "start": 0,
      "end": 8,
      "spot": "Al-Qaeda",
      "confidence": 0.9074,
      "id": 1921,
      "title": "Al-Qaeda",
      "uri": "http://en.wikipedia.org/wiki/Al-Qaeda",
      "label": "Al-Qaeda"
    },
    {
      "start": 45,
      "end": 51,
      "spot": "attack",
      "confidence": 0.6969,
      "id": 5058690,
      "title": "September 11 attacks",
      "uri": "http://en.wikipedia.org/wiki/September_11_attacks",
      "label": "September 11 attacks"
    }
  ],
  "lang": "en",
  "timestamp": "2019-10-24T19:13:01.542"
}