{
  "time": 2,
  "annotations": [
    {
      "start": 0,
      "end": 6,
      "spot": "Google",
      "confidence": 0.7475,
      "id": 1092923,
      "title": "Google",
      "uri": "http://en.wikipedia.org/wiki/Google",
      "label": "Google"
    },
    {
      "start": 23,
      "end": 36,
      "spot": "Mountain View",
      "confidence": 0.7672,
      "id": 108161,
      "title": "Mountain View, California",
      "uri": "http://en.wikipedia.org/wiki/Mountain_View%2C_California",
      "label": "Mountain View, California"
    },
    {
      "start": 38,
      "end": 44,
      "spot": "Google",
      "confidence": 0.7475,
      "id": 1092923,
      "title": "Google",
      "uri": "http://en.wikipedia.org/wiki/Google",
      "label": "Google"
    }
  ],
  "lang": "en",
  "timestamp": "2019-10-24T19:13:23.999"
}