{
  "time": 1,
  "annotations": [
    {
      "start": 0,
      "end": 7,
      "spot": "Hot dog",
      "confidence": 0.7196,
      "id": 192368,
      "title": "Hot dog",
      "uri": "http://en.wikipedia.org/wiki/Hot_dog",
      "label": "Hot dog"
    }
  ],
  "lang": "en",
  "timestamp": "2019-10-24T19:13:28.880"
}