{
  "time": 2,
  "annotations": [
    {
      "start": 4,
      "end": 11,
      "spot": "FoxNews",
      "confidence": 0.7247,
      "id": 11121,
      "title": "Fox News",
      "uri": "http://en.wikipedia.org/wiki/Fox_News",
      "label": "Fox News"
    },
    {
      "start": 33,
      "end": 48,
      "spot": "President Trump",
      "confidence": 0.7159,
      "id": 4848272,
      "title": "Donald Trump",
      "uri": "http://en.wikipedia.org/wiki/Donald_Trump",
      "label": "Donald Trump"
    },
    {
      "start": 89,
      "end": 100,
      "spot": "North Korea",
      "confidence": 0.8908,
      "id": 21255,
      "title": "North Korea",
      "uri": "http://en.wikipedia.org/wiki/North_Korea",
      "label": "North Korea"
    }
  ],
  "lang": "en",
  "timestamp": "2019-10-24T19:13:27.570"
}