{
  "time": 1,
  "annotations": [
    {
      "start": 39,
      "end": 49,
      "spot": "Copacabana",
      "confidence": 0.7775,
      "id": 1311903,
      "title": "Copacabana (nightclub)",
      "uri": "http://en.wikipedia.org/wiki/Copacabana_%28nightclub%29",
      "label": "Copacabana"
    }
  ],
  "lang": "en",
  "timestamp": "2019-10-24T19:13:28.795"
}