{
  "time": 1,
  "annotations": [
    {
      "start": 10,
      "end": 14,
      "spot": "Uber",
      "confidence": 0.6985,
      "id": 722459,
      "title": "Uber (company)",
      "uri": "http://en.wikipedia.org/wiki/Uber_%28company%29",
      "label": "Uber"
    },
    {
      "start": 22,
      "end": 29,
      "spot": "airport",
      "confidence": 0.6679,
      "id": 37575,
      "title": "Airport",
      "uri": "http://en.wikipedia.org/wiki/Airport",
      "label": "Airport"
    },
    {
      "start": 56,
      "end": 60,
      "spot": "Lyft",
      "confidence": 0.8819,
      "id": 10149406,
      "title": "Lyft",
      "uri": "http://en.wikipedia.org/wiki/Lyft",
      "label": "Lyft"
    }
  ],
  "lang": "en",
  "timestamp": "2019-10-24T19:13:29.540"
}