{
  "time": 1,
  "annotations": [
    {
      "start": 15,
      "end": 31,
      "spot": "heart arrhythmia",
      "confidence": 0.7186,
      "id": 26254474,
      "title": "Cardiac arrhythmia",
      "uri": "http://en.wikipedia.org/wiki/Cardiac_arrhythmia",
      "label": "Cardiac arrhythmia"
    }
  ],
  "lang": "en",
  "timestamp": "2019-10-24T19:12:53.099"
}