{
  "time": 2,
  "annotations": [
    {
      "start": 24,
      "end": 33,
      "spot": "diffusion",
      "confidence": 0.7249,
      "id": 19908550,
      "title": "Diffusion",
      "uri": "http://en.wikipedia.org/wiki/Diffusion",
      "label": "Diffusion"
    },
    {
      "start": 61,
      "end": 70,
      "spot": "perfusion",
      "confidence": 0.7133,
      "id": 1016863,
      "title": "Perfusion",
      "uri": "http://en.wikipedia.org/wiki/Perfusion",
      "label": "Perfusion"
    }
  ],
  "lang": "en",
  "timestamp": "2019-10-24T19:13:31.386"
}