{
  "time": 1,
  "annotations": [
    {
      "start": 0,
      "end": 7,
      "spot": "Verizon",
      "confidence": 0.831,
      "id": 18619278,
      "title": "Verizon Communications",
      "uri": "http://en.wikipedia.org/wiki/Verizon_Communications",
      "label": "Verizon"
    },
    {
      "start": 13,
      "end": 18,
      "spot": "telco",
      "confidence": 0.763,
      "id": 47005,
      "title": "Telephone company",
      "uri": "http://en.wikipedia.org/wiki/Telephone_company",
      "label": "Telephone company"
    },
    {
      "start": 26,
      "end": 28,
      "spot": "US",
      "confidence": 0.6737,
      "id": 18717338,
      "title": "United States dollar",
      "uri": "http://en.wikipedia.org/wiki/United_States_dollar",
      "label": "US$"
    }
  ],
  "lang": "en",
  "timestamp": "2019-10-24T19:12:52.219"
}