{
  "time": 1,
  "annotations": [
    {
      "start": 11,
      "end": 18,
      "spot": "Tylenol",
      "confidence": 0.8973,
      "id": 83406,
      "title": "Paracetamol",
      "uri": "http://en.wikipedia.org/wiki/Paracetamol",
      "label": "Paracetamol"
    },
    {
      "start": 26,
      "end": 34,
      "spot": "headache",
      "confidence": 0.8121,
      "id": 69893,
      "title": "Headache",
      "uri": "http://en.wikipedia.org/wiki/Headache",
      "label": "Headache"
    },
    {
      "start": 56,
      "end": 67,
      "spot": "paracetamol",
      "confidence": 0.9592,
      "id": 83406,
      "title": "Paracetamol",
      "uri": "http://en.wikipedia.org/wiki/Paracetamol",
      "label": "Paracetamol"
    }
  ],
  "lang": "en",
  "timestamp": "2019-10-24T19:13:27.303"
}