{
  "time": 1,
  "annotations": [
    {
      "start": 0,
      "end": 35,
      "spot": "Multiple endocrine neoplasia type 1",
      "confidence": 0.8609,
      "id": 2574340,
      "title": "Multiple endocrine neoplasia type 1",
      "uri": "http://en.wikipedia.org/wiki/Multiple_endocrine_neoplasia_type_1",
      "label": "Multiple endocrine neoplasia type 1"
    }
  ],
  "lang": "en",
  "timestamp": "2019-10-24T19:13:30.426"
}