{
  "time": 4,
  "annotations": [
    {
      "start": 0,
      "end": 6,
      "spot": "Rooney",
      "confidence": 0.7946,
      "id": 199445,
      "title": "Wayne Rooney",
      "uri": "http://en.wikipedia.org/wiki/Wayne_Rooney",
      "label": "Wayne Rooney"
    },
    {
      "start": 13,
      "end": 17,
      "spot": "goal",
      "confidence": 0.7194,
      "id": 400470,
      "title": "Goal (sport)",
      "uri": "http://en.wikipedia.org/wiki/Goal_%28sport%29",
      "label": "Goal"
    },
    {
      "start": 25,
      "end": 31,
      "spot": "assist",
      "confidence": 0.7525,
      "id": 1167721,
      "title": "Assist (football)",
      "uri": "http://en.wikipedia.org/wiki/Assist_%28football%29",
      "label": "Assists"
    },
    {
      "start": 35,
      "end": 43,
      "spot": "United\u0027s",
      "confidence": 0.7439,
      "id": 314933,
      "title": "Sheffield United F.C.",
      "uri": "http://en.wikipedia.org/wiki/Sheffield_United_F.C.",
      "label": "Sheffield United"
    },
    {
      "start": 48,
      "end": 51,
      "spot": "win",
      "confidence": 0.6215,
      "id": 18306140,
      "title": "2003–04 Copa del Rey",
      "uri": "http://en.wikipedia.org/wiki/2003%E2%80%9304_Copa_del_Rey",
      "label": "2003–04 Copa del Rey"
    },
    {
      "start": 57,
      "end": 64,
      "spot": "Arsenal",
      "confidence": 0.8717,
      "id": 2174,
      "title": "Arsenal F.C.",
      "uri": "http://en.wikipedia.org/wiki/Arsenal_F.C.",
      "label": "Arsenal"
    }
  ],
  "lang": "en",
  "timestamp": "2019-10-24T19:13:19.430"
}