{
  "time": 1,
  "annotations": [
    {
      "start": 50,
      "end": 72,
      "spot": "social media analytics",
      "confidence": 0.6662,
      "id": 45455383,
      "title": "Social media analytics",
      "uri": "http://en.wikipedia.org/wiki/Social_media_analytics",
      "label": "Social media analytics"
    }
  ],
  "lang": "en",
  "timestamp": "2019-10-24T19:12:53.706"
}