{
  "time": 1,
  "annotations": [
    {
      "start": 0,
      "end": 12,
      "spot": "Barack Obama",
      "confidence": 0.918,
      "id": 534366,
      "title": "Barack Obama",
      "uri": "http://en.wikipedia.org/wiki/Barack_Obama",
      "label": "Barack Obama"
    },
    {
      "start": 18,
      "end": 21,
      "spot": "man",
      "confidence": 0.6986,
      "id": 3088980,
      "title": "The Man (Wallace novel)",
      "uri": "http://en.wikipedia.org/wiki/The_Man_%28Wallace_novel%29",
      "label": "The Man"
    }
  ],
  "lang": "en",
  "timestamp": "2019-10-24T19:13:29.716"
}