{
  "time": 1,
  "annotations": [
    {
      "start": 0,
      "end": 12,
      "spot": "Barack Obama",
      "confidence": 0.9185,
      "id": 297666,
      "title": "Barack Obama",
      "uri": "http://de.wikipedia.org/wiki/Barack_Obama",
      "label": "Barack Obama"
    },
    {
      "start": 23,
      "end": 30,
      "spot": "Chicago",
      "confidence": 0.8157,
      "id": 204964,
      "title": "Chicago",
      "uri": "http://de.wikipedia.org/wiki/Chicago",
      "label": "Chicago"
    }
  ],
  "lang": "de",
  "timestamp": "2019-10-24T19:13:00.424"
}