{
  "time": 944,
  "annotations": [
    {
      "start": 22,
      "end": 29,
      "spot": "Chicago",
      "confidence": 1.0,
      "title": "Chicago",
      "uri": "http://nl.wikipedia.org/wiki/Chicago",
      "label": "Chicago"
    }
  ],
  "lang": "nl",
  "timestamp": "2019-10-24T19:12:59.349"
}