{
  "time": 2,
  "annotations": [
    {
      "start": 0,
      "end": 7,
      "spot": "Walmart",
      "confidence": 0.8945,
      "id": 33589,
      "title": "Walmart",
      "uri": "http://en.wikipedia.org/wiki/Walmart",
      "label": "Wal-Mart"
    },
    {
      "start": 19,
      "end": 22,
      "spot": "bad",
      "confidence": 0.6557,
      "id": 586840,
      "title": "Bad (album)",
      "uri": "http://en.wikipedia.org/wiki/Bad_%28album%29",
      "label": "Bad"
    },
    {
      "start": 27,
      "end": 33,
      "spot": "people",
      "confidence": 0.6622,
      "id": 507970,
      "title": "People (magazine)",
      "uri": "http://en.wikipedia.org/wiki/People_%28magazine%29",
      "label": "People"
    },
    {
      "start": 42,
      "end": 47,
      "spot": "happy",
      "confidence": 0.6404,
      "id": 41170737,
      "title": "Happy (Pharrell Williams song)",
      "uri": "http://en.wikipedia.org/wiki/Happy_%28Pharrell_Williams_song%29",
      "label": "Happy"
    }
  ],
  "lang": "en",
  "timestamp": "2019-10-24T19:12:52.567"
}