{
  "time": 1,
  "annotations": [
    {
      "start": 4,
      "end": 12,
      "spot": "Montreal",
      "confidence": 0.8672,
      "id": 7954681,
      "title": "Montreal",
      "uri": "http://en.wikipedia.org/wiki/Montreal",
      "label": "Montreal"
    },
    {
      "start": 13,
      "end": 22,
      "spot": "Canadians",
      "confidence": 0.7802,
      "id": 19851291,
      "title": "Canadians",
      "uri": "http://en.wikipedia.org/wiki/Canadians",
      "label": "Canadian"
    },
    {
      "start": 31,
      "end": 42,
      "spot": "Stanley Cup",
      "confidence": 0.9299,
      "id": 66968,
      "title": "Stanley Cup",
      "uri": "http://en.wikipedia.org/wiki/Stanley_Cup",
      "label": "Stanley Cup"
    }
  ],
  "lang": "en",
  "timestamp": "2019-10-24T19:12:55.672"
}