{
  "time": 0,
  "annotations": [
    {
      "start": 0,
      "end": 7,
      "spot": "Toronto",
      "confidence": 0.7167,
      "id": 64646,
      "title": "Toronto",
      "uri": "http://en.wikipedia.org/wiki/Toronto",
      "label": "Toronto"
    },
    {
      "start": 28,
      "end": 35,
      "spot": "TORONTO",
      "confidence": 0.7167,
      "id": 64646,
      "title": "Toronto",
      "uri": "http://en.wikipedia.org/wiki/Toronto",
      "label": "Toronto"
    }
  ],
  "lang": "en",
  "timestamp": "2019-10-24T19:13:23.820"
}