{
  "time": 674,
  "annotations": [
    {
      "start": 0,
      "end": 8,
      "spot": "마이크 폼페이오",
      "confidence": 1.0,
      "title": "마이크 폼페이오",
      "uri": "http://ko.wikipedia.org/wiki/마이크_폼페이오",
      "label": "마이크 폼페이오"
    },
    {
      "start": 9,
      "end": 11,
      "spot": "미국",
      "confidence": 1.0,
      "title": "미국",
      "uri": "http://ko.wikipedia.org/wiki/미국",
      "label": "미국"
    },
    {
      "start": 18,
      "end": 21,
      "spot": "강경화",
      "confidence": 1.0,
      "title": "강경화",
      "uri": "http://ko.wikipedia.org/wiki/강경화",
      "label": "강경화"
    },
    {
      "start": 22,
      "end": 25,
      "spot": "외교부",
      "confidence": 1.0,
      "title": "대한민국 외교부",
      "uri": "http://ko.wikipedia.org/wiki/대한민국_외교부",
      "label": "대한민국 외교부"
    }
  ],
  "lang": "ko",
  "timestamp": "2019-10-24T19:13:21.237"
}