{
  "time": 1,
  "annotations": [
    {
      "start": 0,
      "end": 19,
      "spot": "Mohammad bin Salman",
      "confidence": 0.668,
      "id": 38689358,
      "title": "Mohammad bin Salman Al Saud",
      "uri": "http://en.wikipedia.org/wiki/Mohammad_bin_Salman_Al_Saud",
      "label": "Mohammad bin Salman Al Saud"
    }
  ],
  "lang": "en",
  "timestamp": "2019-10-24T19:13:30.154"
}