{
  "time": 1,
  "annotations": [
    {
      "start": 11,
      "end": 23,
      "spot": "Apple iPhone",
      "confidence": 0.7614,
      "id": 8841749,
      "title": "IPhone",
      "uri": "http://en.wikipedia.org/wiki/IPhone",
      "label": "IPhone"
    },
    {
      "start": 24,
      "end": 33,
      "spot": "yesterday",
      "confidence": 0.7281,
      "id": 721696,
      "title": "Yesterday (TV channel)",
      "uri": "http://en.wikipedia.org/wiki/Yesterday_%28TV_channel%29",
      "label": "Yesterday"
    }
  ],
  "lang": "en",
  "timestamp": "2019-10-24T19:13:22.933"
}