{
  "time": 1,
  "annotations": [
    {
      "start": 0,
      "end": 4,
      "spot": "Musk",
      "confidence": 0.8466,
      "id": 909036,
      "title": "Elon Musk",
      "uri": "http://en.wikipedia.org/wiki/Elon_Musk",
      "label": "Elon Musk"
    },
    {
      "start": 10,
      "end": 17,
      "spot": "Model S",
      "confidence": 0.8172,
      "id": 18215937,
      "title": "Tesla Model S",
      "uri": "http://en.wikipedia.org/wiki/Tesla_Model_S",
      "label": "Tesla Model S"
    }
  ],
  "lang": "en",
  "timestamp": "2019-10-24T19:13:26.942"
}