{
  "time": 63,
  "annotations": [
    {
      "start": 0,
      "end": 19,
      "spot": "Bloor-Yonge station",
      "confidence": 0.8935,
      "id": 1304311,
      "title": "Bloor–Yonge (TTC)",
      "uri": "http://en.wikipedia.org/wiki/Bloor%E2%80%93Yonge_%28TTC%29",
      "label": "Bloor-Yonge"
    },
    {
      "start": 34,
      "end": 43,
      "spot": "commuters",
      "confidence": 0.7192,
      "id": 255426,
      "title": "Commuting",
      "uri": "http://en.wikipedia.org/wiki/Commuting",
      "label": "Commuter"
    },
    {
      "start": 60,
      "end": 67,
      "spot": "Toronto",
      "confidence": 0.7764,
      "id": 64646,
      "title": "Toronto",
      "uri": "http://en.wikipedia.org/wiki/Toronto",
      "label": "Toronto"
    },
    {
      "start": 75,
      "end": 81,
      "spot": "subway",
      "confidence": 0.7486,
      "id": 18361733,
      "title": "Rapid transit",
      "uri": "http://en.wikipedia.org/wiki/Rapid_transit",
      "label": "Rapid transit"
    },
    {
      "start": 120,
      "end": 128,
      "spot": "platform",
      "confidence": 0.6347,
      "id": 155664,
      "title": "Railway platform",
      "uri": "http://en.wikipedia.org/wiki/Railway_platform",
      "label": "Platform"
    },
    {
      "start": 222,
      "end": 227,
      "spot": "TTC’s",
      "confidence": 0.6765,
      "id": 30981,
      "title": "Toronto Transit Commission",
      "uri": "http://en.wikipedia.org/wiki/Toronto_Transit_Commission",
      "label": "Toronto Transit Commission"
    },
    {
      "start": 231,
      "end": 237,
      "spot": "subway",
      "confidence": 0.7288,
      "id": 18361733,
      "title": "Rapid transit",
      "uri": "http://en.wikipedia.org/wiki/Rapid_transit",
      "label": "Rapid transit"
    },
    {
      "start": 304,
      "end": 315,
      "spot": "Bloor-Yonge",
      "confidence": 0.8764,
      "id": 1304311,
      "title": "Bloor–Yonge (TTC)",
      "uri": "http://en.wikipedia.org/wiki/Bloor%E2%80%93Yonge_%28TTC%29",
      "label": "Bloor-Yonge"
    },
    {
      "start": 491,
      "end": 510,
      "spot": "Bloor-Yonge station",
      "confidence": 0.8654,
      "id": 1304311,
      "title": "Bloor–Yonge (TTC)",
      "uri": "http://en.wikipedia.org/wiki/Bloor%E2%80%93Yonge_%28TTC%29",
      "label": "Bloor-Yonge"
    },
    {
      "start": 520,
      "end": 534,
      "spot": "critical point",
      "confidence": 0.7307,
      "id": 1951419,
      "title": "Critical point (thermodynamics)",
      "uri": "http://en.wikipedia.org/wiki/Critical_point_%28thermodynamics%29",
      "label": "Critical point"
    },
    {
      "start": 623,
      "end": 642,
      "spot": "Bloor-Yonge station",
      "confidence": 0.8728,
      "id": 1304311,
      "title": "Bloor–Yonge (TTC)",
      "uri": "http://en.wikipedia.org/wiki/Bloor%E2%80%93Yonge_%28TTC%29",
      "label": "Bloor-Yonge"
    },
    {
      "start": 652,
      "end": 666,
      "spot": "critical point",
      "confidence": 0.6934,
      "id": 1951419,
      "title": "Critical point (thermodynamics)",
      "uri": "http://en.wikipedia.org/wiki/Critical_point_%28thermodynamics%29",
      "label": "Critical point"
    },
    {
      "start": 739,
      "end": 754,
      "spot": "Francis Wallace",
      "confidence": 0.6821,
      "id": 44951513,
      "title": "Francis Wallace (writer)",
      "uri": "http://en.wikipedia.org/wiki/Francis_Wallace_%28writer%29",
      "label": "Francis Wallace"
    },
    {
      "start": 757,
      "end": 769,
      "spot": "Toronto Star",
      "confidence": 0.86,
      "id": 141010,
      "title": "Toronto Star",
      "uri": "http://en.wikipedia.org/wiki/Toronto_Star",
      "label": "Toronto Star"
    },
    {
      "start": 1010,
      "end": 1016,
      "spot": "Line 2",
      "confidence": 0.774,
      "id": 614291,
      "title": "Line 2 Bloor–Danforth",
      "uri": "http://en.wikipedia.org/wiki/Line_2_Bloor%E2%80%93Danforth",
      "label": "Line 2 Bloor–Danforth"
    },
    {
      "start": 1017,
      "end": 1027,
      "spot": "passengers",
      "confidence": 0.6953,
      "id": 30598,
      "title": "Train",
      "uri": "http://en.wikipedia.org/wiki/Train",
      "label": "Train"
    },
    {
      "start": 1050,
      "end": 1055,
      "spot": "train",
      "confidence": 0.7076,
      "id": 30598,
      "title": "Train",
      "uri": "http://en.wikipedia.org/wiki/Train",
      "label": "Train"
    },
    {
      "start": 1077,
      "end": 1083,
      "spot": "stairs",
      "confidence": 0.6449,
      "id": 256015,
      "title": "Stairs",
      "uri": "http://en.wikipedia.org/wiki/Stairs",
      "label": "Stairs"
    },
    {
      "start": 1085,
      "end": 1095,
      "spot": "escalators",
      "confidence": 0.7155,
      "id": 20647902,
      "title": "Escalator",
      "uri": "http://en.wikipedia.org/wiki/Escalator",
      "label": "Escalator"
    },
    {
      "start": 1100,
      "end": 1109,
      "spot": "elevators",
      "confidence": 0.7456,
      "id": 19373997,
      "title": "Elevator",
      "uri": "http://en.wikipedia.org/wiki/Elevator",
      "label": "Elevator"
    },
    {
      "start": 1132,
      "end": 1141,
      "spot": "platforms",
      "confidence": 0.7028,
      "id": 155664,
      "title": "Railway platform",
      "uri": "http://en.wikipedia.org/wiki/Railway_platform",
      "label": "Platform"
    },
    {
      "start": 1181,
      "end": 1187,
      "spot": "tracks",
      "confidence": 0.6918,
      "id": 321365,
      "title": "Track (rail transport)",
      "uri": "http://en.wikipedia.org/wiki/Track_%28rail_transport%29",
      "label": "Track"
    },
    {
      "start": 1223,
      "end": 1234,
      "spot": "pinch point",
      "confidence": 0.763,
      "id": 19426773,
      "title": "Pinch point (mathematics)",
      "uri": "http://en.wikipedia.org/wiki/Pinch_point_%28mathematics%29",
      "label": "Pinch point"
    },
    {
      "start": 1242,
      "end": 1249,
      "spot": "station",
      "confidence": 0.6231,
      "id": 274273,
      "title": "Metro station",
      "uri": "http://en.wikipedia.org/wiki/Metro_station",
      "label": "Station"
    },
    {
      "start": 1301,
      "end": 1307,
      "spot": "trains",
      "confidence": 0.6163,
      "id": 30598,
      "title": "Train",
      "uri": "http://en.wikipedia.org/wiki/Train",
      "label": "Train"
    },
    {
      "start": 1378,
      "end": 1384,
      "spot": "Line 1",
      "confidence": 0.764,
      "id": 616512,
      "title": "Line 1 Yonge–University",
      "uri": "http://en.wikipedia.org/wiki/Line_1_Yonge%E2%80%93University",
      "label": "Line 1 Yonge–University"
    },
    {
      "start": 1385,
      "end": 1395,
      "spot": "Yonge line",
      "confidence": 0.7362,
      "id": 616512,
      "title": "Line 1 Yonge–University",
      "uri": "http://en.wikipedia.org/wiki/Line_1_Yonge%E2%80%93University",
      "label": "Line 1 Yonge–University"
    },
    {
      "start": 1533,
      "end": 1551,
      "spot": "computer modelling",
      "confidence": 0.6749,
      "id": 375416,
      "title": "Computer simulation",
      "uri": "http://en.wikipedia.org/wiki/Computer_simulation",
      "label": "Computer simulation"
    }
  ],
  "lang": "en",
  "timestamp": "2019-10-24T19:12:52.902"
}