{
  "time": 13,
  "annotations": [
    {
      "start": 35,
      "end": 41,
      "spot": "laptop",
      "confidence": 0.6929,
      "id": 198584,
      "title": "Laptop",
      "uri": "http://en.wikipedia.org/wiki/Laptop",
      "label": "Laptop"
    },
    {
      "start": 67,
      "end": 75,
      "spot": "keyboard",
      "confidence": 0.6781,
      "id": 18842281,
      "title": "Computer keyboard",
      "uri": "http://en.wikipedia.org/wiki/Computer_keyboard",
      "label": "Keyboard"
    },
    {
      "start": 334,
      "end": 351,
      "spot": "extended warranty",
      "confidence": 0.6945,
      "id": 822035,
      "title": "Extended warranty",
      "uri": "http://en.wikipedia.org/wiki/Extended_warranty",
      "label": "Extended warranty"
    },
    {
      "start": 511,
      "end": 522,
      "spot": "MacBook Pro",
      "confidence": 0.8832,
      "id": 3677824,
      "title": "MacBook Pro",
      "uri": "http://en.wikipedia.org/wiki/MacBook_Pro",
      "label": "MacBook Pro"
    }
  ],
  "lang": "en",
  "timestamp": "2019-10-24T19:13:28.057"
}