{
  "time": 1,
  "annotations": [
    {
      "start": 1,
      "end": 20,
      "spot": "Alice in Wonderland",
      "confidence": 0.8609,
      "id": 52853,
      "title": "Alice\u0027s Adventures in Wonderland",
      "uri": "http://en.wikipedia.org/wiki/Alice%27s_Adventures_in_Wonderland",
      "label": "Alice in Wonderland"
    }
  ],
  "lang": "en",
  "timestamp": "2019-10-24T19:12:52.117"
}