{
  "time": 1024,
  "annotations": [
    {
      "start": 5,
      "end": 17,
      "spot": "باراك أوباما",
      "confidence": 1.0,
      "title": "باراك أوباما",
      "uri": "http://ar.wikipedia.org/wiki/باراك_أوباما",
      "label": "باراك أوباما"
    }
  ],
  "lang": "ar",
  "timestamp": "2019-10-24T19:13:12.347"
}