{
  "time": 1,
  "annotations": [
    {
      "start": 7,
      "end": 16,
      "spot": "to my boy",
      "confidence": 0.7994,
      "id": 13532704,
      "title": "To My Boy",
      "uri": "http://en.wikipedia.org/wiki/To_My_Boy",
      "label": "To My Boy"
    }
  ],
  "lang": "en",
  "timestamp": "2019-10-24T19:13:10.435"
}