{
  "time": 16,
  "annotations": [
    {
      "start": 82,
      "end": 87,
      "spot": "power",
      "confidence": 0.6225,
      "id": 9550,
      "title": "Electricity",
      "uri": "http://en.wikipedia.org/wiki/Electricity",
      "label": "Electricity"
    },
    {
      "start": 98,
      "end": 102,
      "spot": "tech",
      "confidence": 0.6866,
      "id": 29816,
      "title": "Technology",
      "uri": "http://en.wikipedia.org/wiki/Technology",
      "label": "Technology"
    },
    {
      "start": 124,
      "end": 129,
      "spot": "Apple",
      "confidence": 0.6986,
      "id": 856,
      "title": "Apple Inc.",
      "uri": "http://en.wikipedia.org/wiki/Apple_Inc.",
      "label": "Apple"
    },
    {
      "start": 141,
      "end": 146,
      "spot": "tools",
      "confidence": 0.6364,
      "id": 30677,
      "title": "Tool",
      "uri": "http://en.wikipedia.org/wiki/Tool",
      "label": "Tool"
    },
    {
      "start": 173,
      "end": 183,
      "spot": "encryption",
      "confidence": 0.7362,
      "id": 10294,
      "title": "Encryption",
      "uri": "http://en.wikipedia.org/wiki/Encryption",
      "label": "Encryption"
    },
    {
      "start": 201,
      "end": 209,
      "spot": "products",
      "confidence": 0.63,
      "id": 240410,
      "title": "Product (business)",
      "uri": "http://en.wikipedia.org/wiki/Product_%28business%29",
      "label": "Product"
    },
    {
      "start": 216,
      "end": 219,
      "spot": "law",
      "confidence": 0.7002,
      "id": 18949668,
      "title": "Law",
      "uri": "http://en.wikipedia.org/wiki/Law",
      "label": "Law"
    },
    {
      "start": 225,
      "end": 243,
      "spot": "Telecommunications",
      "confidence": 0.7268,
      "id": 33094374,
      "title": "Telecommunication",
      "uri": "http://en.wikipedia.org/wiki/Telecommunication",
      "label": "Telecommunications"
    },
    {
      "start": 254,
      "end": 265,
      "spot": "Legislation",
      "confidence": 0.6693,
      "id": 51913,
      "title": "Legislation",
      "uri": "http://en.wikipedia.org/wiki/Legislation",
      "label": "Legislation"
    },
    {
      "start": 266,
      "end": 275,
      "spot": "Amendment",
      "confidence": 0.6885,
      "id": 18949668,
      "title": "Law",
      "uri": "http://en.wikipedia.org/wiki/Law",
      "label": "Law"
    },
    {
      "start": 326,
      "end": 330,
      "spot": "tech",
      "confidence": 0.6841,
      "id": 29816,
      "title": "Technology",
      "uri": "http://en.wikipedia.org/wiki/Technology",
      "label": "Technology"
    },
    {
      "start": 356,
      "end": 365,
      "spot": "Australia",
      "confidence": 0.7438,
      "id": 4689264,
      "title": "Australia",
      "uri": "http://en.wikipedia.org/wiki/Australia",
      "label": "Australia"
    },
    {
      "start": 391,
      "end": 397,
      "spot": "global",
      "confidence": 0.6623,
      "id": 46313,
      "title": "Globalization",
      "uri": "http://en.wikipedia.org/wiki/Globalization",
      "label": "Globalization"
    },
    {
      "start": 402,
      "end": 407,
      "spot": "Apple",
      "confidence": 0.6992,
      "id": 856,
      "title": "Apple Inc.",
      "uri": "http://en.wikipedia.org/wiki/Apple_Inc.",
      "label": "Apple"
    },
    {
      "start": 448,
      "end": 455,
      "spot": "iPhones",
      "confidence": 0.6657,
      "id": 8841749,
      "title": "IPhone",
      "uri": "http://en.wikipedia.org/wiki/IPhone",
      "label": "IPhone"
    },
    {
      "start": 464,
      "end": 473,
      "spot": "Australia",
      "confidence": 0.7496,
      "id": 4689264,
      "title": "Australia",
      "uri": "http://en.wikipedia.org/wiki/Australia",
      "label": "Australia"
    },
    {
      "start": 525,
      "end": 538,
      "spot": "United States",
      "confidence": 0.7135,
      "id": 3434750,
      "title": "United States",
      "uri": "http://en.wikipedia.org/wiki/United_States",
      "label": "United States"
    },
    {
      "start": 556,
      "end": 563,
      "spot": "company",
      "confidence": 0.66,
      "id": 7485,
      "title": "Corporation",
      "uri": "http://en.wikipedia.org/wiki/Corporation",
      "label": "Corporation"
    },
    {
      "start": 581,
      "end": 585,
      "spot": "tool",
      "confidence": 0.6599,
      "id": 30677,
      "title": "Tool",
      "uri": "http://en.wikipedia.org/wiki/Tool",
      "label": "Tool"
    }
  ],
  "lang": "en",
  "timestamp": "2019-10-24T19:13:31.261"
}