{
  "entities": [
    {
      "name": "U.S.",
      "type": 2,
      "metadata": {
        "mid": "/m/09c7w0",
        "wikipedia_url": "https://en.wikipedia.org/wiki/United_States"
      },
      "salience": 0.20124194,
      "mentions": [
        {
          "text": {
            "content": "U.S.",
            "begin_offset": 100
          },
          "type": 1
        },
        {
          "text": {
            "content": "U.S.",
            "begin_offset": 194
          },
          "type": 1
        },
        {
          "text": {
            "content": "U.S.",
            "begin_offset": 645
          },
          "type": 1
        },
        {
          "text": {
            "content": "U.S.",
            "begin_offset": 695
          },
          "type": 1
        }
      ]
    },
    {
      "name": "barrel",
      "type": 7,
      "salience": 0.15839876,
      "mentions": [
        {
          "text": {
            "content": "barrel",
            "begin_offset": 62
          },
          "type": 2
        }
      ]
    },
    {
      "name": "crude futures",
      "type": 7,
      "salience": 0.12248189,
      "mentions": [
        {
          "text": {
            "content": "crude futures",
            "begin_offset": 6
          },
          "type": 2
        }
      ]
    },
    {
      "name": "decrease",
      "type": 7,
      "salience": 0.07952733,
      "mentions": [
        {
          "text": {
            "content": "decrease",
            "begin_offset": 575
          },
          "type": 2
        }
      ]
    },
    {
      "name": "Brent",
      "type": 1,
      "salience": 0.06497556,
      "mentions": [
        {
          "text": {
            "content": "Brent"
          },
          "type": 1
        }
      ]
    },
    {
      "name": "barrels",
      "type": 7,
      "salience": 0.051930916,
      "mentions": [
        {
          "text": {
            "content": "barrels",
            "begin_offset": 346
          },
          "type": 2
        }
      ]
    },
    {
      "name": "barrel",
      "type": 7,
      "salience": 0.030160187,
      "mentions": [
        {
          "text": {
            "content": "barrel",
            "begin_offset": 165
          },
          "type": 2
        }
      ]
    },
    {
      "name": "stocks",
      "type": 7,
      "salience": 0.028622152,
      "mentions": [
        {
          "text": {
            "content": "stocks",
            "begin_offset": 455
          },
          "type": 2
        }
      ]
    },
    {
      "name": "crude",
      "type": 7,
      "salience": 0.023054222,
      "mentions": [
        {
          "text": {
            "content": "crude",
            "begin_offset": 136
          },
          "type": 2
        }
      ]
    },
    {
      "name": "barrels",
      "type": 7,
      "salience": 0.020309266,
      "mentions": [
        {
          "text": {
            "content": "barrels",
            "begin_offset": 235
          },
          "type": 2
        }
      ]
    },
    {
      "name": "barrels",
      "type": 7,
      "salience": 0.018806312,
      "mentions": [
        {
          "text": {
            "content": "barrels",
            "begin_offset": 439
          },
          "type": 2
        }
      ]
    },
    {
      "name": "lowest",
      "type": 7,
      "salience": 0.015701713,
      "mentions": [
        {
          "text": {
            "content": "lowest",
            "begin_offset": 362
          },
          "type": 2
        }
      ]
    },
    {
      "name": "decrease",
      "type": 7,
      "salience": 0.015646495,
      "mentions": [
        {
          "text": {
            "content": "decrease",
            "begin_offset": 414
          },
          "type": 2
        }
      ]
    },
    {
      "name": "crude inventories",
      "type": 7,
      "salience": 0.015597825,
      "mentions": [
        {
          "text": {
            "content": "crude\n\tinventories",
            "begin_offset": 199
          },
          "type": 2
        }
      ]
    },
    {
      "name": "Phil Flynn",
      "type": 1,
      "metadata": {
        "mid": "/m/089h03",
        "wikipedia_url": "https://en.wikipedia.org/wiki/Phil_Flynn"
      },
      "salience": 0.013814733,
      "mentions": [
        {
          "text": {
            "content": "Phil Flynn",
            "begin_offset": 752
          },
          "type": 1
        },
        {
          "text": {
            "content": "analyst",
            "begin_offset": 764
          },
          "type": 2
        }
      ]
    },
    {
      "name": "West Texas Intermediate",
      "type": 3,
      "metadata": {
        "mid": "/m/03ctzw",
        "wikipedia_url": "https://en.wikipedia.org/wiki/West_Texas_Intermediate"
      },
      "salience": 0.013558323,
      "mentions": [
        {
          "text": {
            "content": "West Texas Intermediate",
            "begin_offset": 105
          },
          "type": 1
        },
        {
          "text": {
            "content": "WTI",
            "begin_offset": 130
          },
          "type": 1
        }
      ]
    },
    {
      "name": "gasoline demand",
      "type": 7,
      "salience": 0.012712568,
      "mentions": [
        {
          "text": {
            "content": "gasoline demand",
            "begin_offset": 700
          },
          "type": 2
        }
      ]
    },
    {
      "name": "delivery hub",
      "type": 3,
      "salience": 0.012585768,
      "mentions": [
        {
          "text": {
            "content": "delivery hub",
            "begin_offset": 479
          },
          "type": 2
        }
      ]
    },
    {
      "name": "Analysts",
      "type": 1,
      "salience": 0.011659428,
      "mentions": [
        {
          "text": {
            "content": "Analysts",
            "begin_offset": 390
          },
          "type": 2
        }
      ]
    },
    {
      "name": "data",
      "type": 7,
      "salience": 0.011341456,
      "mentions": [
        {
          "text": {
            "content": "data",
            "begin_offset": 267
          },
          "type": 2
        }
      ]
    },
    {
      "name": "focus",
      "type": 7,
      "salience": 0.010802531,
      "mentions": [
        {
          "text": {
            "content": "focus",
            "begin_offset": 672
          },
          "type": 2
        }
      ]
    },
    {
      "name": "supplies",
      "type": 7,
      "salience": 0.0094916755,
      "mentions": [
        {
          "text": {
            "content": "supplies",
            "begin_offset": 624
          },
          "type": 2
        }
      ]
    },
    {
      "name": "fact",
      "type": 7,
      "salience": 0.0094916755,
      "mentions": [
        {
          "text": {
            "content": "fact",
            "begin_offset": 685
          },
          "type": 2
        }
      ]
    },
    {
      "name": "U.S. Energy Information Administration",
      "type": 3,
      "metadata": {
        "mid": "/m/05ptrz",
        "wikipedia_url": "https://en.wikipedia.org/wiki/Energy_Information_Administration"
      },
      "salience": 0.008168719,
      "mentions": [
        {
          "text": {
            "content": "U.S. Energy Information Administration",
            "begin_offset": 282
          },
          "type": 1
        },
        {
          "text": {
            "content": "EIA",
            "begin_offset": 522
          },
          "type": 1
        }
      ]
    },
    {
      "name": "Oklahoma",
      "type": 2,
      "metadata": {
        "mid": "/m/05mph",
        "wikipedia_url": "https://en.wikipedia.org/wiki/Oklahoma"
      },
      "salience": 0.00744888,
      "mentions": [
        {
          "text": {
            "content": "Oklahoma",
            "begin_offset": 469
          },
          "type": 1
        }
      ]
    },
    {
      "name": "roof",
      "type": 7,
      "salience": 0.0066327513,
      "mentions": [
        {
          "text": {
            "content": "roof",
            "begin_offset": 738
          },
          "type": 2
        }
      ]
    },
    {
      "name": "barrels",
      "type": 7,
      "salience": 0.0062186727,
      "mentions": [
        {
          "text": {
            "content": "barrels",
            "begin_offset": 513
          },
          "type": 2
        }
      ]
    },
    {
      "name": "lowest",
      "type": 7,
      "salience": 0.004743363,
      "mentions": [
        {
          "text": {
            "content": "lowest",
            "begin_offset": 538
          },
          "type": 2
        }
      ]
    },
    {
      "name": "focus",
      "type": 7,
      "salience": 0.004743363,
      "mentions": [
        {
          "text": {
            "content": "focus",
            "begin_offset": 593
          },
          "type": 2
        }
      ]
    },
    {
      "name": "Price Futures Group",
      "type": 3,
      "metadata": {
        "mid": "/g/11c2k18jq1"
      },
      "salience": 0.0039220015,
      "mentions": [
        {
          "text": {
            "content": "Price Futures Group",
            "begin_offset": 775
          },
          "type": 1
        }
      ]
    },
    {
      "name": "Chicago",
      "type": 2,
      "metadata": {
        "mid": "/m/01_d4",
        "wikipedia_url": "https://en.wikipedia.org/wiki/Chicago"
      },
      "salience": 0.0039220015,
      "mentions": [
        {
          "text": {
            "content": "Chicago",
            "begin_offset": 799
          },
          "type": 1
        }
      ]
    },
    {
      "name": "July 20",
      "type": 11,
      "metadata": {
        "day": "20",
        "month": "7"
      },
      "mentions": [
        {
          "text": {
            "content": "July 20",
            "begin_offset": 258
          }
        }
      ]
    },
    {
      "name": "February 2015",
      "type": 11,
      "metadata": {
        "month": "2",
        "year": "2015"
      },
      "mentions": [
        {
          "text": {
            "content": "February 2015",
            "begin_offset": 375
          }
        }
      ]
    },
    {
      "name": "November 2014",
      "type": 11,
      "metadata": {
        "month": "11",
        "year": "2014"
      },
      "mentions": [
        {
          "text": {
            "content": "November 2014",
            "begin_offset": 551
          }
        }
      ]
    },
    {
      "name": "$74.14",
      "type": 13,
      "metadata": {
        "currency": "USD",
        "value": "74.140000"
      },
      "mentions": [
        {
          "text": {
            "content": "$74.14",
            "begin_offset": 52
          }
        }
      ]
    },
    {
      "name": "$1.06",
      "type": 13,
      "metadata": {
        "currency": "USD",
        "value": "1.060000"
      },
      "mentions": [
        {
          "text": {
            "content": "$1.06",
            "begin_offset": 147
          }
        }
      ]
    },
    {
      "name": "$69.58",
      "type": 13,
      "metadata": {
        "currency": "USD",
        "value": "69.580000"
      },
      "mentions": [
        {
          "text": {
            "content": "$69.58",
            "begin_offset": 156
          }
        }
      ]
    },
    {
      "name": "20",
      "type": 12,
      "metadata": {
        "value": "20"
      },
      "mentions": [
        {
          "text": {
            "content": "20",
            "begin_offset": 263
          }
        }
      ]
    },
    {
      "name": "2.3\n\tmillion",
      "type": 12,
      "metadata": {
        "value": "2300000.000000"
      },
      "mentions": [
        {
          "text": {
            "content": "2.3\n\tmillion",
            "begin_offset": 426
          }
        }
      ]
    },
    {
      "name": "2014",
      "type": 12,
      "metadata": {
        "value": "2014"
      },
      "mentions": [
        {
          "text": {
            "content": "2014",
            "begin_offset": 560
          }
        }
      ]
    },
    {
      "name": "41",
      "type": 12,
      "metadata": {
        "value": "41"
      },
      "mentions": [
        {
          "text": {
            "content": "41",
            "begin_offset": 75
          }
        }
      ]
    },
    {
      "name": "1641",
      "type": 12,
      "metadata": {
        "value": "1641"
      },
      "mentions": [
        {
          "text": {
            "content": "1641",
            "begin_offset": 88
          }
        }
      ]
    },
    {
      "name": "404.9 million",
      "type": 12,
      "metadata": {
        "value": "404900000.000000"
      },
      "mentions": [
        {
          "text": {
            "content": "404.9 million",
            "begin_offset": 332
          }
        }
      ]
    },
    {
      "name": "74.14",
      "type": 12,
      "metadata": {
        "value": "74.140000"
      },
      "mentions": [
        {
          "text": {
            "content": "74.14",
            "begin_offset": 53
          }
        }
      ]
    },
    {
      "name": "69.58",
      "type": 12,
      "metadata": {
        "value": "69.580000"
      },
      "mentions": [
        {
          "text": {
            "content": "69.58",
            "begin_offset": 157
          }
        }
      ]
    },
    {
      "name": "6.1 million",
      "type": 12,
      "metadata": {
        "value": "6100000.000000"
      },
      "mentions": [
        {
          "text": {
            "content": "6.1 million",
            "begin_offset": 223
          }
        }
      ]
    },
    {
      "name": "12",
      "type": 12,
      "metadata": {
        "value": "12"
      },
      "mentions": [
        {
          "text": {
            "content": "12",
            "begin_offset": 72
          }
        }
      ]
    },
    {
      "name": "2015",
      "type": 12,
      "metadata": {
        "value": "2015"
      },
      "mentions": [
        {
          "text": {
            "content": "2015",
            "begin_offset": 384
          }
        }
      ]
    },
    {
      "name": "1.6",
      "type": 12,
      "metadata": {
        "value": "1.600000"
      },
      "mentions": [
        {
          "text": {
            "content": "1.6",
            "begin_offset": 175
          }
        }
      ]
    },
    {
      "name": "1.06",
      "type": 12,
      "metadata": {
        "value": "1.060000"
      },
      "mentions": [
        {
          "text": {
            "content": "1.06",
            "begin_offset": 148
          }
        }
      ]
    },
    {
      "name": "1",
      "type": 12,
      "metadata": {
        "value": "1"
      },
      "mentions": [
        {
          "text": {
            "content": "1",
            "begin_offset": 38
          }
        }
      ]
    },
    {
      "name": "70",
      "type": 12,
      "metadata": {
        "value": "70"
      },
      "mentions": [
        {
          "text": {
            "content": "70",
            "begin_offset": 25
          }
        }
      ]
    },
    {
      "name": "1.1 million",
      "type": 12,
      "metadata": {
        "value": "1100000.000000"
      },
      "mentions": [
        {
          "text": {
            "content": "1.1 million",
            "begin_offset": 501
          }
        }
      ]
    }
  ],
  "language": "en"
}