{
  "entities": [
    {
      "name": "Mohammed bin Salman",
      "type": 1,
      "metadata": {
        "mid": "/m/0w0knzp",
        "wikipedia_url": "https://en.wikipedia.org/wiki/Mohammad_bin_Salman"
      },
      "salience": 0.3662538,
      "mentions": [
        {
          "text": {
            "content": "Mohammed bin Salman",
            "begin_offset": 19
          },
          "type": 1
        },
        {
          "text": {
            "content": "Crown Prince",
            "begin_offset": 6
          },
          "type": 2
        }
      ]
    },
    {
      "name": "government",
      "type": 3,
      "salience": 0.112513684,
      "mentions": [
        {
          "text": {
            "content": "government",
            "begin_offset": 100
          },
          "type": 2
        }
      ]
    },
    {
      "name": "Saudi",
      "type": 2,
      "metadata": {
        "mid": "/m/01z215",
        "wikipedia_url": "https://en.wikipedia.org/wiki/Saudi_Arabia"
      },
      "salience": 0.1036228,
      "mentions": [
        {
          "text": {
            "content": "Saudi"
          },
          "type": 1
        },
        {
          "text": {
            "content": "Saudi",
            "begin_offset": 311
          },
          "type": 1
        }
      ]
    },
    {
      "name": "kingdom",
      "type": 2,
      "salience": 0.07169556,
      "mentions": [
        {
          "text": {
            "content": "kingdom",
            "begin_offset": 90
          },
          "type": 2
        }
      ]
    },
    {
      "name": "Mohammad",
      "type": 1,
      "salience": 0.055531792,
      "mentions": [
        {
          "text": {
            "content": "Mohammad",
            "begin_offset": 254
          },
          "type": 1
        },
        {
          "text": {
            "content": "Prince",
            "begin_offset": 247
          },
          "type": 2
        }
      ]
    },
    {
      "name": "sponsorship talks",
      "type": 4,
      "salience": 0.049461354,
      "mentions": [
        {
          "text": {
            "content": "sponsorship talks",
            "begin_offset": 174
          },
          "type": 2
        }
      ]
    },
    {
      "name": "Manchester United",
      "type": 3,
      "metadata": {
        "mid": "/m/050fh",
        "wikipedia_url": "https://en.wikipedia.org/wiki/Manchester_United_F.C."
      },
      "salience": 0.0472851,
      "mentions": [
        {
          "text": {
            "content": "Manchester United",
            "begin_offset": 67
          },
          "type": 1
        }
      ]
    },
    {
      "name": "giants",
      "type": 3,
      "salience": 0.045461427,
      "mentions": [
        {
          "text": {
            "content": "giants",
            "begin_offset": 221
          },
          "type": 2
        }
      ]
    },
    {
      "name": "wealth fund",
      "type": 7,
      "salience": 0.041778553,
      "mentions": [
        {
          "text": {
            "content": "wealth fund",
            "begin_offset": 157
          },
          "type": 2
        }
      ]
    },
    {
      "name": "Turki Al-Shabanah",
      "type": 1,
      "metadata": {
        "mid": "/g/11cl_5j33l",
        "wikipedia_url": "https://en.wikipedia.org/wiki/Turki_Al-Shabanah"
      },
      "salience": 0.037060328,
      "mentions": [
        {
          "text": {
            "content": "Turki Al-Shabanah",
            "begin_offset": 332
          },
          "type": 1
        },
        {
          "text": {
            "content": "media minister",
            "begin_offset": 317
          },
          "type": 2
        }
      ]
    },
    {
      "name": "Premier League",
      "type": 3,
      "metadata": {
        "mid": "/m/02_tc",
        "wikipedia_url": "https://en.wikipedia.org/wiki/Premier_League"
      },
      "salience": 0.027088422,
      "mentions": [
        {
          "text": {
            "content": "Premier League",
            "begin_offset": 201
          },
          "type": 1
        }
      ]
    },
    {
      "name": "country",
      "type": 2,
      "salience": 0.013516018,
      "mentions": [
        {
          "text": {
            "content": "country",
            "begin_offset": 373
          },
          "type": 2
        }
      ]
    },
    {
      "name": "takeover",
      "type": 4,
      "salience": 0.01166883,
      "mentions": [
        {
          "text": {
            "content": "takeover",
            "begin_offset": 388
          },
          "type": 2
        }
      ]
    },
    {
      "name": "Sun",
      "type": 3,
      "salience": 0.009740495,
      "mentions": [
        {
          "text": {
            "content": "Sun",
            "begin_offset": 234
          },
          "type": 1
        }
      ]
    },
    {
      "name": "bid",
      "type": 7,
      "salience": 0.007321838,
      "mentions": [
        {
          "text": {
            "content": "bid",
            "begin_offset": 281
          },
          "type": 2
        }
      ]
    }
  ],
  "language": "en"
}