{
  "entities": [
    {
      "name": "Google",
      "type": 3,
      "metadata": {
        "mid": "/m/045c7b",
        "wikipedia_url": "https://en.wikipedia.org/wiki/Google"
      },
      "salience": 0.54906076,
      "mentions": [
        {
          "text": {
            "content": "Google"
          },
          "type": 1
        },
        {
          "text": {
            "content": "Google",
            "begin_offset": 38
          },
          "type": 1
        }
      ]
    },
    {
      "name": "company",
      "type": 3,
      "salience": 0.20494227,
      "mentions": [
        {
          "text": {
            "content": "company",
            "begin_offset": 12
          },
          "type": 2
        }
      ]
    },
    {
      "name": "Mountain View.",
      "type": 2,
      "metadata": {
        "mid": "/m/0r6c4",
        "wikipedia_url": "https://en.wikipedia.org/wiki/Mountain_View,_California"
      },
      "salience": 0.1169321,
      "mentions": [
        {
          "text": {
            "content": "Mountain View.",
            "begin_offset": 23
          },
          "type": 1
        }
      ]
    },
    {
      "name": "things",
      "type": 7,
      "salience": 0.083750114,
      "mentions": [
        {
          "text": {
            "content": "things",
            "begin_offset": 51
          },
          "type": 2
        }
      ]
    }
  ],
  "language": "en"
}