{
  "entities": [
    {
      "name": "Barack Obama",
      "type": 1,
      "metadata": {
        "mid": "/m/02mjmr",
        "wikipedia_url": "https://en.wikipedia.org/wiki/Barack_Obama"
      },
      "salience": 0.7825252,
      "mentions": [
        {
          "text": {
            "content": "Barack Obama"
          },
          "type": 1
        }
      ]
    },
    {
      "name": "President of the United States of America",
      "type": 3,
      "metadata": {
        "mid": "/m/060d2",
        "wikipedia_url": "https://en.wikipedia.org/wiki/President_of_the_United_States"
      },
      "salience": 0.19122389,
      "mentions": [
        {
          "text": {
            "content": "President of the United States of America",
            "begin_offset": 20
          },
          "type": 1
        }
      ]
    },
    {
      "name": "Hawaii",
      "type": 2,
      "metadata": {
        "mid": "/m/03gh4",
        "wikipedia_url": "https://en.wikipedia.org/wiki/Hawaii"
      },
      "salience": 0.026250964,
      "mentions": [
        {
          "text": {
            "content": "Hawaii",
            "begin_offset": 78
          },
          "type": 1
        }
      ]
    }
  ],
  "language": "en"
}