{
  "entities": [
    {
      "name": "11",
      "type": 12,
      "metadata": {
        "value": "11"
      },
      "mentions": [
        {
          "text": {
            "content": "11"
          }
        }
      ]
    }
  ],
  "language": "ko"
}