{
  "entities": [
    {
      "name": "Coach Bags",
      "type": 6,
      "salience": 1,
      "mentions": [
        {
          "text": {
            "content": "Coach Bags",
            "begin_offset": 18
          },
          "type": 2
        }
      ]
    },
    {
      "name": "50",
      "type": 12,
      "metadata": {
        "value": "50"
      },
      "mentions": [
        {
          "text": {
            "content": "50",
            "begin_offset": 33
          }
        }
      ]
    }
  ],
  "language": "en"
}