{
  "entities": [
    {
      "name": "Tesla",
      "type": 3,
      "metadata": {
        "mid": "/m/0j6n6s8"
      },
      "salience": 0.43950096,
      "mentions": [
        {
          "text": {
            "content": "Tesla"
          },
          "type": 1
        }
      ]
    },
    {
      "name": "Problems",
      "type": 7,
      "salience": 0.35534126,
      "mentions": [
        {
          "text": {
            "content": "Problems",
            "begin_offset": 51
          },
          "type": 2
        }
      ]
    },
    {
      "name": "Musk Takes Charge of Model 3",
      "type": 5,
      "salience": 0.13418013,
      "mentions": [
        {
          "text": {
            "content": "Musk Takes Charge of Model 3",
            "begin_offset": 8
          },
          "type": 1
        }
      ]
    },
    {
      "name": "Production",
      "type": 7,
      "salience": 0.07097766,
      "mentions": [
        {
          "text": {
            "content": "Production",
            "begin_offset": 37
          },
          "type": 2
        }
      ]
    },
    {
      "name": "3",
      "type": 12,
      "metadata": {
        "value": "3"
      },
      "mentions": [
        {
          "text": {
            "content": "3",
            "begin_offset": 35
          }
        }
      ]
    }
  ],
  "language": "en"
}