{
  "entities": [
    {
      "name": "Trump",
      "type": 1,
      "metadata": {
        "mid": "/m/0cqt90",
        "wikipedia_url": "https://en.wikipedia.org/wiki/Donald_Trump"
      },
      "salience": 0.43300188,
      "mentions": [
        {
          "text": {
            "content": "Trump",
            "begin_offset": 10
          },
          "type": 1
        },
        {
          "text": {
            "content": "President"
          },
          "type": 2
        },
        {
          "text": {
            "content": "Trump",
            "begin_offset": 587
          },
          "type": 1
        }
      ]
    },
    {
      "name": "start",
      "type": 4,
      "salience": 0.09569767,
      "mentions": [
        {
          "text": {
            "content": "start",
            "begin_offset": 44
          },
          "type": 2
        }
      ]
    },
    {
      "name": "U.N.",
      "type": 3,
      "metadata": {
        "mid": "/m/07t65",
        "wikipedia_url": "https://en.wikipedia.org/wiki/United_Nations"
      },
      "salience": 0.07730875,
      "mentions": [
        {
          "text": {
            "content": "U.N.",
            "begin_offset": 57
          },
          "type": 1
        },
        {
          "text": {
            "content": "U.N.",
            "begin_offset": 448
          },
          "type": 1
        },
        {
          "text": {
            "content": "U.N.",
            "begin_offset": 805
          },
          "type": 1
        }
      ]
    },
    {
      "name": "Nikki Haley",
      "type": 1,
      "metadata": {
        "mid": "/m/027fsyf",
        "wikipedia_url": "https://en.wikipedia.org/wiki/Nikki_Haley"
      },
      "salience": 0.048174582,
      "mentions": [
        {
          "text": {
            "content": "Nikki Haley",
            "begin_offset": 170
          },
          "type": 1
        },
        {
          "text": {
            "content": "Ambassador",
            "begin_offset": 159
          },
          "type": 2
        },
        {
          "text": {
            "content": "Haley",
            "begin_offset": 347
          },
          "type": 1
        }
      ]
    },
    {
      "name": "organization",
      "type": 3,
      "salience": 0.04813316,
      "mentions": [
        {
          "text": {
            "content": "organization",
            "begin_offset": 481
          },
          "type": 2
        }
      ]
    },
    {
      "name": "General Assembly",
      "type": 3,
      "salience": 0.04679135,
      "mentions": [
        {
          "text": {
            "content": "General Assembly",
            "begin_offset": 62
          },
          "type": 2
        }
      ]
    },
    {
      "name": "panel",
      "type": 7,
      "salience": 0.04679135,
      "mentions": [
        {
          "text": {
            "content": "panel",
            "begin_offset": 112
          },
          "type": 2
        }
      ]
    },
    {
      "name": "presence",
      "type": 7,
      "salience": 0.020958155,
      "mentions": [
        {
          "text": {
            "content": "presence",
            "begin_offset": 814
          },
          "type": 2
        }
      ]
    },
    {
      "name": "remarks",
      "type": 7,
      "salience": 0.017887374,
      "mentions": [
        {
          "text": {
            "content": "remarks",
            "begin_offset": 234
          },
          "type": 2
        }
      ]
    },
    {
      "name": "diplomats",
      "type": 1,
      "salience": 0.017887374,
      "mentions": [
        {
          "text": {
            "content": "diplomats",
            "begin_offset": 138
          },
          "type": 2
        }
      ]
    },
    {
      "name": "president",
      "type": 1,
      "salience": 0.015090272,
      "mentions": [
        {
          "text": {
            "content": "president",
            "begin_offset": 399
          },
          "type": 2
        }
      ]
    },
    {
      "name": "applause",
      "type": 7,
      "salience": 0.014350302,
      "mentions": [
        {
          "text": {
            "content": "applause",
            "begin_offset": 297
          },
          "type": 2
        }
      ]
    },
    {
      "name": "clunker",
      "type": 7,
      "salience": 0.013884608,
      "mentions": [
        {
          "text": {
            "content": "clunker",
            "begin_offset": 338
          },
          "type": 2
        }
      ]
    },
    {
      "name": "potential",
      "type": 7,
      "salience": 0.013769243,
      "mentions": [
        {
          "text": {
            "content": "potential",
            "begin_offset": 428
          },
          "type": 2
        }
      ]
    },
    {
      "name": "light",
      "type": 7,
      "salience": 0.012087997,
      "mentions": [
        {
          "text": {
            "content": "light",
            "begin_offset": 312
          },
          "type": 2
        }
      ]
    },
    {
      "name": "flaws",
      "type": 7,
      "salience": 0.011080315,
      "mentions": [
        {
          "text": {
            "content": "flaws",
            "begin_offset": 545
          },
          "type": 2
        }
      ]
    },
    {
      "name": "reference",
      "type": 7,
      "salience": 0.009105342,
      "mentions": [
        {
          "text": {
            "content": "reference",
            "begin_offset": 728
          },
          "type": 2
        }
      ]
    },
    {
      "name": "street",
      "type": 2,
      "salience": 0.008355591,
      "mentions": [
        {
          "text": {
            "content": "street",
            "begin_offset": 714
          },
          "type": 2
        }
      ]
    },
    {
      "name": "one",
      "type": 7,
      "salience": 0.008355591,
      "mentions": [
        {
          "text": {
            "content": "one",
            "begin_offset": 741
          },
          "type": 2
        }
      ]
    },
    {
      "name": "slap",
      "type": 7,
      "salience": 0.0072106994,
      "mentions": [
        {
          "text": {
            "content": "slap",
            "begin_offset": 469
          },
          "type": 2
        }
      ]
    },
    {
      "name": "American",
      "type": 2,
      "salience": 0.0071617556,
      "mentions": [
        {
          "text": {
            "content": "American",
            "begin_offset": 389
          },
          "type": 1
        }
      ]
    },
    {
      "name": "potential",
      "type": 7,
      "salience": 0.0066481596,
      "mentions": [
        {
          "text": {
            "content": "potential",
            "begin_offset": 845
          },
          "type": 2
        }
      ]
    },
    {
      "name": "real-estate projects",
      "type": 7,
      "salience": 0.0058514816,
      "mentions": [
        {
          "text": {
            "content": "real-estate projects",
            "begin_offset": 762
          },
          "type": 2
        }
      ]
    },
    {
      "name": "ice water",
      "type": 7,
      "salience": 0.0036673488,
      "mentions": [
        {
          "text": {
            "content": "ice water",
            "begin_offset": 634
          },
          "type": 2
        }
      ]
    },
    {
      "name": "face-splash",
      "type": 7,
      "salience": 0.0036673488,
      "mentions": [
        {
          "text": {
            "content": "face-splash",
            "begin_offset": 618
          },
          "type": 2
        }
      ]
    },
    {
      "name": "dig",
      "type": 7,
      "salience": 0.0036225151,
      "mentions": [
        {
          "text": {
            "content": "dig",
            "begin_offset": 607
          },
          "type": 2
        }
      ]
    },
    {
      "name": "East Side",
      "type": 2,
      "salience": 0.0034597712,
      "mentions": [
        {
          "text": {
            "content": "East Side",
            "begin_offset": 752
          },
          "type": 1
        }
      ]
    },
    {
      "name": "72",
      "type": 12,
      "metadata": {
        "value": "72"
      },
      "mentions": [
        {
          "text": {
            "content": "72",
            "begin_offset": 519
          }
        }
      ]
    },
    {
      "name": "one",
      "type": 12,
      "metadata": {
        "value": "1"
      },
      "mentions": [
        {
          "text": {
            "content": "one",
            "begin_offset": 741
          }
        }
      ]
    }
  ],
  "language": "en"
}