{
  "entities": [
    {
      "name": "컬럼비아 대학교",
      "type": 3,
      "metadata": {
        "mid": "/m/01w5m",
        "wikipedia_url": "https://en.wikipedia.org/wiki/Columbia_University"
      },
      "salience": 0.50331986,
      "mentions": [
        {
          "text": {
            "content": "컬럼비아 대학교"
          },
          "type": 1
        }
      ]
    },
    {
      "name": "뉴욕",
      "type": 2,
      "metadata": {
        "mid": "/m/02_286",
        "wikipedia_url": "https://en.wikipedia.org/wiki/New_York_City"
      },
      "salience": 0.4966801,
      "mentions": [
        {
          "text": {
            "content": "뉴욕",
            "begin_offset": 26
          },
          "type": 1
        }
      ]
    }
  ],
  "language": "ko"
}