{
  "entities": [
    {
      "name": "Musk",
      "type": 1,
      "salience": 0.5624146,
      "mentions": [
        {
          "text": {
            "content": "Musk"
          },
          "type": 1
        }
      ]
    },
    {
      "name": "Model S",
      "type": 1,
      "salience": 0.43758544,
      "mentions": [
        {
          "text": {
            "content": "Model S",
            "begin_offset": 10
          },
          "type": 2
        }
      ]
    }
  ],
  "language": "en"
}