{
  "entities": [
    {
      "name": "Barack Obama",
      "type": 1,
      "metadata": {
        "mid": "/m/02mjmr",
        "wikipedia_url": "https://en.wikipedia.org/wiki/Barack_Obama"
      },
      "salience": 1,
      "mentions": [
        {
          "text": {
            "content": "Barack Obama"
          },
          "type": 1
        },
        {
          "text": {
            "content": "man",
            "begin_offset": 18
          },
          "type": 2
        }
      ]
    }
  ],
  "language": "en"
}