{
  "entities": [
    {
      "name": "partnership",
      "type": 7,
      "salience": 0.45771477,
      "mentions": [
        {
          "text": {
            "content": "partnership",
            "begin_offset": 32
          },
          "type": 2
        }
      ]
    },
    {
      "name": "Apple",
      "type": 3,
      "metadata": {
        "mid": "/m/0k8z",
        "wikipedia_url": "https://en.wikipedia.org/wiki/Apple_Inc."
      },
      "salience": 0.38108027,
      "mentions": [
        {
          "text": {
            "content": "Apple"
          },
          "type": 1
        }
      ]
    },
    {
      "name": "Google",
      "type": 3,
      "metadata": {
        "mid": "/m/045c7b",
        "wikipedia_url": "https://en.wikipedia.org/wiki/Google"
      },
      "salience": 0.16120495,
      "mentions": [
        {
          "text": {
            "content": "Google",
            "begin_offset": 10
          },
          "type": 1
        }
      ]
    }
  ],
  "language": "en"
}