{
  "entities": [
    {
      "name": "sushi section",
      "type": 7,
      "salience": 0.57776994,
      "mentions": [
        {
          "text": {
            "content": "sushi section",
            "begin_offset": 23
          },
          "type": 2
        },
        {
          "text": {
            "content": "sushi section",
            "begin_offset": 160
          },
          "type": 2
        },
        {
          "text": {
            "content": "sushi section",
            "begin_offset": 298
          },
          "type": 2
        }
      ]
    },
    {
      "name": "sashimi",
      "type": 7,
      "salience": 0.11925222,
      "mentions": [
        {
          "text": {
            "content": "sashimi",
            "begin_offset": 13
          },
          "type": 2
        }
      ]
    },
    {
      "name": "dinner buffet",
      "type": 7,
      "salience": 0.09782781,
      "mentions": [
        {
          "text": {
            "content": "dinner buffet",
            "begin_offset": 44
          },
          "type": 2
        }
      ]
    },
    {
      "name": "Japanese",
      "type": 2,
      "salience": 0.060191214,
      "mentions": [
        {
          "text": {
            "content": "Japanese",
            "begin_offset": 4
          },
          "type": 1
        }
      ]
    },
    {
      "name": "sashimi",
      "type": 7,
      "salience": 0.054697633,
      "mentions": [
        {
          "text": {
            "content": "sashimi",
            "begin_offset": 93
          },
          "type": 2
        }
      ]
    },
    {
      "name": "improvement",
      "type": 7,
      "salience": 0.019658152,
      "mentions": [
        {
          "text": {
            "content": "improvement",
            "begin_offset": 79
          },
          "type": 2
        }
      ]
    },
    {
      "name": "sushi",
      "type": 6,
      "salience": 0.016088357,
      "mentions": [
        {
          "text": {
            "content": "sushi",
            "begin_offset": 225
          },
          "type": 2
        }
      ]
    },
    {
      "name": "members",
      "type": 1,
      "salience": 0.012045898,
      "mentions": [
        {
          "text": {
            "content": "members",
            "begin_offset": 209
          },
          "type": 2
        }
      ]
    },
    {
      "name": "food",
      "type": 7,
      "salience": 0.01087392,
      "mentions": [
        {
          "text": {
            "content": "food",
            "begin_offset": 345
          },
          "type": 2
        }
      ]
    },
    {
      "name": "salad bar",
      "type": 7,
      "salience": 0.0076180566,
      "mentions": [
        {
          "text": {
            "content": "salad bar",
            "begin_offset": 364
          },
          "type": 2
        }
      ]
    },
    {
      "name": "sashimi",
      "type": 7,
      "salience": 0.007278845,
      "mentions": [
        {
          "text": {
            "content": "sashimi",
            "begin_offset": 123
          },
          "type": 2
        }
      ]
    },
    {
      "name": "Chinese",
      "type": 2,
      "salience": 0.005369287,
      "mentions": [
        {
          "text": {
            "content": "Chinese",
            "begin_offset": 337
          },
          "type": 1
        }
      ]
    },
    {
      "name": "counter",
      "type": 7,
      "salience": 0.004007541,
      "mentions": [
        {
          "text": {
            "content": "counter",
            "begin_offset": 243
          },
          "type": 2
        }
      ]
    },
    {
      "name": "attention",
      "type": 7,
      "salience": 0.0039965846,
      "mentions": [
        {
          "text": {
            "content": "attention",
            "begin_offset": 275
          },
          "type": 2
        }
      ]
    },
    {
      "name": "Management",
      "type": 7,
      "salience": 0.0033245739,
      "mentions": [
        {
          "text": {
            "content": "Management",
            "begin_offset": 253
          },
          "type": 2
        }
      ]
    },
    {
      "name": "2/16/18",
      "type": 11,
      "metadata": {
        "day": "16",
        "month": "2",
        "year": "2018"
      },
      "mentions": [
        {
          "text": {
            "content": "2/16/18",
            "begin_offset": 62
          }
        }
      ]
    },
    {
      "name": "16",
      "type": 12,
      "metadata": {
        "value": "16"
      },
      "mentions": [
        {
          "text": {
            "content": "16",
            "begin_offset": 64
          }
        }
      ]
    },
    {
      "name": "18",
      "type": 12,
      "metadata": {
        "value": "18"
      },
      "mentions": [
        {
          "text": {
            "content": "18",
            "begin_offset": 67
          }
        }
      ]
    },
    {
      "name": "2",
      "type": 12,
      "metadata": {
        "value": "2"
      },
      "mentions": [
        {
          "text": {
            "content": "2",
            "begin_offset": 62
          }
        }
      ]
    }
  ],
  "language": "en"
}