{
  "entities": [
    {
      "name": "shootings",
      "type": 4,
      "salience": 0.1590426,
      "mentions": [
        {
          "text": {
            "content": "shootings",
            "begin_offset": 28
          },
          "type": 2
        }
      ]
    },
    {
      "name": "surge",
      "type": 4,
      "salience": 0.14167492,
      "mentions": [
        {
          "text": {
            "content": "surge",
            "begin_offset": 19
          },
          "type": 2
        }
      ]
    },
    {
      "name": "response",
      "type": 7,
      "salience": 0.14167492,
      "mentions": [
        {
          "text": {
            "content": "response",
            "begin_offset": 3
          },
          "type": 2
        }
      ]
    },
    {
      "name": "Mark Saunders",
      "type": 1,
      "metadata": {
        "mid": "/m/0134jczr",
        "wikipedia_url": "https://en.wikipedia.org/wiki/Mark_Saunders_(police_officer)"
      },
      "salience": 0.12228733,
      "mentions": [
        {
          "text": {
            "content": "Mark Saunders",
            "begin_offset": 73
          },
          "type": 1
        },
        {
          "text": {
            "content": "police\n\tchief",
            "begin_offset": 59
          },
          "type": 2
        }
      ]
    },
    {
      "name": "plan",
      "type": 7,
      "salience": 0.10584545,
      "mentions": [
        {
          "text": {
            "content": "plan",
            "begin_offset": 119
          },
          "type": 2
        }
      ]
    },
    {
      "name": "John Tory",
      "type": 1,
      "metadata": {
        "mid": "/m/02pjhh",
        "wikipedia_url": "https://en.wikipedia.org/wiki/John_Tory"
      },
      "salience": 0.096972875,
      "mentions": [
        {
          "text": {
            "content": "John Tory",
            "begin_offset": 45
          },
          "type": 1
        },
        {
          "text": {
            "content": "Mayor",
            "begin_offset": 39
          },
          "type": 2
        }
      ]
    },
    {
      "name": "officers",
      "type": 1,
      "salience": 0.041517112,
      "mentions": [
        {
          "text": {
            "content": "officers",
            "begin_offset": 143
          },
          "type": 2
        }
      ]
    },
    {
      "name": "shootings",
      "type": 4,
      "salience": 0.040315345,
      "mentions": [
        {
          "text": {
            "content": "shootings",
            "begin_offset": 194
          },
          "type": 2
        }
      ]
    },
    {
      "name": "city",
      "type": 2,
      "salience": 0.039578646,
      "mentions": [
        {
          "text": {
            "content": "city",
            "begin_offset": 167
          },
          "type": 2
        }
      ]
    },
    {
      "name": "times",
      "type": 7,
      "salience": 0.03639567,
      "mentions": [
        {
          "text": {
            "content": "times",
            "begin_offset": 183
          },
          "type": 2
        }
      ]
    },
    {
      "name": "fund",
      "type": 7,
      "salience": 0.02759686,
      "mentions": [
        {
          "text": {
            "content": "fund",
            "begin_offset": 292
          },
          "type": 2
        }
      ]
    },
    {
      "name": "community programs",
      "type": 7,
      "salience": 0.019424586,
      "mentions": [
        {
          "text": {
            "content": "community programs",
            "begin_offset": 306
          },
          "type": 2
        }
      ]
    },
    {
      "name": "youth",
      "type": 7,
      "salience": 0.019424586,
      "mentions": [
        {
          "text": {
            "content": "youth",
            "begin_offset": 341
          },
          "type": 2
        }
      ]
    },
    {
      "name": "Tory",
      "type": 3,
      "salience": 0.008249113,
      "mentions": [
        {
          "text": {
            "content": "Tory",
            "begin_offset": 235
          },
          "type": 1
        }
      ]
    },
    {
      "name": "$3-million",
      "type": 13,
      "metadata": {
        "currency": "USD",
        "value": "3000000.000000"
      },
      "mentions": [
        {
          "text": {
            "content": "$3-million",
            "begin_offset": 108
          }
        }
      ]
    },
    {
      "name": "$12 million",
      "type": 13,
      "metadata": {
        "currency": "USD",
        "value": "12000000.000000"
      },
      "mentions": [
        {
          "text": {
            "content": "$12 million",
            "begin_offset": 255
          }
        }
      ]
    },
    {
      "name": "200",
      "type": 12,
      "metadata": {
        "value": "200"
      },
      "mentions": [
        {
          "text": {
            "content": "200",
            "begin_offset": 133
          }
        }
      ]
    },
    {
      "name": "12 million",
      "type": 12,
      "metadata": {
        "value": "12000000.000000"
      },
      "mentions": [
        {
          "text": {
            "content": "12 million",
            "begin_offset": 256
          }
        }
      ]
    },
    {
      "name": "3-million",
      "type": 12,
      "metadata": {
        "value": "3000000.000000"
      },
      "mentions": [
        {
          "text": {
            "content": "3-million",
            "begin_offset": 109
          }
        }
      ]
    }
  ],
  "language": "en"
}