{
  "entities": [
    {
      "name": "Amazon",
      "type": 3,
      "metadata": {
        "mid": "/m/0mgkg",
        "wikipedia_url": "https://en.wikipedia.org/wiki/Amazon_(company)"
      },
      "salience": 0.41032788,
      "mentions": [
        {
          "text": {
            "content": "Amazon"
          },
          "type": 1
        }
      ]
    },
    {
      "name": "industry leader",
      "type": 3,
      "salience": 0.23415875,
      "mentions": [
        {
          "text": {
            "content": "industry leader",
            "begin_offset": 22
          },
          "type": 2
        }
      ]
    },
    {
      "name": "Alexa",
      "type": 1,
      "salience": 0.21053109,
      "mentions": [
        {
          "text": {
            "content": "Alexa",
            "begin_offset": 9
          },
          "type": 1
        }
      ]
    },
    {
      "name": "assistants",
      "type": 1,
      "salience": 0.14498228,
      "mentions": [
        {
          "text": {
            "content": "assistants",
            "begin_offset": 50
          },
          "type": 2
        }
      ]
    }
  ],
  "language": "en"
}