{
  "entities": [
    {
      "name": "Leonard v",
      "type": 7,
      "salience": 0.7332315,
      "mentions": [
        {
          "text": {
            "content": "Leonard v"
          },
          "type": 1
        }
      ]
    },
    {
      "name": "Pepsico, Inc.",
      "type": 3,
      "metadata": {
        "mid": "/m/04htfd",
        "wikipedia_url": "https://en.wikipedia.org/wiki/PepsiCo"
      },
      "salience": 0.2667685,
      "mentions": [
        {
          "text": {
            "content": "Pepsico, Inc.",
            "begin_offset": 11
          },
          "type": 1
        }
      ]
    }
  ],
  "language": "en"
}