{
  "entities": [
    {
      "name": "exposure",
      "type": 7,
      "salience": 0.20405537,
      "mentions": [
        {
          "text": {
            "content": "exposure",
            "begin_offset": 63
          },
          "type": 2
        },
        {
          "text": {
            "content": "exposure",
            "begin_offset": 289
          },
          "type": 2
        }
      ]
    },
    {
      "name": "PSQ",
      "type": 3,
      "metadata": {
        "mid": "/g/1ywbqw_m3"
      },
      "salience": 0.14192717,
      "mentions": [
        {
          "text": {
            "content": "PSQ",
            "begin_offset": 420
          },
          "type": 1
        },
        {
          "text": {
            "content": "PSQ",
            "begin_offset": 589
          },
          "type": 1
        },
        {
          "text": {
            "content": "PSQ",
            "begin_offset": 906
          },
          "type": 1
        }
      ]
    },
    {
      "name": "index",
      "type": 7,
      "salience": 0.08929044,
      "mentions": [
        {
          "text": {
            "content": "index",
            "begin_offset": 106
          },
          "type": 2
        }
      ]
    },
    {
      "name": "market-cap",
      "type": 7,
      "salience": 0.06734635,
      "mentions": [
        {
          "text": {
            "content": "market-cap",
            "begin_offset": 86
          },
          "type": 2
        }
      ]
    },
    {
      "name": "Description",
      "type": 7,
      "salience": 0.06734635,
      "mentions": [
        {
          "text": {
            "content": "Description",
            "begin_offset": 9
          },
          "type": 2
        }
      ]
    },
    {
      "name": "issues",
      "type": 7,
      "salience": 0.06734635,
      "mentions": [
        {
          "text": {
            "content": "issues",
            "begin_offset": 148
          },
          "type": 2
        }
      ]
    },
    {
      "name": "PSQ Fund",
      "type": 7,
      "salience": 0.050113056,
      "mentions": [
        {
          "text": {
            "content": "PSQ Fund"
          },
          "type": 1
        }
      ]
    },
    {
      "name": "ProShares Short QQQ",
      "type": 3,
      "metadata": {
        "mid": "/g/11bc672_8g"
      },
      "salience": 0.044318408,
      "mentions": [
        {
          "text": {
            "content": "ProShares Short QQQ",
            "begin_offset": 25
          },
          "type": 1
        },
        {
          "text": {
            "content": "QQQ",
            "begin_offset": 263
          },
          "type": 1
        },
        {
          "text": {
            "content": "QQQ",
            "begin_offset": 488
          },
          "type": 1
        }
      ]
    },
    {
      "name": "index",
      "type": 7,
      "salience": 0.022827208,
      "mentions": [
        {
          "text": {
            "content": "index",
            "begin_offset": 335
          },
          "type": 2
        }
      ]
    },
    {
      "name": "NASDAQ",
      "type": 3,
      "metadata": {
        "mid": "/m/05dq_",
        "wikipedia_url": "https://en.wikipedia.org/wiki/Nasdaq"
      },
      "salience": 0.02187585,
      "mentions": [
        {
          "text": {
            "content": "NASDAQ",
            "begin_offset": 165
          },
          "type": 1
        }
      ]
    },
    {
      "name": "ETF",
      "type": 7,
      "salience": 0.012545532,
      "mentions": [
        {
          "text": {
            "content": "ETF",
            "begin_offset": 259
          },
          "type": 2
        }
      ]
    },
    {
      "name": "exposure",
      "type": 7,
      "salience": 0.0121166175,
      "mentions": [
        {
          "text": {
            "content": "exposure",
            "begin_offset": 533
          },
          "type": 2
        }
      ]
    },
    {
      "name": "Nasdaq-100",
      "type": 3,
      "metadata": {
        "mid": "/m/02fhwv",
        "wikipedia_url": "https://en.wikipedia.org/wiki/NASDAQ-100"
      },
      "salience": 0.011460281,
      "mentions": [
        {
          "text": {
            "content": "Nasdaq-100",
            "begin_offset": 305
          },
          "type": 1
        },
        {
          "text": {
            "content": "Nasdaq-100",
            "begin_offset": 460
          },
          "type": 1
        },
        {
          "text": {
            "content": "Nasdaq-100",
            "begin_offset": 497
          },
          "type": 1
        }
      ]
    },
    {
      "name": "index",
      "type": 7,
      "salience": 0.011433289,
      "mentions": [
        {
          "text": {
            "content": "index",
            "begin_offset": 471
          },
          "type": 2
        }
      ]
    },
    {
      "name": "bet",
      "type": 7,
      "salience": 0.011311274,
      "mentions": [
        {
          "text": {
            "content": "bet",
            "begin_offset": 225
          },
          "type": 2
        }
      ]
    },
    {
      "name": "PSQ Factset Analytics Insight PSQ",
      "type": 1,
      "salience": 0.01107721,
      "mentions": [
        {
          "text": {
            "content": "PSQ Factset Analytics Insight PSQ",
            "begin_offset": 173
          },
          "type": 1
        }
      ]
    },
    {
      "name": "swaps",
      "type": 7,
      "salience": 0.009716153,
      "mentions": [
        {
          "text": {
            "content": "swaps",
            "begin_offset": 447
          },
          "type": 2
        }
      ]
    },
    {
      "name": "swaps",
      "type": 7,
      "salience": 0.009716153,
      "mentions": [
        {
          "text": {
            "content": "swaps",
            "begin_offset": 478
          },
          "type": 2
        }
      ]
    },
    {
      "name": "firms",
      "type": 3,
      "salience": 0.009645598,
      "mentions": [
        {
          "text": {
            "content": "firms",
            "begin_offset": 413
          },
          "type": 2
        }
      ]
    },
    {
      "name": "firms",
      "type": 3,
      "salience": 0.009645598,
      "mentions": [
        {
          "text": {
            "content": "firms",
            "begin_offset": 344
          },
          "type": 2
        }
      ]
    },
    {
      "name": "combination",
      "type": 7,
      "salience": 0.008537967,
      "mentions": [
        {
          "text": {
            "content": "combination",
            "begin_offset": 432
          },
          "type": 2
        }
      ]
    },
    {
      "name": "futures",
      "type": 7,
      "salience": 0.008537967,
      "mentions": [
        {
          "text": {
            "content": "futures",
            "begin_offset": 509
          },
          "type": 2
        }
      ]
    },
    {
      "name": "exposure",
      "type": 7,
      "salience": 0.008462506,
      "mentions": [
        {
          "text": {
            "content": "exposure",
            "begin_offset": 621
          },
          "type": 2
        }
      ]
    },
    {
      "name": "exposure",
      "type": 7,
      "salience": 0.008336486,
      "mentions": [
        {
          "text": {
            "content": "exposure",
            "begin_offset": 848
          },
          "type": 2
        }
      ]
    },
    {
      "name": "inverse",
      "type": 2,
      "salience": 0.0078077675,
      "mentions": [
        {
          "text": {
            "content": "inverse",
            "begin_offset": 556
          },
          "type": 2
        }
      ]
    },
    {
      "name": "products",
      "type": 6,
      "salience": 0.0078077675,
      "mentions": [
        {
          "text": {
            "content": "products",
            "begin_offset": 579
          },
          "type": 2
        }
      ]
    },
    {
      "name": "basis",
      "type": 7,
      "salience": 0.0078077675,
      "mentions": [
        {
          "text": {
            "content": "basis",
            "begin_offset": 641
          },
          "type": 2
        }
      ]
    },
    {
      "name": "NASDAQNasdaq",
      "type": 7,
      "salience": 0.0071229828,
      "mentions": [
        {
          "text": {
            "content": "NASDAQNasdaq",
            "begin_offset": 376
          },
          "type": 1
        }
      ]
    },
    {
      "name": "returns",
      "type": 7,
      "salience": 0.005871004,
      "mentions": [
        {
          "text": {
            "content": "returns",
            "begin_offset": 795
          },
          "type": 2
        }
      ]
    },
    {
      "name": "trades",
      "type": 7,
      "salience": 0.005857872,
      "mentions": [
        {
          "text": {
            "content": "trades",
            "begin_offset": 910
          },
          "type": 2
        }
      ]
    },
    {
      "name": "being",
      "type": 1,
      "salience": 0.005441672,
      "mentions": [
        {
          "text": {
            "content": "being",
            "begin_offset": 894
          },
          "type": 2
        }
      ]
    },
    {
      "name": "funds",
      "type": 7,
      "salience": 0.005109148,
      "mentions": [
        {
          "text": {
            "content": "funds",
            "begin_offset": 1000
          },
          "type": 2
        }
      ]
    },
    {
      "name": "fund",
      "type": 7,
      "salience": 0.0045370776,
      "mentions": [
        {
          "text": {
            "content": "fund",
            "begin_offset": 718
          },
          "type": 2
        }
      ]
    },
    {
      "name": "inverse-equity segment",
      "type": 7,
      "salience": 0.004094099,
      "mentions": [
        {
          "text": {
            "content": "inverse-equity segment",
            "begin_offset": 1014
          },
          "type": 2
        }
      ]
    },
    {
      "name": "block liquidity",
      "type": 7,
      "salience": 0.0040022447,
      "mentions": [
        {
          "text": {
            "content": "block\n\tliquidity",
            "begin_offset": 940
          },
          "type": 2
        }
      ]
    },
    {
      "name": "fees",
      "type": 7,
      "salience": 0.0039946674,
      "mentions": [
        {
          "text": {
            "content": "fees",
            "begin_offset": 962
          },
          "type": 2
        }
      ]
    },
    {
      "name": "index",
      "type": 7,
      "salience": 0.00346298,
      "mentions": [
        {
          "text": {
            "content": "index",
            "begin_offset": 692
          },
          "type": 2
        }
      ]
    },
    {
      "name": "inverse bet",
      "type": 7,
      "salience": 0.0029411141,
      "mentions": [
        {
          "text": {
            "content": "inverse bet",
            "begin_offset": 668
          },
          "type": 2
        }
      ]
    },
    {
      "name": "Anyone",
      "type": 1,
      "salience": 0.0025763249,
      "mentions": [
        {
          "text": {
            "content": "Anyone",
            "begin_offset": 699
          },
          "type": 2
        }
      ]
    },
    {
      "name": "effects",
      "type": 7,
      "salience": 0.0025763249,
      "mentions": [
        {
          "text": {
            "content": "effects",
            "begin_offset": 769
          },
          "type": 2
        }
      ]
    },
    {
      "name": "100",
      "type": 12,
      "metadata": {
        "value": "100"
      },
      "mentions": [
        {
          "text": {
            "content": "100",
            "begin_offset": 115
          }
        }
      ]
    },
    {
      "name": "100",
      "type": 12,
      "metadata": {
        "value": "100"
      },
      "mentions": [
        {
          "text": {
            "content": "100",
            "begin_offset": 323
          }
        }
      ]
    },
    {
      "name": "100",
      "type": 12,
      "metadata": {
        "value": "100"
      },
      "mentions": [
        {
          "text": {
            "content": "100",
            "begin_offset": 467
          }
        }
      ]
    },
    {
      "name": "100",
      "type": 12,
      "metadata": {
        "value": "100"
      },
      "mentions": [
        {
          "text": {
            "content": "100",
            "begin_offset": 312
          }
        }
      ]
    },
    {
      "name": "100",
      "type": 12,
      "metadata": {
        "value": "100"
      },
      "mentions": [
        {
          "text": {
            "content": "100",
            "begin_offset": 504
          }
        }
      ]
    }
  ],
  "language": "en"
}