{
  "entities": [
    {
      "name": "Brady",
      "type": 1,
      "salience": 0.4599324,
      "mentions": [
        {
          "text": {
            "content": "Brady"
          },
          "type": 1
        }
      ]
    },
    {
      "name": "combination",
      "type": 7,
      "salience": 0.26475433,
      "mentions": [
        {
          "text": {
            "content": "combination",
            "begin_offset": 32
          },
          "type": 2
        }
      ]
    },
    {
      "name": "Belichick",
      "type": 1,
      "metadata": {
        "mid": "/m/02_fs7",
        "wikipedia_url": "https://en.wikipedia.org/wiki/Bill_Belichick"
      },
      "salience": 0.20372668,
      "mentions": [
        {
          "text": {
            "content": "Belichick",
            "begin_offset": 10
          },
          "type": 1
        }
      ]
    },
    {
      "name": "Patriots",
      "type": 3,
      "metadata": {
        "mid": "/m/05g3b",
        "wikipedia_url": "https://en.wikipedia.org/wiki/New_England_Patriots"
      },
      "salience": 0.071586624,
      "mentions": [
        {
          "text": {
            "content": "Patriots",
            "begin_offset": 52
          },
          "type": 1
        }
      ]
    }
  ],
  "language": "en"
}