{
  "entities": [
    {
      "name": "programming language",
      "type": 7,
      "salience": 0.82606834,
      "mentions": [
        {
          "text": {
            "content": "Muon"
          },
          "type": 2
        },
        {
          "text": {
            "content": "programming language",
            "begin_offset": 27
          },
          "type": 2
        }
      ]
    },
    {
      "name": "C",
      "type": 1,
      "salience": 0.05851699,
      "mentions": [
        {
          "text": {
            "content": "C",
            "begin_offset": 61
          },
          "type": 1
        }
      ]
    },
    {
      "name": "Rust",
      "type": 1,
      "salience": 0.04447265,
      "mentions": [
        {
          "text": {
            "content": "Rust",
            "begin_offset": 72
          },
          "type": 1
        }
      ]
    },
    {
      "name": "Python",
      "type": 3,
      "metadata": {
        "mid": "/m/05z1_",
        "wikipedia_url": "https://en.wikipedia.org/wiki/Python_(programming_language)"
      },
      "salience": 0.031370174,
      "mentions": [
        {
          "text": {
            "content": "Python",
            "begin_offset": 81
          },
          "type": 1
        }
      ]
    },
    {
      "name": "C#",
      "type": 7,
      "metadata": {
        "mid": "/m/07657k",
        "wikipedia_url": "https://en.wikipedia.org/wiki/C_Sharp_(programming_language)"
      },
      "salience": 0.019785933,
      "mentions": [
        {
          "text": {
            "content": "C#",
            "begin_offset": 64
          },
          "type": 1
        }
      ]
    },
    {
      "name": "Go",
      "type": 3,
      "salience": 0.019785933,
      "mentions": [
        {
          "text": {
            "content": "Go",
            "begin_offset": 68
          },
          "type": 1
        }
      ]
    }
  ],
  "language": "en"
}