{
  "entities": [
    {
      "name": "YC",
      "type": 1,
      "salience": 0.45342737,
      "mentions": [
        {
          "text": {
            "content": "YC",
            "begin_offset": 3
          },
          "type": 1
        }
      ]
    },
    {
      "name": "app",
      "type": 6,
      "salience": 0.307109,
      "mentions": [
        {
          "text": {
            "content": "app",
            "begin_offset": 6
          },
          "type": 2
        }
      ]
    },
    {
      "name": "Dropbox",
      "type": 7,
      "metadata": {
        "mid": "/m/04mzcr5",
        "wikipedia_url": "https://en.wikipedia.org/wiki/Dropbox_(service)"
      },
      "salience": 0.13050184,
      "mentions": [
        {
          "text": {
            "content": "Dropbox",
            "begin_offset": 11
          },
          "type": 1
        }
      ]
    },
    {
      "name": "USB drive",
      "type": 6,
      "salience": 0.108961806,
      "mentions": [
        {
          "text": {
            "content": "USB drive",
            "begin_offset": 37
          },
          "type": 2
        }
      ]
    }
  ],
  "language": "en"
}