{
  "entities": [
    {
      "name": "station",
      "type": 3,
      "salience": 0.2054617,
      "mentions": [
        {
          "text": {
            "content": "station",
            "begin_offset": 12
          },
          "type": 2
        }
      ]
    },
    {
      "name": "Bloor-Yonge",
      "type": 2,
      "metadata": {
        "mid": "/m/04rdqv",
        "wikipedia_url": "https://en.wikipedia.org/wiki/Bloor–Yonge_station"
      },
      "salience": 0.10837664,
      "mentions": [
        {
          "text": {
            "content": "Bloor-Yonge"
          },
          "type": 1
        },
        {
          "text": {
            "content": "Bloor-Yonge",
            "begin_offset": 308
          },
          "type": 1
        },
        {
          "text": {
            "content": "Bloor-Yonge",
            "begin_offset": 495
          },
          "type": 1
        },
        {
          "text": {
            "content": "Bloor-Yonge",
            "begin_offset": 627
          },
          "type": 1
        }
      ]
    },
    {
      "name": "station",
      "type": 2,
      "salience": 0.08949469,
      "mentions": [
        {
          "text": {
            "content": "station",
            "begin_offset": 507
          },
          "type": 2
        },
        {
          "text": {
            "content": "station",
            "begin_offset": 639
          },
          "type": 2
        }
      ]
    },
    {
      "name": "platform",
      "type": 7,
      "salience": 0.07132424,
      "mentions": [
        {
          "text": {
            "content": "platform",
            "begin_offset": 122
          },
          "type": 2
        }
      ]
    },
    {
      "name": "changes",
      "type": 7,
      "salience": 0.042218238,
      "mentions": [
        {
          "text": {
            "content": "changes",
            "begin_offset": 141
          },
          "type": 2
        }
      ]
    },
    {
      "name": "subway intersection",
      "type": 2,
      "salience": 0.042218238,
      "mentions": [
        {
          "text": {
            "content": "subway intersection",
            "begin_offset": 77
          },
          "type": 2
        }
      ]
    },
    {
      "name": "overcrowding",
      "type": 7,
      "salience": 0.042218238,
      "mentions": [
        {
          "text": {
            "content": "overcrowding",
            "begin_offset": 183
          },
          "type": 2
        }
      ]
    },
    {
      "name": "commuters",
      "type": 1,
      "salience": 0.042218238,
      "mentions": [
        {
          "text": {
            "content": "commuters",
            "begin_offset": 34
          },
          "type": 2
        }
      ]
    },
    {
      "name": "Toronto",
      "type": 2,
      "metadata": {
        "mid": "/m/0h7h6",
        "wikipedia_url": "https://en.wikipedia.org/wiki/Toronto"
      },
      "salience": 0.028600303,
      "mentions": [
        {
          "text": {
            "content": "Toronto",
            "begin_offset": 60
          },
          "type": 1
        }
      ]
    },
    {
      "name": "point",
      "type": 7,
      "salience": 0.02643495,
      "mentions": [
        {
          "text": {
            "content": "point",
            "begin_offset": 355
          },
          "type": 2
        }
      ]
    },
    {
      "name": "pinch point",
      "type": 7,
      "salience": 0.023583636,
      "mentions": [
        {
          "text": {
            "content": "pinch point",
            "begin_offset": 1227
          },
          "type": 2
        }
      ]
    },
    {
      "name": "crowds",
      "type": 7,
      "salience": 0.023267291,
      "mentions": [
        {
          "text": {
            "content": "crowds",
            "begin_offset": 584
          },
          "type": 2
        },
        {
          "text": {
            "content": "crowds",
            "begin_offset": 716
          },
          "type": 2
        }
      ]
    },
    {
      "name": "busiest",
      "type": 7,
      "salience": 0.020469366,
      "mentions": [
        {
          "text": {
            "content": "busiest",
            "begin_offset": 209
          },
          "type": 2
        }
      ]
    },
    {
      "name": "point",
      "type": 7,
      "salience": 0.017969882,
      "mentions": [
        {
          "text": {
            "content": "point",
            "begin_offset": 665
          },
          "type": 2
        }
      ]
    },
    {
      "name": "point",
      "type": 7,
      "salience": 0.017814336,
      "mentions": [
        {
          "text": {
            "content": "point",
            "begin_offset": 533
          },
          "type": 2
        }
      ]
    },
    {
      "name": "level",
      "type": 7,
      "salience": 0.013761045,
      "mentions": [
        {
          "text": {
            "content": "level",
            "begin_offset": 967
          },
          "type": 2
        }
      ]
    },
    {
      "name": "subway stations",
      "type": 2,
      "salience": 0.011051238,
      "mentions": [
        {
          "text": {
            "content": "subway stations",
            "begin_offset": 235
          },
          "type": 2
        }
      ]
    },
    {
      "name": "city staff",
      "type": 1,
      "salience": 0.009537582,
      "mentions": [
        {
          "text": {
            "content": "city staff",
            "begin_offset": 367
          },
          "type": 2
        }
      ]
    },
    {
      "name": "passengers",
      "type": 1,
      "salience": 0.008861193,
      "mentions": [
        {
          "text": {
            "content": "passengers",
            "begin_offset": 274
          },
          "type": 2
        }
      ]
    },
    {
      "name": "priority list",
      "type": 7,
      "salience": 0.0077864015,
      "mentions": [
        {
          "text": {
            "content": "priority list",
            "begin_offset": 334
          },
          "type": 2
        }
      ]
    },
    {
      "name": "platform",
      "type": 7,
      "salience": 0.0064431317,
      "mentions": [
        {
          "text": {
            "content": "platform",
            "begin_offset": 931
          },
          "type": 2
        }
      ]
    },
    {
      "name": "riders",
      "type": 1,
      "salience": 0.006005996,
      "mentions": [
        {
          "text": {
            "content": "riders",
            "begin_offset": 726
          },
          "type": 2
        }
      ]
    },
    {
      "name": "transit funding",
      "type": 7,
      "salience": 0.0059834067,
      "mentions": [
        {
          "text": {
            "content": "transit funding",
            "begin_offset": 421
          },
          "type": 2
        }
      ]
    },
    {
      "name": "riders",
      "type": 1,
      "salience": 0.005953688,
      "mentions": [
        {
          "text": {
            "content": "riders",
            "begin_offset": 594
          },
          "type": 2
        }
      ]
    },
    {
      "name": "city spokesperson",
      "type": 1,
      "salience": 0.0055793375,
      "mentions": [
        {
          "text": {
            "content": "city spokesperson",
            "begin_offset": 604
          },
          "type": 2
        }
      ]
    },
    {
      "name": "city spokesperson",
      "type": 1,
      "salience": 0.0055307355,
      "mentions": [
        {
          "text": {
            "content": "city spokesperson",
            "begin_offset": 472
          },
          "type": 2
        }
      ]
    },
    {
      "name": "Yonge",
      "type": 7,
      "metadata": {
        "mid": "/m/01pycc",
        "wikipedia_url": "https://en.wikipedia.org/wiki/Yonge_Street"
      },
      "salience": 0.005485982,
      "mentions": [
        {
          "text": {
            "content": "Yonge",
            "begin_offset": 1048
          },
          "type": 1
        },
        {
          "text": {
            "content": "Yonge",
            "begin_offset": 1391
          },
          "type": 1
        }
      ]
    },
    {
      "name": "funding",
      "type": 7,
      "salience": 0.005483846,
      "mentions": [
        {
          "text": {
            "content": "funding",
            "begin_offset": 818
          },
          "type": 2
        }
      ]
    },
    {
      "name": "levels",
      "type": 7,
      "salience": 0.0054734726,
      "mentions": [
        {
          "text": {
            "content": "levels",
            "begin_offset": 893
          },
          "type": 2
        }
      ]
    },
    {
      "name": "expansion",
      "type": 4,
      "salience": 0.005256718,
      "mentions": [
        {
          "text": {
            "content": "expansion",
            "begin_offset": 459
          },
          "type": 2
        }
      ]
    },
    {
      "name": "cost",
      "type": 7,
      "salience": 0.005250354,
      "mentions": [
        {
          "text": {
            "content": "cost",
            "begin_offset": 782
          },
          "type": 2
        }
      ]
    },
    {
      "name": "station",
      "type": 2,
      "salience": 0.005140338,
      "mentions": [
        {
          "text": {
            "content": "station",
            "begin_offset": 1246
          },
          "type": 2
        }
      ]
    },
    {
      "name": "city council",
      "type": 3,
      "salience": 0.004808562,
      "mentions": [
        {
          "text": {
            "content": "city council",
            "begin_offset": 870
          },
          "type": 2
        }
      ]
    },
    {
      "name": "government",
      "type": 3,
      "salience": 0.004808562,
      "mentions": [
        {
          "text": {
            "content": "government",
            "begin_offset": 903
          },
          "type": 2
        }
      ]
    },
    {
      "name": "city",
      "type": 2,
      "salience": 0.004792399,
      "mentions": [
        {
          "text": {
            "content": "city",
            "begin_offset": 798
          },
          "type": 2
        }
      ]
    },
    {
      "name": "TTC",
      "type": 3,
      "metadata": {
        "mid": "/m/07m8y",
        "wikipedia_url": "https://en.wikipedia.org/wiki/Toronto_Transit_Commission"
      },
      "salience": 0.0046070395,
      "mentions": [
        {
          "text": {
            "content": "TTC",
            "begin_offset": 224
          },
          "type": 1
        }
      ]
    },
    {
      "name": "end",
      "type": 2,
      "salience": 0.0036184702,
      "mentions": [
        {
          "text": {
            "content": "end",
            "begin_offset": 1264
          },
          "type": 2
        }
      ]
    },
    {
      "name": "trains",
      "type": 7,
      "salience": 0.0036184702,
      "mentions": [
        {
          "text": {
            "content": "trains",
            "begin_offset": 1307
          },
          "type": 2
        }
      ]
    },
    {
      "name": "sides",
      "type": 7,
      "salience": 0.0036184702,
      "mentions": [
        {
          "text": {
            "content": "sides",
            "begin_offset": 1200
          },
          "type": 2
        }
      ]
    },
    {
      "name": "tracks",
      "type": 5,
      "salience": 0.0036184702,
      "mentions": [
        {
          "text": {
            "content": "tracks",
            "begin_offset": 1185
          },
          "type": 2
        }
      ]
    },
    {
      "name": "improvements",
      "type": 7,
      "salience": 0.0036132338,
      "mentions": [
        {
          "text": {
            "content": "improvements",
            "begin_offset": 1351
          },
          "type": 2
        }
      ]
    },
    {
      "name": "Andrew Francis Wallace",
      "type": 1,
      "salience": 0.003542545,
      "mentions": [
        {
          "text": {
            "content": "Andrew Francis Wallace",
            "begin_offset": 736
          },
          "type": 1
        }
      ]
    },
    {
      "name": "line platform",
      "type": 7,
      "salience": 0.0033904214,
      "mentions": [
        {
          "text": {
            "content": "line platform",
            "begin_offset": 1397
          },
          "type": 2
        }
      ]
    },
    {
      "name": "Toronto Star",
      "type": 3,
      "metadata": {
        "mid": "/m/011m14",
        "wikipedia_url": "https://en.wikipedia.org/wiki/Toronto_Star"
      },
      "salience": 0.0031118242,
      "mentions": [
        {
          "text": {
            "content": "Toronto Star",
            "begin_offset": 761
          },
          "type": 1
        }
      ]
    },
    {
      "name": "Line 1",
      "type": 2,
      "metadata": {
        "mid": "/m/02w_5g",
        "wikipedia_url": "https://en.wikipedia.org/wiki/Line_1_Yonge–University"
      },
      "salience": 0.0026661896,
      "mentions": [
        {
          "text": {
            "content": "Line 1",
            "begin_offset": 1384
          },
          "type": 1
        }
      ]
    },
    {
      "name": "planning",
      "type": 7,
      "salience": 0.002526011,
      "mentions": [
        {
          "text": {
            "content": "planning",
            "begin_offset": 1457
          },
          "type": 2
        }
      ]
    },
    {
      "name": "construction",
      "type": 7,
      "salience": 0.002526011,
      "mentions": [
        {
          "text": {
            "content": "construction",
            "begin_offset": 1470
          },
          "type": 2
        }
      ]
    },
    {
      "name": "project",
      "type": 7,
      "salience": 0.002526011,
      "mentions": [
        {
          "text": {
            "content": "project",
            "begin_offset": 1498
          },
          "type": 2
        }
      ]
    },
    {
      "name": "capacity",
      "type": 7,
      "salience": 0.002526011,
      "mentions": [
        {
          "text": {
            "content": "capacity",
            "begin_offset": 1570
          },
          "type": 2
        }
      ]
    },
    {
      "name": "city staff report",
      "type": 5,
      "salience": 0.002495126,
      "mentions": [
        {
          "text": {
            "content": "city staff report",
            "begin_offset": 1415
          },
          "type": 2
        }
      ]
    },
    {
      "name": "wall",
      "type": 2,
      "salience": 0.0021765858,
      "mentions": [
        {
          "text": {
            "content": "wall",
            "begin_offset": 994
          },
          "type": 2
        }
      ]
    },
    {
      "name": "platforms",
      "type": 7,
      "salience": 0.0021275454,
      "mentions": [
        {
          "text": {
            "content": "platforms",
            "begin_offset": 1136
          },
          "type": 2
        }
      ]
    },
    {
      "name": "computer modelling",
      "type": 7,
      "salience": 0.0021003196,
      "mentions": [
        {
          "text": {
            "content": "computer modelling",
            "begin_offset": 1539
          },
          "type": 2
        }
      ]
    },
    {
      "name": "passengers",
      "type": 1,
      "salience": 0.0018097257,
      "mentions": [
        {
          "text": {
            "content": "passengers",
            "begin_offset": 1021
          },
          "type": 2
        }
      ]
    },
    {
      "name": "elevators",
      "type": 7,
      "salience": 0.0015895171,
      "mentions": [
        {
          "text": {
            "content": "elevators",
            "begin_offset": 1104
          },
          "type": 2
        }
      ]
    },
    {
      "name": "escalators",
      "type": 6,
      "salience": 0.0015895171,
      "mentions": [
        {
          "text": {
            "content": "escalators",
            "begin_offset": 1089
          },
          "type": 2
        }
      ]
    },
    {
      "name": "stairs",
      "type": 7,
      "salience": 0.0015895171,
      "mentions": [
        {
          "text": {
            "content": "stairs",
            "begin_offset": 1081
          },
          "type": 2
        }
      ]
    },
    {
      "name": "set",
      "type": 7,
      "salience": 0.0015895171,
      "mentions": [
        {
          "text": {
            "content": "set",
            "begin_offset": 1074
          },
          "type": 2
        }
      ]
    },
    {
      "name": "island",
      "type": 2,
      "salience": 0.001586907,
      "mentions": [
        {
          "text": {
            "content": "island",
            "begin_offset": 1173
          },
          "type": 2
        }
      ]
    },
    {
      "name": "Line 2",
      "type": 2,
      "salience": 0.001172577,
      "mentions": [
        {
          "text": {
            "content": "Line 2",
            "begin_offset": 1014
          },
          "type": 1
        }
      ]
    },
    {
      "name": "1966",
      "type": 11,
      "metadata": {
        "year": "1966"
      },
      "mentions": [
        {
          "text": {
            "content": "1966",
            "begin_offset": 100
          }
        }
      ]
    },
    {
      "name": "2028",
      "type": 11,
      "metadata": {
        "year": "2028"
      },
      "mentions": [
        {
          "text": {
            "content": "2028",
            "begin_offset": 1602
          }
        }
      ]
    },
    {
      "name": "$500 million",
      "type": 13,
      "metadata": {
        "currency": "USD",
        "value": "500000000.000000"
      },
      "mentions": [
        {
          "text": {
            "content": "$500 million",
            "begin_offset": 388
          }
        }
      ]
    },
    {
      "name": "$1.1 billion",
      "type": 13,
      "metadata": {
        "currency": "USD",
        "value": "1100000000.000000"
      },
      "mentions": [
        {
          "text": {
            "content": "$1.1 billion",
            "begin_offset": 840
          }
        }
      ]
    },
    {
      "name": "75",
      "type": 12,
      "metadata": {
        "value": "75"
      },
      "mentions": [
        {
          "text": {
            "content": "75",
            "begin_offset": 232
          }
        }
      ]
    },
    {
      "name": "1",
      "type": 12,
      "metadata": {
        "value": "1"
      },
      "mentions": [
        {
          "text": {
            "content": "1",
            "begin_offset": 1389
          }
        }
      ]
    },
    {
      "name": "1966",
      "type": 12,
      "metadata": {
        "value": "1966"
      },
      "mentions": [
        {
          "text": {
            "content": "1966",
            "begin_offset": 100
          }
        }
      ]
    },
    {
      "name": "two",
      "type": 12,
      "metadata": {
        "value": "2"
      },
      "mentions": [
        {
          "text": {
            "content": "two",
            "begin_offset": 1123
          }
        }
      ]
    },
    {
      "name": "1.1 billion",
      "type": 12,
      "metadata": {
        "value": "1100000000.000000"
      },
      "mentions": [
        {
          "text": {
            "content": "1.1 billion",
            "begin_offset": 841
          }
        }
      ]
    },
    {
      "name": "2",
      "type": 12,
      "metadata": {
        "value": "2"
      },
      "mentions": [
        {
          "text": {
            "content": "2",
            "begin_offset": 1019
          }
        }
      ]
    },
    {
      "name": "2028",
      "type": 12,
      "metadata": {
        "value": "2028"
      },
      "mentions": [
        {
          "text": {
            "content": "2028",
            "begin_offset": 1602
          }
        }
      ]
    },
    {
      "name": "500 million",
      "type": 12,
      "metadata": {
        "value": "500000000.000000"
      },
      "mentions": [
        {
          "text": {
            "content": "500 million",
            "begin_offset": 389
          }
        }
      ]
    },
    {
      "name": "200,000",
      "type": 12,
      "metadata": {
        "value": "200000"
      },
      "mentions": [
        {
          "text": {
            "content": "200,000",
            "begin_offset": 266
          }
        }
      ]
    }
  ],
  "language": "en"
}