{
  "entities": [
    {
      "name": "컬럼비아 대학교",
      "type": 3,
      "metadata": {
        "mid": "/m/01w5m",
        "wikipedia_url": "https://en.wikipedia.org/wiki/Columbia_University"
      },
      "salience": 1,
      "mentions": [
        {
          "text": {
            "content": "컬럼비아 대학교"
          },
          "type": 1
        }
      ]
    }
  ],
  "language": "ko"
}