{
  "entities": [
    {
      "name": "Vlad Putin",
      "type": 1,
      "metadata": {
        "mid": "/m/08193",
        "wikipedia_url": "https://en.wikipedia.org/wiki/Vladimir_Putin"
      },
      "salience": 1,
      "mentions": [
        {
          "text": {
            "content": "Vlad Putin",
            "begin_offset": 6
          },
          "type": 1
        }
      ]
    }
  ],
  "language": "en"
}