{
  "entities": [
    {
      "name": "train",
      "type": 7,
      "salience": 0.681895,
      "mentions": [
        {
          "text": {
            "content": "train",
            "begin_offset": 11
          },
          "type": 2
        }
      ]
    },
    {
      "name": "Brooklyn",
      "type": 2,
      "metadata": {
        "mid": "/m/0cr3d",
        "wikipedia_url": "https://en.wikipedia.org/wiki/Brooklyn"
      },
      "salience": 0.19470772,
      "mentions": [
        {
          "text": {
            "content": "Brooklyn",
            "begin_offset": 41
          },
          "type": 1
        }
      ]
    },
    {
      "name": "Jackson Heights",
      "type": 2,
      "metadata": {
        "mid": "/m/01qcvw",
        "wikipedia_url": "https://en.wikipedia.org/wiki/Jackson_Heights,_Queens"
      },
      "salience": 0.12339726,
      "mentions": [
        {
          "text": {
            "content": "Jackson Heights",
            "begin_offset": 22
          },
          "type": 1
        }
      ]
    }
  ],
  "language": "en"
}