{
  "entities": [
    {
      "name": "Hogan",
      "type": 1,
      "salience": 0.41866037,
      "mentions": [
        {
          "text": {
            "content": "Hogan",
            "begin_offset": 70
          },
          "type": 1
        },
        {
          "text": {
            "content": "Hogan",
            "begin_offset": 192
          },
          "type": 1
        },
        {
          "text": {
            "content": "Hogan",
            "begin_offset": 209
          },
          "type": 1
        }
      ]
    },
    {
      "name": "incident",
      "type": 4,
      "salience": 0.3213093,
      "mentions": [
        {
          "text": {
            "content": "incident",
            "begin_offset": 13
          },
          "type": 2
        },
        {
          "text": {
            "content": "attempt",
            "begin_offset": 29
          },
          "type": 2
        }
      ]
    },
    {
      "name": "McMahon",
      "type": 1,
      "salience": 0.060100183,
      "mentions": [
        {
          "text": {
            "content": "McMahon",
            "begin_offset": 40
          },
          "type": 1
        }
      ]
    },
    {
      "name": "babyface match",
      "type": 4,
      "salience": 0.030883063,
      "mentions": [
        {
          "text": {
            "content": "babyface match",
            "begin_offset": 113
          },
          "type": 2
        }
      ]
    },
    {
      "name": "fans",
      "type": 1,
      "salience": 0.028240832,
      "mentions": [
        {
          "text": {
            "content": "fans",
            "begin_offset": 179
          },
          "type": 2
        }
      ]
    },
    {
      "name": "order",
      "type": 7,
      "salience": 0.027064322,
      "mentions": [
        {
          "text": {
            "content": "order",
            "begin_offset": 154
          },
          "type": 2
        }
      ]
    },
    {
      "name": "way",
      "type": 7,
      "salience": 0.026740914,
      "mentions": [
        {
          "text": {
            "content": "way",
            "begin_offset": 98
          },
          "type": 2
        }
      ]
    },
    {
      "name": "fans",
      "type": 1,
      "salience": 0.02534448,
      "mentions": [
        {
          "text": {
            "content": "fans",
            "begin_offset": 60
          },
          "type": 2
        }
      ]
    },
    {
      "name": "friendship",
      "type": 7,
      "salience": 0.018843774,
      "mentions": [
        {
          "text": {
            "content": "friendship",
            "begin_offset": 286
          },
          "type": 2
        }
      ]
    },
    {
      "name": "chance",
      "type": 7,
      "salience": 0.018843774,
      "mentions": [
        {
          "text": {
            "content": "chance",
            "begin_offset": 262
          },
          "type": 2
        }
      ]
    },
    {
      "name": "Warrior",
      "type": 3,
      "salience": 0.018349415,
      "mentions": [
        {
          "text": {
            "content": "Warrior",
            "begin_offset": 137
          },
          "type": 1
        }
      ]
    },
    {
      "name": "Warrior",
      "type": 1,
      "salience": 0.005619572,
      "mentions": [
        {
          "text": {
            "content": "Warrior",
            "begin_offset": 239
          },
          "type": 1
        }
      ]
    }
  ],
  "language": "en"
}