{
  "entities": [
    {
      "name": "Mike",
      "type": 1,
      "salience": 0.8630746,
      "mentions": [
        {
          "text": {
            "content": "Mike",
            "begin_offset": 17
          },
          "type": 1
        },
        {
          "text": {
            "content": "boy",
            "begin_offset": 13
          },
          "type": 2
        }
      ]
    },
    {
      "name": "house",
      "type": 2,
      "salience": 0.1369254,
      "mentions": [
        {
          "text": {
            "content": "house",
            "begin_offset": 24
          },
          "type": 2
        }
      ]
    }
  ],
  "language": "en"
}