{
  "entities": [
    {
      "name": "Barack Obama",
      "type": 1,
      "metadata": {
        "mid": "/m/02mjmr",
        "wikipedia_url": "https://en.wikipedia.org/wiki/Barack_Obama"
      },
      "salience": 0.7618459,
      "mentions": [
        {
          "text": {
            "content": "Barack Obama"
          },
          "type": 1
        }
      ]
    },
    {
      "name": "Chicago",
      "type": 2,
      "metadata": {
        "mid": "/m/01_d4",
        "wikipedia_url": "https://en.wikipedia.org/wiki/Chicago"
      },
      "salience": 0.23815411,
      "mentions": [
        {
          "text": {
            "content": "Chicago",
            "begin_offset": 31
          },
          "type": 1
        }
      ]
    }
  ],
  "language": "fr"
}