{
  "entities": [
    {
      "name": "hot dog",
      "type": 6,
      "salience": 1,
      "mentions": [
        {
          "text": {
            "content": "hot dog"
          },
          "type": 2
        }
      ]
    }
  ],
  "language": "en"
}