{
  "entities": [
    {
      "name": "Meltwater",
      "type": 7,
      "metadata": {
        "mid": "/m/0641fn6",
        "wikipedia_url": "https://en.wikipedia.org/wiki/Meltwater_(company)"
      },
      "salience": 0.60835576,
      "mentions": [
        {
          "text": {
            "content": "Meltwater"
          },
          "type": 1
        }
      ]
    },
    {
      "name": "DataSift",
      "type": 3,
      "metadata": {
        "mid": "/g/11dxpzrg8s"
      },
      "salience": 0.23120603,
      "mentions": [
        {
          "text": {
            "content": "DataSift",
            "begin_offset": 23
          },
          "type": 1
        }
      ]
    },
    {
      "name": "social media analytics",
      "type": 7,
      "salience": 0.16043822,
      "mentions": [
        {
          "text": {
            "content": "social media analytics",
            "begin_offset": 50
          },
          "type": 2
        }
      ]
    }
  ],
  "language": "en"
}