{
  "entities": [
    {
      "name": "Mohammad bin Salman",
      "type": 1,
      "metadata": {
        "mid": "/m/0w0knzp",
        "wikipedia_url": "https://en.wikipedia.org/wiki/Mohammad_bin_Salman"
      },
      "salience": 1,
      "mentions": [
        {
          "text": {
            "content": "Mohammad bin Salman"
          },
          "type": 1
        }
      ]
    }
  ],
  "language": "en"
}