{
  "entities": [
    {
      "name": "Nikki Haley",
      "type": 1,
      "metadata": {
        "mid": "/m/027fsyf",
        "wikipedia_url": "https://en.wikipedia.org/wiki/Nikki_Haley"
      },
      "salience": 1,
      "mentions": [
        {
          "text": {
            "content": "Nikki Haley",
            "begin_offset": 11
          },
          "type": 1
        },
        {
          "text": {
            "content": "Ambassador"
          },
          "type": 2
        }
      ]
    }
  ],
  "language": "en"
}