{
  "entities": [
    {
      "name": "Barack Obama",
      "type": 1,
      "metadata": {
        "mid": "/m/02mjmr",
        "wikipedia_url": "https://en.wikipedia.org/wiki/Barack_Obama"
      },
      "salience": 0.9332335,
      "mentions": [
        {
          "text": {
            "content": "Barack Obama"
          },
          "type": 1
        },
        {
          "text": {
            "content": "president",
            "begin_offset": 20
          },
          "type": 2
        }
      ]
    },
    {
      "name": "United States",
      "type": 3,
      "metadata": {
        "mid": "/m/09c7w0",
        "wikipedia_url": "https://en.wikipedia.org/wiki/United_States"
      },
      "salience": 0.06676652,
      "mentions": [
        {
          "text": {
            "content": "United States",
            "begin_offset": 37
          },
          "type": 1
        }
      ]
    }
  ],
  "language": "en"
}