{
  "entities": [
    {
      "name": "reward card",
      "type": 7,
      "salience": 0.5869509,
      "mentions": [
        {
          "text": {
            "content": "reward card",
            "begin_offset": 15
          },
          "type": 2
        }
      ]
    },
    {
      "name": "Visa",
      "type": 3,
      "metadata": {
        "mid": "/m/01kqjn",
        "wikipedia_url": "https://en.wikipedia.org/wiki/Visa_Inc."
      },
      "salience": 0.4130491,
      "mentions": [
        {
          "text": {
            "content": "Visa",
            "begin_offset": 10
          },
          "type": 1
        }
      ]
    },
    {
      "name": "$50",
      "type": 13,
      "metadata": {
        "currency": "USD",
        "value": "50.000000"
      },
      "mentions": [
        {
          "text": {
            "content": "$50",
            "begin_offset": 6
          }
        }
      ]
    },
    {
      "name": "50",
      "type": 12,
      "metadata": {
        "value": "50"
      },
      "mentions": [
        {
          "text": {
            "content": "50",
            "begin_offset": 7
          }
        }
      ]
    }
  ],
  "language": "en"
}