{
  "entities": [
    {
      "name": "New Brunswick",
      "type": 2,
      "salience": 0.42873192,
      "mentions": [
        {
          "text": {
            "content": "New Brunswick"
          },
          "type": 1
        }
      ]
    },
    {
      "name": "provinces",
      "type": 2,
      "salience": 0.2605195,
      "mentions": [
        {
          "text": {
            "content": "provinces",
            "begin_offset": 20
          },
          "type": 2
        }
      ]
    },
    {
      "name": "E. coli",
      "type": 7,
      "salience": 0.20022461,
      "mentions": [
        {
          "text": {
            "content": "E. coli",
            "begin_offset": 42
          },
          "type": 2
        }
      ]
    },
    {
      "name": "romaine lettuce",
      "type": 7,
      "salience": 0.11052396,
      "mentions": [
        {
          "text": {
            "content": "romaine lettuce",
            "begin_offset": 60
          },
          "type": 2
        }
      ]
    }
  ],
  "language": "en"
}