{
  "entities": [
    {
      "name": "touchpad",
      "type": 6,
      "salience": 0.43159223,
      "mentions": [
        {
          "text": {
            "content": "touchpad",
            "begin_offset": 6
          },
          "type": 2
        }
      ]
    },
    {
      "name": "Linux",
      "type": 6,
      "metadata": {
        "mid": "/m/0fpzzp",
        "wikipedia_url": "https://en.wikipedia.org/wiki/Linux"
      },
      "salience": 0.29186577,
      "mentions": [
        {
          "text": {
            "content": "Linux"
          },
          "type": 1
        }
      ]
    },
    {
      "name": "Macbook",
      "type": 6,
      "salience": 0.14287321,
      "mentions": [
        {
          "text": {
            "content": "Macbook",
            "begin_offset": 22
          },
          "type": 2
        }
      ]
    },
    {
      "name": "goal",
      "type": 7,
      "salience": 0.1336688,
      "mentions": [
        {
          "text": {
            "content": "goal",
            "begin_offset": 31
          },
          "type": 2
        }
      ]
    }
  ],
  "language": "en"
}