{
  "entities": [
    {
      "name": "@VodafoneEgypt",
      "type": 1,
      "salience": 0.588388,
      "mentions": [
        {
          "text": {
            "content": "@VodafoneEgypt"
          },
          "type": 1
        }
      ]
    },
    {
      "name": "browsing",
      "type": 7,
      "salience": 0.35857934,
      "mentions": [
        {
          "text": {
            "content": "browsing",
            "begin_offset": 74
          },
          "type": 2
        }
      ]
    },
    {
      "name": "http://t.co/9dM6RuNwuC",
      "type": 7,
      "salience": 0.05303261,
      "mentions": [
        {
          "text": {
            "content": "http://t.co/9dM6RuNwuC",
            "begin_offset": 117
          },
          "type": 1
        }
      ]
    },
    {
      "name": "9",
      "type": 12,
      "metadata": {
        "value": "9"
      },
      "mentions": [
        {
          "text": {
            "content": "9",
            "begin_offset": 129
          }
        }
      ]
    },
    {
      "name": "10",
      "type": 12,
      "metadata": {
        "value": "10"
      },
      "mentions": [
        {
          "text": {
            "content": "10",
            "begin_offset": 52
          }
        }
      ]
    },
    {
      "name": "32",
      "type": 12,
      "metadata": {
        "value": "32"
      },
      "mentions": [
        {
          "text": {
            "content": "32",
            "begin_offset": 86
          }
        }
      ]
    }
  ],
  "language": "en"
}