{
  "entities": [
    {
      "name": "미국",
      "type": 2,
      "metadata": {
        "mid": "/m/09c7w0",
        "wikipedia_url": "https://en.wikipedia.org/wiki/United_States"
      },
      "salience": 1,
      "mentions": [
        {
          "text": {
            "content": "미국"
          },
          "type": 1
        }
      ]
    }
  ],
  "language": "ko"
}