{
  "entities": [
    {
      "name": "Drake",
      "type": 1,
      "metadata": {
        "mid": "/m/05mt_q",
        "wikipedia_url": "https://en.wikipedia.org/wiki/Drake_(musician)"
      },
      "salience": 0.4323228,
      "mentions": [
        {
          "text": {
            "content": "Drake",
            "begin_offset": 6
          },
          "type": 1
        }
      ]
    },
    {
      "name": "replica",
      "type": 7,
      "salience": 0.13700816,
      "mentions": [
        {
          "text": {
            "content": "replica",
            "begin_offset": 52
          },
          "type": 2
        }
      ]
    },
    {
      "name": "cover",
      "type": 7,
      "salience": 0.13543718,
      "mentions": [
        {
          "text": {
            "content": "cover",
            "begin_offset": 29
          },
          "type": 2
        }
      ]
    },
    {
      "name": "Views",
      "type": 7,
      "metadata": {
        "mid": "/m/011nytjr",
        "wikipedia_url": "https://en.wikipedia.org/wiki/Views_(album)"
      },
      "salience": 0.11959799,
      "mentions": [
        {
          "text": {
            "content": "Views",
            "begin_offset": 22
          },
          "type": 1
        }
      ]
    },
    {
      "name": "CN Tower",
      "type": 2,
      "metadata": {
        "mid": "/m/01tws",
        "wikipedia_url": "https://en.wikipedia.org/wiki/CN_Tower"
      },
      "salience": 0.07649286,
      "mentions": [
        {
          "text": {
            "content": "CN Tower",
            "begin_offset": 62
          },
          "type": 1
        }
      ]
    },
    {
      "name": "OVO Fest",
      "type": 4,
      "salience": 0.058134228,
      "mentions": [
        {
          "text": {
            "content": "OVO Fest",
            "begin_offset": 88
          },
          "type": 1
        }
      ]
    },
    {
      "name": "http://trib.al/jEitIBS",
      "type": 7,
      "metadata": {
        "mid": "/m/0cbtm",
        "wikipedia_url": "https://en.wikipedia.org/wiki/Tribe"
      },
      "salience": 0.041006796,
      "mentions": [
        {
          "text": {
            "content": "http://trib.al/jEitIBS",
            "begin_offset": 98
          },
          "type": 1
        }
      ]
    }
  ],
  "language": "en"
}