{
  "entities": [
    {
      "name": "stores",
      "type": 2,
      "salience": 0.4923649,
      "mentions": [
        {
          "text": {
            "content": "stores",
            "begin_offset": 8
          },
          "type": 2
        }
      ]
    },
    {
      "name": "Walmart",
      "type": 3,
      "metadata": {
        "mid": "/m/0841v",
        "wikipedia_url": "https://en.wikipedia.org/wiki/Walmart"
      },
      "salience": 0.3472164,
      "mentions": [
        {
          "text": {
            "content": "Walmart"
          },
          "type": 1
        }
      ]
    },
    {
      "name": "people",
      "type": 1,
      "salience": 0.16041872,
      "mentions": [
        {
          "text": {
            "content": "people",
            "begin_offset": 27
          },
          "type": 2
        }
      ]
    }
  ],
  "language": "en"
}