{
  "entities": [
    {
      "name": "trains",
      "type": 7,
      "salience": 0.26561907,
      "mentions": [
        {
          "text": {
            "content": "trains",
            "begin_offset": 14
          },
          "type": 2
        }
      ]
    },
    {
      "name": "CTA Pink Line",
      "type": 7,
      "metadata": {
        "mid": "/m/0bqn9h",
        "wikipedia_url": "https://en.wikipedia.org/wiki/Pink_Line_(CTA)"
      },
      "salience": 0.14593874,
      "mentions": [
        {
          "text": {
            "content": "CTA Pink Line"
          },
          "type": 1
        }
      ]
    },
    {
      "name": "stations",
      "type": 3,
      "salience": 0.09555602,
      "mentions": [
        {
          "text": {
            "content": "stations",
            "begin_offset": 75
          },
          "type": 2
        }
      ]
    },
    {
      "name": "flooding",
      "type": 4,
      "salience": 0.09555602,
      "mentions": [
        {
          "text": {
            "content": "flooding",
            "begin_offset": 90
          },
          "type": 2
        }
      ]
    },
    {
      "name": "service",
      "type": 7,
      "salience": 0.08097564,
      "mentions": [
        {
          "text": {
            "content": "service",
            "begin_offset": 106
          },
          "type": 2
        }
      ]
    },
    {
      "name": "Pulaski",
      "type": 2,
      "metadata": {
        "mid": "/g/1v6qj67m"
      },
      "salience": 0.057426035,
      "mentions": [
        {
          "text": {
            "content": "Pulaski",
            "begin_offset": 67
          },
          "type": 1
        }
      ]
    },
    {
      "name": "Cermak",
      "type": 1,
      "salience": 0.057426035,
      "mentions": [
        {
          "text": {
            "content": "Cermak",
            "begin_offset": 55
          },
          "type": 1
        }
      ]
    },
    {
      "name": "tracks",
      "type": 2,
      "salience": 0.03216931,
      "mentions": [
        {
          "text": {
            "content": "tracks",
            "begin_offset": 185
          },
          "type": 2
        }
      ]
    },
    {
      "name": "Trains",
      "type": 7,
      "salience": 0.029957099,
      "mentions": [
        {
          "text": {
            "content": "Trains",
            "begin_offset": 330
          },
          "type": 2
        }
      ]
    },
    {
      "name": "service alert",
      "type": 7,
      "salience": 0.029545963,
      "mentions": [
        {
          "text": {
            "content": "service alert",
            "begin_offset": 217
          },
          "type": 2
        }
      ]
    },
    {
      "name": "Service",
      "type": 7,
      "salience": 0.027673047,
      "mentions": [
        {
          "text": {
            "content": "Service",
            "begin_offset": 297
          },
          "type": 2
        }
      ]
    },
    {
      "name": "area",
      "type": 2,
      "salience": 0.022327483,
      "mentions": [
        {
          "text": {
            "content": "area",
            "begin_offset": 289
          },
          "type": 2
        }
      ]
    },
    {
      "name": "Cicero",
      "type": 2,
      "metadata": {
        "mid": "/m/0s4nq",
        "wikipedia_url": "https://en.wikipedia.org/wiki/Cicero,_Illinois"
      },
      "salience": 0.017545622,
      "mentions": [
        {
          "text": {
            "content": "Cicero",
            "begin_offset": 197
          },
          "type": 1
        }
      ]
    },
    {
      "name": "water",
      "type": 7,
      "salience": 0.016859425,
      "mentions": [
        {
          "text": {
            "content": "water",
            "begin_offset": 172
          },
          "type": 2
        }
      ]
    },
    {
      "name": "delays",
      "type": 7,
      "salience": 0.015588997,
      "mentions": [
        {
          "text": {
            "content": "delays",
            "begin_offset": 367
          },
          "type": 2
        }
      ]
    },
    {
      "name": "storms",
      "type": 4,
      "salience": 0.009835498,
      "mentions": [
        {
          "text": {
            "content": "storms",
            "begin_offset": 263
          },
          "type": 2
        }
      ]
    },
    {
      "name": "12",
      "type": 12,
      "metadata": {
        "value": "12"
      },
      "mentions": [
        {
          "text": {
            "content": "12",
            "begin_offset": 239
          }
        }
      ]
    },
    {
      "name": "20",
      "type": 12,
      "metadata": {
        "value": "20"
      },
      "mentions": [
        {
          "text": {
            "content": "20",
            "begin_offset": 242
          }
        }
      ]
    },
    {
      "name": "54",
      "type": 12,
      "metadata": {
        "value": "54"
      },
      "mentions": [
        {
          "text": {
            "content": "54",
            "begin_offset": 50
          }
        }
      ]
    },
    {
      "name": "30",
      "type": 12,
      "metadata": {
        "value": "30"
      },
      "mentions": [
        {
          "text": {
            "content": "30",
            "begin_offset": 322
          }
        }
      ]
    },
    {
      "name": "7",
      "type": 12,
      "metadata": {
        "value": "7"
      },
      "mentions": [
        {
          "text": {
            "content": "7",
            "begin_offset": 320
          }
        }
      ]
    }
  ],
  "language": "en"
}