{
  "entities": [
    {
      "name": "Verizon",
      "type": 3,
      "metadata": {
        "mid": "/m/02d532",
        "wikipedia_url": "https://en.wikipedia.org/wiki/Verizon_Wireless"
      },
      "salience": 0.5726652,
      "mentions": [
        {
          "text": {
            "content": "Verizon"
          },
          "type": 1
        }
      ]
    },
    {
      "name": "telco",
      "type": 7,
      "salience": 0.31472352,
      "mentions": [
        {
          "text": {
            "content": "telco",
            "begin_offset": 13
          },
          "type": 2
        }
      ]
    },
    {
      "name": "US",
      "type": 2,
      "metadata": {
        "mid": "/m/09c7w0",
        "wikipedia_url": "https://en.wikipedia.org/wiki/United_States"
      },
      "salience": 0.11261126,
      "mentions": [
        {
          "text": {
            "content": "US",
            "begin_offset": 26
          },
          "type": 1
        }
      ]
    }
  ],
  "language": "en"
}