{
  "entities": [
    {
      "name": "Muon (band)",
      "matches": [
        {
          "wikipediaScore": 0.5565805677752333,
          "entityTypeScore": 0.8,
          "text": "Muon",
          "offset": 0,
          "length": 4
        }
      ],
      "wikipediaLanguage": "en",
      "wikipediaId": "Muon (band)",
      "wikipediaUrl": "https://en.wikipedia.org/wiki/Muon_(band)",
      "bingId": "d151f787-b03c-4c25-abbb-8dbe97318d7c",
      "type": "Other",
      "subType": ""
    },
    {
      "name": "Muon",
      "matches": [
        {
          "wikipediaScore": 0,
          "entityTypeScore": 0.6670997738838196,
          "text": "Muon",
          "offset": 0,
          "length": 4
        }
      ],
      "wikipediaLanguage": "",
      "wikipediaId": "",
      "wikipediaUrl": "",
      "bingId": "",
      "type": "Person",
      "subType": ""
    },
    {
      "name": "Go (programming language)",
      "matches": [
        {
          "wikipediaScore": 0.2942167047888027,
          "entityTypeScore": 0.8,
          "text": "Go",
          "offset": 68,
          "length": 2
        }
      ],
      "wikipediaLanguage": "en",
      "wikipediaId": "Go (programming language)",
      "wikipediaUrl": "https://en.wikipedia.org/wiki/Go_(programming_language)",
      "bingId": "27bbdf36-1d3b-f1ef-1717-2dbea977c461",
      "type": "Other",
      "subType": ""
    },
    {
      "name": "Rust (programming language)",
      "matches": [
        {
          "wikipediaScore": 0.7836720036354758,
          "entityTypeScore": 0.8,
          "text": "Rust",
          "offset": 72,
          "length": 4
        }
      ],
      "wikipediaLanguage": "en",
      "wikipediaId": "Rust (programming language)",
      "wikipediaUrl": "https://en.wikipedia.org/wiki/Rust_(programming_language)",
      "bingId": "204ffbc9-4889-8413-b3ad-cad207f4300f",
      "type": "Other",
      "subType": ""
    },
    {
      "name": "Rust and Python",
      "matches": [
        {
          "wikipediaScore": 0,
          "entityTypeScore": 0.7323080897331238,
          "text": "Rust and Python",
          "offset": 72,
          "length": 15
        }
      ],
      "wikipediaLanguage": "",
      "wikipediaId": "",
      "wikipediaUrl": "",
      "bingId": "",
      "type": "Organization",
      "subType": ""
    },
    {
      "name": "Python (programming language)",
      "matches": [
        {
          "wikipediaScore": 0.36444234270443454,
          "entityTypeScore": 0.8,
          "text": "Python",
          "offset": 81,
          "length": 6
        }
      ],
      "wikipediaLanguage": "en",
      "wikipediaId": "Python (programming language)",
      "wikipediaUrl": "https://en.wikipedia.org/wiki/Python_(programming_language)",
      "bingId": "e65d3762-dcc6-13d6-cc71-5e09b7526398",
      "type": "Other",
      "subType": ""
    }
  ],
  "id": "input60-en.txt"
}