{
  "entities": [
    {
      "name": "Nike, Inc.",
      "matches": [
        {
          "wikipediaScore": 0.7768980311839819,
          "entityTypeScore": 0.8667361736297607,
          "text": "Nike",
          "offset": 55,
          "length": 4
        }
      ],
      "wikipediaLanguage": "en",
      "wikipediaId": "Nike, Inc.",
      "wikipediaUrl": "https://en.wikipedia.org/wiki/Nike,_Inc.",
      "bingId": "ea101481-b5d2-4796-39f9-afbb5cda2f5e",
      "type": "Organization",
      "subType": ""
    }
  ],
  "id": "input92-en.txt"
}