{
  "entities": [
    {
      "name": "Барак Обама",
      "matches": [
        {
          "wikipediaScore": 0,
          "entityTypeScore": 0.9525596369690128,
          "text": "Барак Обама",
          "offset": 0,
          "length": 11
        }
      ],
      "wikipediaLanguage": "",
      "wikipediaId": "",
      "wikipediaUrl": "",
      "bingId": "",
      "type": "Person",
      "subType": ""
    },
    {
      "name": "Чикаго",
      "matches": [
        {
          "wikipediaScore": 0,
          "entityTypeScore": 0.9465448664189396,
          "text": "Чикаго",
          "offset": 15,
          "length": 6
        }
      ],
      "wikipediaLanguage": "",
      "wikipediaId": "",
      "wikipediaUrl": "",
      "bingId": "",
      "type": "Location",
      "subType": ""
    }
  ],
  "id": "input118-ru.txt"
}