{
  "entities": [
    {
      "name": "Montreal Canadiens",
      "matches": [
        {
          "wikipediaScore": 0.31466270214847136,
          "entityTypeScore": 0.9774165153503418,
          "text": "Montreal Canadiens",
          "offset": 0,
          "length": 18
        }
      ],
      "wikipediaLanguage": "en",
      "wikipediaId": "Montreal Canadiens",
      "wikipediaUrl": "https://en.wikipedia.org/wiki/Montreal_Canadiens",
      "bingId": "e65755db-2635-6bc8-99f9-0e5cff3aa813",
      "type": "Organization",
      "subType": ""
    },
    {
      "name": "St. Louis Blues",
      "matches": [
        {
          "wikipediaScore": 0.22810748266639935,
          "entityTypeScore": 0.8,
          "text": "St. Louis Blues",
          "offset": 28,
          "length": 15
        }
      ],
      "wikipediaLanguage": "en",
      "wikipediaId": "St. Louis Blues",
      "wikipediaUrl": "https://en.wikipedia.org/wiki/St._Louis_Blues",
      "bingId": "761b071c-38b6-34f8-a608-e07e39974586",
      "type": "Organization",
      "subType": ""
    },
    {
      "name": "St. Louis",
      "matches": [
        {
          "wikipediaScore": 0,
          "entityTypeScore": 0.8525516390800476,
          "text": "St. Louis",
          "offset": 28,
          "length": 9
        }
      ],
      "wikipediaLanguage": "",
      "wikipediaId": "",
      "wikipediaUrl": "",
      "bingId": "",
      "type": "Location",
      "subType": ""
    },
    {
      "name": "tonight",
      "matches": [
        {
          "wikipediaScore": 0,
          "entityTypeScore": 0.8,
          "text": "tonight",
          "offset": 44,
          "length": 7
        }
      ],
      "wikipediaLanguage": "",
      "wikipediaId": "",
      "wikipediaUrl": "",
      "bingId": "",
      "type": "DateTime",
      "subType": "DateTimeRange"
    }
  ],
  "id": "input20-en.txt"
}