{
  "entities": [
    {
      "name": "Christmas",
      "matches": [
        {
          "wikipediaScore": 0,
          "entityTypeScore": 0.8,
          "text": "Christmas",
          "offset": 6,
          "length": 9
        }
      ],
      "wikipediaLanguage": "",
      "wikipediaId": "",
      "wikipediaUrl": "",
      "bingId": "",
      "type": "DateTime",
      "subType": "Date"
    }
  ],
  "id": "input81-en.txt"
}