{
  "entities": [
    {
      "name": "PSQ Fund",
      "matches": [
        {
          "wikipediaScore": 0,
          "entityTypeScore": 0.8698497414588928,
          "text": "PSQ Fund",
          "offset": 0,
          "length": 8
        }
      ],
      "wikipediaLanguage": "",
      "wikipediaId": "",
      "wikipediaUrl": "",
      "bingId": "",
      "type": "Organization",
      "subType": ""
    },
    {
      "name": "ProShares Short QQQ",
      "matches": [
        {
          "wikipediaScore": 0,
          "entityTypeScore": 0.5117173194885254,
          "text": "ProShares Short QQQ",
          "offset": 25,
          "length": 19
        }
      ],
      "wikipediaLanguage": "",
      "wikipediaId": "",
      "wikipediaUrl": "",
      "bingId": "",
      "type": "Organization",
      "subType": ""
    },
    {
      "name": "Short (finance)",
      "matches": [
        {
          "wikipediaScore": 0.23729888035055846,
          "entityTypeScore": 0.8,
          "text": "Short",
          "offset": 35,
          "length": 5
        }
      ],
      "wikipediaLanguage": "en",
      "wikipediaId": "Short (finance)",
      "wikipediaUrl": "https://en.wikipedia.org/wiki/Short_(finance)",
      "bingId": "63dae01f-94d6-d5f9-40d2-e169370c852e",
      "type": "Other",
      "subType": ""
    },
    {
      "name": "100",
      "matches": [
        {
          "wikipediaScore": 0,
          "entityTypeScore": 0.8,
          "text": "100",
          "offset": 115,
          "length": 3
        },
        {
          "wikipediaScore": 0,
          "entityTypeScore": 0.8,
          "text": "100",
          "offset": 318,
          "length": 3
        }
      ],
      "wikipediaLanguage": "",
      "wikipediaId": "",
      "wikipediaUrl": "",
      "bingId": "",
      "type": "Quantity",
      "subType": "Number"
    },
    {
      "name": "NASDAQ",
      "matches": [
        {
          "wikipediaScore": 0.20014214001595998,
          "entityTypeScore": 0.9974398016929626,
          "text": "NASDAQ",
          "offset": 165,
          "length": 6
        }
      ],
      "wikipediaLanguage": "en",
      "wikipediaId": "NASDAQ",
      "wikipediaUrl": "https://en.wikipedia.org/wiki/NASDAQ",
      "bingId": "0c3b7b2c-f40e-cba8-3bb6-29450420b38e",
      "type": "Organization",
      "subType": ""
    },
    {
      "name": "PSQ Factset Analytics Insight PSQ",
      "matches": [
        {
          "wikipediaScore": 0,
          "entityTypeScore": 0.9353509545326233,
          "text": "PSQ Factset Analytics Insight PSQ",
          "offset": 173,
          "length": 33
        }
      ],
      "wikipediaLanguage": "",
      "wikipediaId": "",
      "wikipediaUrl": "",
      "bingId": "",
      "type": "Organization",
      "subType": ""
    },
    {
      "name": "FactSet",
      "matches": [
        {
          "wikipediaScore": 0.719932249754047,
          "entityTypeScore": 0.8,
          "text": "Factset",
          "offset": 177,
          "length": 7
        }
      ],
      "wikipediaLanguage": "en",
      "wikipediaId": "FactSet",
      "wikipediaUrl": "https://en.wikipedia.org/wiki/FactSet",
      "bingId": "952729cb-819e-5cc5-0ba0-2c0926a288ec",
      "type": "Organization",
      "subType": ""
    },
    {
      "name": "Analytics",
      "matches": [
        {
          "wikipediaScore": 0.6908958745652363,
          "entityTypeScore": 0.8,
          "text": "Analytics",
          "offset": 185,
          "length": 9
        }
      ],
      "wikipediaLanguage": "en",
      "wikipediaId": "Analytics",
      "wikipediaUrl": "https://en.wikipedia.org/wiki/Analytics",
      "bingId": "e9e8ad54-52d0-bb5e-a2ef-773bb695b4c7",
      "type": "Other",
      "subType": ""
    },
    {
      "name": "Insight Enterprises",
      "matches": [
        {
          "wikipediaScore": 0.651822872066397,
          "entityTypeScore": 0.8,
          "text": "Insight",
          "offset": 195,
          "length": 7
        }
      ],
      "wikipediaLanguage": "en",
      "wikipediaId": "Insight Enterprises",
      "wikipediaUrl": "https://en.wikipedia.org/wiki/Insight_Enterprises",
      "bingId": "8fb4c1a8-b409-4d03-353a-edec78679758",
      "type": "Organization",
      "subType": ""
    },
    {
      "name": "Exchange-traded fund",
      "matches": [
        {
          "wikipediaScore": 0.42338505651064273,
          "entityTypeScore": 0.8,
          "text": "ETF",
          "offset": 259,
          "length": 3
        }
      ],
      "wikipediaLanguage": "en",
      "wikipediaId": "Exchange-traded fund",
      "wikipediaUrl": "https://en.wikipedia.org/wiki/Exchange-traded_fund",
      "bingId": "9ea09eb3-9770-b676-b931-59022ac93157",
      "type": "Other",
      "subType": ""
    },
    {
      "name": "ETF QQQ",
      "matches": [
        {
          "wikipediaScore": 0,
          "entityTypeScore": 0.5443546772003174,
          "text": "ETF QQQ",
          "offset": 259,
          "length": 7
        }
      ],
      "wikipediaLanguage": "",
      "wikipediaId": "",
      "wikipediaUrl": "",
      "bingId": "",
      "type": "Organization",
      "subType": ""
    },
    {
      "name": "Nasdaq",
      "matches": [
        {
          "wikipediaScore": 0,
          "entityTypeScore": 0.8936082720756531,
          "text": "Nasdaq",
          "offset": 305,
          "length": 6
        }
      ],
      "wikipediaLanguage": "",
      "wikipediaId": "",
      "wikipediaUrl": "",
      "bingId": "",
      "type": "Organization",
      "subType": ""
    },
    {
      "name": "-100",
      "matches": [
        {
          "wikipediaScore": 0,
          "entityTypeScore": 0.8,
          "text": "-100",
          "offset": 311,
          "length": 4
        },
        {
          "wikipediaScore": 0,
          "entityTypeScore": 0.8,
          "text": "-100",
          "offset": 461,
          "length": 4
        },
        {
          "wikipediaScore": 0,
          "entityTypeScore": 0.8,
          "text": "-100",
          "offset": 498,
          "length": 4
        }
      ],
      "wikipediaLanguage": "",
      "wikipediaId": "",
      "wikipediaUrl": "",
      "bingId": "",
      "type": "Quantity",
      "subType": "Number"
    },
    {
      "name": "PSQ",
      "matches": [
        {
          "wikipediaScore": 0,
          "entityTypeScore": 0.9826654195785522,
          "text": "PSQ",
          "offset": 415,
          "length": 3
        }
      ],
      "wikipediaLanguage": "",
      "wikipediaId": "",
      "wikipediaUrl": "",
      "bingId": "",
      "type": "Organization",
      "subType": ""
    },
    {
      "name": "NASDAQ-100",
      "matches": [
        {
          "wikipediaScore": 0.8545116219793947,
          "entityTypeScore": 0.8,
          "text": "Nasdaq-100",
          "offset": 460,
          "length": 10
        },
        {
          "wikipediaScore": 0.8545116219793947,
          "entityTypeScore": 0.8,
          "text": "Nasdaq-100",
          "offset": 497,
          "length": 10
        }
      ],
      "wikipediaLanguage": "en",
      "wikipediaId": "NASDAQ-100",
      "wikipediaUrl": "https://en.wikipedia.org/wiki/NASDAQ-100",
      "bingId": "2a3a524a-a784-e9ea-8ddf-0fa4fd848232",
      "type": "Organization",
      "subType": ""
    },
    {
      "name": "daily",
      "matches": [
        {
          "wikipediaScore": 0,
          "entityTypeScore": 0.8,
          "text": "daily",
          "offset": 630,
          "length": 5
        }
      ],
      "wikipediaLanguage": "",
      "wikipediaId": "",
      "wikipediaUrl": "",
      "bingId": "",
      "type": "DateTime",
      "subType": "Set"
    },
    {
      "name": "a day",
      "matches": [
        {
          "wikipediaScore": 0,
          "entityTypeScore": 0.8,
          "text": "a day",
          "offset": 735,
          "length": 5
        }
      ],
      "wikipediaLanguage": "",
      "wikipediaId": "",
      "wikipediaUrl": "",
      "bingId": "",
      "type": "DateTime",
      "subType": "Duration"
    }
  ],
  "id": "input62-en.txt"
}