{
  "entities": [
    {
      "name": "Mayor John Tory",
      "matches": [
        {
          "wikipediaScore": 0,
          "entityTypeScore": 0.6622922420501709,
          "text": "Mayor John Tory",
          "offset": 39,
          "length": 15
        }
      ],
      "wikipediaLanguage": "",
      "wikipediaId": "",
      "wikipediaUrl": "",
      "bingId": "",
      "type": "Person",
      "subType": ""
    },
    {
      "name": "John Tory",
      "matches": [
        {
          "wikipediaScore": 0.7375559087582677,
          "entityTypeScore": 0.8,
          "text": "John Tory",
          "offset": 45,
          "length": 9
        },
        {
          "wikipediaScore": 0.7375559087582677,
          "entityTypeScore": 0.8,
          "text": "Tory",
          "offset": 235,
          "length": 4
        }
      ],
      "wikipediaLanguage": "en",
      "wikipediaId": "John Tory",
      "wikipediaUrl": "https://en.wikipedia.org/wiki/John_Tory",
      "bingId": "b1fb15a7-f555-1ff8-22fb-1f573bdb4d4d",
      "type": "Person",
      "subType": ""
    },
    {
      "name": "Mark Saunders (police officer)",
      "matches": [
        {
          "wikipediaScore": 0.7204638492971813,
          "entityTypeScore": 1,
          "text": "Mark Saunders",
          "offset": 73,
          "length": 13
        }
      ],
      "wikipediaLanguage": "en",
      "wikipediaId": "Mark Saunders (police officer)",
      "wikipediaUrl": "https://en.wikipedia.org/wiki/Mark_Saunders_(police_officer)",
      "bingId": "5d6327ae-fdf3-c9ce-5b0d-4f7e35fdfca2",
      "type": "Person",
      "subType": ""
    },
    {
      "name": "recently",
      "matches": [
        {
          "wikipediaScore": 0,
          "entityTypeScore": 0.8,
          "text": "recently",
          "offset": 87,
          "length": 8
        }
      ],
      "wikipediaLanguage": "",
      "wikipediaId": "",
      "wikipediaUrl": "",
      "bingId": "",
      "type": "DateTime",
      "subType": ""
    },
    {
      "name": "$3",
      "matches": [
        {
          "wikipediaScore": 0,
          "entityTypeScore": 0.8,
          "text": "$3",
          "offset": 108,
          "length": 2
        }
      ],
      "wikipediaLanguage": "",
      "wikipediaId": "",
      "wikipediaUrl": "",
      "bingId": "",
      "type": "Quantity",
      "subType": "Currency"
    },
    {
      "name": "200",
      "matches": [
        {
          "wikipediaScore": 0,
          "entityTypeScore": 0.8,
          "text": "200",
          "offset": 133,
          "length": 3
        }
      ],
      "wikipediaLanguage": "",
      "wikipediaId": "",
      "wikipediaUrl": "",
      "bingId": "",
      "type": "Quantity",
      "subType": "Number"
    },
    {
      "name": "$",
      "matches": [
        {
          "wikipediaScore": 0,
          "entityTypeScore": 0.8,
          "text": "$",
          "offset": 255,
          "length": 1
        }
      ],
      "wikipediaLanguage": "",
      "wikipediaId": "",
      "wikipediaUrl": "",
      "bingId": "",
      "type": "Quantity",
      "subType": "Currency"
    },
    {
      "name": "12 million",
      "matches": [
        {
          "wikipediaScore": 0,
          "entityTypeScore": 0.8,
          "text": "12 million",
          "offset": 256,
          "length": 10
        }
      ],
      "wikipediaLanguage": "",
      "wikipediaId": "",
      "wikipediaUrl": "",
      "bingId": "",
      "type": "Quantity",
      "subType": "Number"
    }
  ],
  "id": "input65-en.txt"
}