{
  "entities": [
    {
      "name": "Amazon (company)",
      "matches": [
        {
          "wikipediaScore": 0.21860317426953002,
          "entityTypeScore": 0.8550451993942261,
          "text": "Amazon",
          "offset": 0,
          "length": 6
        }
      ],
      "wikipediaLanguage": "en",
      "wikipediaId": "Amazon (company)",
      "wikipediaUrl": "https://en.wikipedia.org/wiki/Amazon_(company)",
      "bingId": "ce00286a-e903-ff2c-7dac-b49bd707399c",
      "type": "Organization",
      "subType": ""
    },
    {
      "name": "Amazon Alexa",
      "matches": [
        {
          "wikipediaScore": 0.22116443500737248,
          "entityTypeScore": 0.8,
          "text": "Alexa",
          "offset": 9,
          "length": 5
        }
      ],
      "wikipediaLanguage": "en",
      "wikipediaId": "Amazon Alexa",
      "wikipediaUrl": "https://en.wikipedia.org/wiki/Amazon_Alexa",
      "bingId": "faa471ed-77f9-1cad-6f50-0a809d385db9",
      "type": "Other",
      "subType": ""
    }
  ],
  "id": "input52-en.txt"
}