{
  "entities": [
    {
      "name": "Barack Obama",
      "matches": [
        {
          "wikipediaScore": 0,
          "entityTypeScore": 0.984827734792756,
          "text": "Barack Obama",
          "offset": 0,
          "length": 12
        }
      ],
      "wikipediaLanguage": "",
      "wikipediaId": "",
      "wikipediaUrl": "",
      "bingId": "",
      "type": "Person",
      "subType": ""
    },
    {
      "name": "Chicago",
      "matches": [
        {
          "wikipediaScore": 0,
          "entityTypeScore": 0.9189017933141946,
          "text": "Chicago",
          "offset": 18,
          "length": 7
        }
      ],
      "wikipediaLanguage": "",
      "wikipediaId": "",
      "wikipediaUrl": "",
      "bingId": "",
      "type": "Location",
      "subType": ""
    }
  ],
  "id": "input123-pt.txt"
}