{
  "entities": [
    {
      "name": "Bloor–Yonge station",
      "matches": [
        {
          "wikipediaScore": 0.8175774268324152,
          "entityTypeScore": 0.8365539312362671,
          "text": "Bloor-Yonge station",
          "offset": 0,
          "length": 19
        },
        {
          "wikipediaScore": 0.8175774268324152,
          "entityTypeScore": 0.7921790480613708,
          "text": "Bloor-Yonge",
          "offset": 304,
          "length": 11
        },
        {
          "wikipediaScore": 0.8175774268324152,
          "entityTypeScore": 0.8345640897750854,
          "text": "Bloor-Yonge station",
          "offset": 491,
          "length": 19
        },
        {
          "wikipediaScore": 0.8175774268324152,
          "entityTypeScore": 0.8345640897750854,
          "text": "Bloor-Yonge station",
          "offset": 623,
          "length": 19
        }
      ],
      "wikipediaLanguage": "en",
      "wikipediaId": "Bloor–Yonge station",
      "wikipediaUrl": "https://en.wikipedia.org/wiki/Bloor–Yonge_station",
      "bingId": "df555d60-d0cb-48c0-8894-902ceb06d477",
      "type": "Location",
      "subType": ""
    },
    {
      "name": "Toronto",
      "matches": [
        {
          "wikipediaScore": 0,
          "entityTypeScore": 0.6803609132766724,
          "text": "Toronto",
          "offset": 60,
          "length": 7
        },
        {
          "wikipediaScore": 0,
          "entityTypeScore": 0.7667647004127502,
          "text": "Toronto",
          "offset": 757,
          "length": 7
        }
      ],
      "wikipediaLanguage": "",
      "wikipediaId": "",
      "wikipediaUrl": "",
      "bingId": "",
      "type": "Location",
      "subType": ""
    },
    {
      "name": "1966",
      "matches": [
        {
          "wikipediaScore": 0,
          "entityTypeScore": 0.8,
          "text": "1966",
          "offset": 98,
          "length": 4
        }
      ],
      "wikipediaLanguage": "",
      "wikipediaId": "",
      "wikipediaUrl": "",
      "bingId": "",
      "type": "DateTime",
      "subType": "DateRange"
    },
    {
      "name": "Toronto Transit Commission",
      "matches": [
        {
          "wikipediaScore": 0.4378495377642406,
          "entityTypeScore": 0.9825155138969421,
          "text": "TTC",
          "offset": 222,
          "length": 3
        }
      ],
      "wikipediaLanguage": "en",
      "wikipediaId": "Toronto Transit Commission",
      "wikipediaUrl": "https://en.wikipedia.org/wiki/Toronto_Transit_Commission",
      "bingId": "a0e13e94-33f4-3e9a-b134-fda8995befbd",
      "type": "Organization",
      "subType": ""
    },
    {
      "name": "75",
      "matches": [
        {
          "wikipediaScore": 0,
          "entityTypeScore": 0.8,
          "text": "75",
          "offset": 228,
          "length": 2
        }
      ],
      "wikipediaLanguage": "",
      "wikipediaId": "",
      "wikipediaUrl": "",
      "bingId": "",
      "type": "Quantity",
      "subType": "Number"
    },
    {
      "name": "200,000",
      "matches": [
        {
          "wikipediaScore": 0,
          "entityTypeScore": 0.8,
          "text": "200,000",
          "offset": 262,
          "length": 7
        }
      ],
      "wikipediaLanguage": "",
      "wikipediaId": "",
      "wikipediaUrl": "",
      "bingId": "",
      "type": "Quantity",
      "subType": "Number"
    },
    {
      "name": "daily",
      "matches": [
        {
          "wikipediaScore": 0,
          "entityTypeScore": 0.8,
          "text": "daily",
          "offset": 297,
          "length": 5
        }
      ],
      "wikipediaLanguage": "",
      "wikipediaId": "",
      "wikipediaUrl": "",
      "bingId": "",
      "type": "DateTime",
      "subType": "Set"
    },
    {
      "name": "$500 million",
      "matches": [
        {
          "wikipediaScore": 0,
          "entityTypeScore": 0.8,
          "text": "$500 million",
          "offset": 384,
          "length": 12
        }
      ],
      "wikipediaLanguage": "",
      "wikipediaId": "",
      "wikipediaUrl": "",
      "bingId": "",
      "type": "Quantity",
      "subType": "Currency"
    },
    {
      "name": "500 million in",
      "matches": [
        {
          "wikipediaScore": 0,
          "entityTypeScore": 0.8,
          "text": "500 million in",
          "offset": 385,
          "length": 14
        }
      ],
      "wikipediaLanguage": "",
      "wikipediaId": "",
      "wikipediaUrl": "",
      "bingId": "",
      "type": "Quantity",
      "subType": "Dimension"
    },
    {
      "name": "Andrew Francis Wallace",
      "matches": [
        {
          "wikipediaScore": 0,
          "entityTypeScore": 0.9997101426124573,
          "text": "Andrew Francis Wallace",
          "offset": 732,
          "length": 22
        }
      ],
      "wikipediaLanguage": "",
      "wikipediaId": "",
      "wikipediaUrl": "",
      "bingId": "",
      "type": "Person",
      "subType": ""
    },
    {
      "name": "Toronto Star",
      "matches": [
        {
          "wikipediaScore": 0.731479850487244,
          "entityTypeScore": 0.8,
          "text": "Toronto Star",
          "offset": 757,
          "length": 12
        }
      ],
      "wikipediaLanguage": "en",
      "wikipediaId": "Toronto Star",
      "wikipediaUrl": "https://en.wikipedia.org/wiki/Toronto_Star",
      "bingId": "4285eeb8-af6f-8a62-5d18-b04f4a970713",
      "type": "Organization",
      "subType": ""
    },
    {
      "name": "$1.1 billion",
      "matches": [
        {
          "wikipediaScore": 0,
          "entityTypeScore": 0.8,
          "text": "$1.1 billion",
          "offset": 836,
          "length": 12
        }
      ],
      "wikipediaLanguage": "",
      "wikipediaId": "",
      "wikipediaUrl": "",
      "bingId": "",
      "type": "Quantity",
      "subType": "Currency"
    },
    {
      "name": "now",
      "matches": [
        {
          "wikipediaScore": 0,
          "entityTypeScore": 0.8,
          "text": "now",
          "offset": 998,
          "length": 3
        }
      ],
      "wikipediaLanguage": "",
      "wikipediaId": "",
      "wikipediaUrl": "",
      "bingId": "",
      "type": "DateTime",
      "subType": ""
    },
    {
      "name": "Line 2 Bloor–Danforth",
      "matches": [
        {
          "wikipediaScore": 0.19215326583726022,
          "entityTypeScore": 0.8,
          "text": "Line 2",
          "offset": 1010,
          "length": 6
        }
      ],
      "wikipediaLanguage": "en",
      "wikipediaId": "Line 2 Bloor–Danforth",
      "wikipediaUrl": "https://en.wikipedia.org/wiki/Line_2_Bloor–Danforth",
      "bingId": "bfc13e2a-9bae-e521-944b-5cd7b31af5fe",
      "type": "Location",
      "subType": ""
    },
    {
      "name": "2",
      "matches": [
        {
          "wikipediaScore": 0,
          "entityTypeScore": 0.8,
          "text": "2",
          "offset": 1015,
          "length": 1
        }
      ],
      "wikipediaLanguage": "",
      "wikipediaId": "",
      "wikipediaUrl": "",
      "bingId": "",
      "type": "Quantity",
      "subType": "Number"
    },
    {
      "name": "Yonge",
      "matches": [
        {
          "wikipediaScore": 0,
          "entityTypeScore": 0.6534187197685242,
          "text": "Yonge",
          "offset": 1044,
          "length": 5
        }
      ],
      "wikipediaLanguage": "",
      "wikipediaId": "",
      "wikipediaUrl": "",
      "bingId": "",
      "type": "Person",
      "subType": ""
    },
    {
      "name": "Yonge Street",
      "matches": [
        {
          "wikipediaScore": 0.11227751430415811,
          "entityTypeScore": 0.8,
          "text": "Yonge",
          "offset": 1044,
          "length": 5
        }
      ],
      "wikipediaLanguage": "en",
      "wikipediaId": "Yonge Street",
      "wikipediaUrl": "https://en.wikipedia.org/wiki/Yonge_Street",
      "bingId": "89eddb92-c49b-a970-5fda-57e0f344fabd",
      "type": "Location",
      "subType": ""
    },
    {
      "name": "two",
      "matches": [
        {
          "wikipediaScore": 0,
          "entityTypeScore": 0.8,
          "text": "two",
          "offset": 1119,
          "length": 3
        }
      ],
      "wikipediaLanguage": "",
      "wikipediaId": "",
      "wikipediaUrl": "",
      "bingId": "",
      "type": "Quantity",
      "subType": "Number"
    },
    {
      "name": "Line 1 Yonge–University",
      "matches": [
        {
          "wikipediaScore": 0.8213348685939763,
          "entityTypeScore": 0.8,
          "text": "Line 1",
          "offset": 1378,
          "length": 6
        },
        {
          "wikipediaScore": 0.8213348685939763,
          "entityTypeScore": 0.8,
          "text": "Yonge line",
          "offset": 1385,
          "length": 10
        }
      ],
      "wikipediaLanguage": "en",
      "wikipediaId": "Line 1 Yonge–University",
      "wikipediaUrl": "https://en.wikipedia.org/wiki/Line_1_Yonge–University",
      "bingId": "54c339c2-6d66-bad8-edf0-440f92191fee",
      "type": "Location",
      "subType": ""
    },
    {
      "name": "1",
      "matches": [
        {
          "wikipediaScore": 0,
          "entityTypeScore": 0.8,
          "text": "1",
          "offset": 1383,
          "length": 1
        }
      ],
      "wikipediaLanguage": "",
      "wikipediaId": "",
      "wikipediaUrl": "",
      "bingId": "",
      "type": "Quantity",
      "subType": "Number"
    },
    {
      "name": "Sheffield Wednesday F.C.",
      "matches": [
        {
          "wikipediaScore": 0.5330767666608507,
          "entityTypeScore": 0.8,
          "text": "Wednesday",
          "offset": 1436,
          "length": 9
        }
      ],
      "wikipediaLanguage": "en",
      "wikipediaId": "Sheffield Wednesday F.C.",
      "wikipediaUrl": "https://en.wikipedia.org/wiki/Sheffield_Wednesday_F.C.",
      "bingId": "6738f0bf-d4ca-654a-cc80-a95de6fb2366",
      "type": "Organization",
      "subType": ""
    },
    {
      "name": "Wednesday",
      "matches": [
        {
          "wikipediaScore": 0,
          "entityTypeScore": 0.8,
          "text": "Wednesday",
          "offset": 1436,
          "length": 9
        }
      ],
      "wikipediaLanguage": "",
      "wikipediaId": "",
      "wikipediaUrl": "",
      "bingId": "",
      "type": "DateTime",
      "subType": "Date"
    },
    {
      "name": "before 2028",
      "matches": [
        {
          "wikipediaScore": 0,
          "entityTypeScore": 0.8,
          "text": "before 2028",
          "offset": 1589,
          "length": 11
        }
      ],
      "wikipediaLanguage": "",
      "wikipediaId": "",
      "wikipediaUrl": "",
      "bingId": "",
      "type": "DateTime",
      "subType": "DateRange"
    }
  ],
  "id": "input105-en.txt"
}