{
  "entities": [
    {
      "name": "Vince McMahon",
      "matches": [
        {
          "wikipediaScore": 0.15648372945722677,
          "entityTypeScore": 0.8,
          "text": "McMahon",
          "offset": 40,
          "length": 7
        }
      ],
      "wikipediaLanguage": "en",
      "wikipediaId": "Vince McMahon",
      "wikipediaUrl": "https://en.wikipedia.org/wiki/Vince_McMahon",
      "bingId": "998a9e11-0566-834d-1242-8de091df1913",
      "type": "Person",
      "subType": ""
    },
    {
      "name": "McMahon",
      "matches": [
        {
          "wikipediaScore": 0,
          "entityTypeScore": 0.5924080610275269,
          "text": "McMahon",
          "offset": 40,
          "length": 7
        }
      ],
      "wikipediaLanguage": "",
      "wikipediaId": "",
      "wikipediaUrl": "",
      "bingId": "",
      "type": "Organization",
      "subType": ""
    },
    {
      "name": "Hulk Hogan",
      "matches": [
        {
          "wikipediaScore": 0.34539511119854427,
          "entityTypeScore": 0.9933692216873169,
          "text": "Hogan",
          "offset": 70,
          "length": 5
        },
        {
          "wikipediaScore": 0.34539511119854427,
          "entityTypeScore": 0.9937937259674072,
          "text": "Hogan",
          "offset": 192,
          "length": 5
        },
        {
          "wikipediaScore": 0.34539511119854427,
          "entityTypeScore": 0.9947647452354431,
          "text": "Hogan",
          "offset": 209,
          "length": 5
        }
      ],
      "wikipediaLanguage": "en",
      "wikipediaId": "Hulk Hogan",
      "wikipediaUrl": "https://en.wikipedia.org/wiki/Hulk_Hogan",
      "bingId": "1500b4cf-04f3-2f8b-4d26-11ee6d39df8b",
      "type": "Person",
      "subType": ""
    },
    {
      "name": "The Ultimate Warrior",
      "matches": [
        {
          "wikipediaScore": 0.3965943125104008,
          "entityTypeScore": 0.8,
          "text": "Warrior",
          "offset": 137,
          "length": 7
        },
        {
          "wikipediaScore": 0.3965943125104008,
          "entityTypeScore": 0.8,
          "text": "Warrior",
          "offset": 239,
          "length": 7
        }
      ],
      "wikipediaLanguage": "en",
      "wikipediaId": "The Ultimate Warrior",
      "wikipediaUrl": "https://en.wikipedia.org/wiki/The_Ultimate_Warrior",
      "bingId": "9fd44aaa-8d76-8fc4-2587-63ab4f89b365",
      "type": "Person",
      "subType": ""
    }
  ],
  "id": "input76-en.txt"
}