{
  "entities": [
    {
      "name": "$50",
      "matches": [
        {
          "wikipediaScore": 0,
          "entityTypeScore": 0.8,
          "text": "$50",
          "offset": 6,
          "length": 3
        }
      ],
      "wikipediaLanguage": "",
      "wikipediaId": "",
      "wikipediaUrl": "",
      "bingId": "",
      "type": "Quantity",
      "subType": "Currency"
    }
  ],
  "id": "input40-en.txt"
}