{
  "entities": [
    {
      "name": "Владимир Путин",
      "matches": [
        {
          "wikipediaScore": 0,
          "entityTypeScore": 0.95633674531428,
          "text": "Владимир Путин",
          "offset": 0,
          "length": 14
        }
      ],
      "wikipediaLanguage": "",
      "wikipediaId": "",
      "wikipediaUrl": "",
      "bingId": "",
      "type": "Person",
      "subType": ""
    },
    {
      "name": "Москву",
      "matches": [
        {
          "wikipediaScore": 0,
          "entityTypeScore": 0.9974311370190497,
          "text": "Москву",
          "offset": 28,
          "length": 6
        }
      ],
      "wikipediaLanguage": "",
      "wikipediaId": "",
      "wikipediaUrl": "",
      "bingId": "",
      "type": "Location",
      "subType": ""
    }
  ],
  "id": "input140-ru.txt"
}