{
  "entities": [
    {
      "name": "미국",
      "matches": [
        {
          "wikipediaScore": 0,
          "entityTypeScore": 0.9554172453638438,
          "text": "미국",
          "offset": 0,
          "length": 2
        }
      ],
      "wikipediaLanguage": "",
      "wikipediaId": "",
      "wikipediaUrl": "",
      "bingId": "",
      "type": "Location",
      "subType": ""
    }
  ],
  "id": "input150-ko.txt"
}