{
  "entities": [
    {
      "name": "Montreal Canadiens",
      "matches": [
        {
          "wikipediaScore": 0.8410894997666754,
          "entityTypeScore": 0.8,
          "text": "Montreal Canadians",
          "offset": 4,
          "length": 18
        }
      ],
      "wikipediaLanguage": "en",
      "wikipediaId": "Montreal Canadiens",
      "wikipediaUrl": "https://en.wikipedia.org/wiki/Montreal_Canadiens",
      "bingId": "e65755db-2635-6bc8-99f9-0e5cff3aa813",
      "type": "Organization",
      "subType": ""
    },
    {
      "name": "Montreal",
      "matches": [
        {
          "wikipediaScore": 0,
          "entityTypeScore": 0.6262425184249878,
          "text": "Montreal",
          "offset": 4,
          "length": 8
        }
      ],
      "wikipediaLanguage": "",
      "wikipediaId": "",
      "wikipediaUrl": "",
      "bingId": "",
      "type": "Organization",
      "subType": ""
    },
    {
      "name": "Stanley Cup",
      "matches": [
        {
          "wikipediaScore": 0.19672002201823746,
          "entityTypeScore": 0.8,
          "text": "Stanley Cup",
          "offset": 31,
          "length": 11
        }
      ],
      "wikipediaLanguage": "en",
      "wikipediaId": "Stanley Cup",
      "wikipediaUrl": "https://en.wikipedia.org/wiki/Stanley_Cup",
      "bingId": "b72bf476-2e73-5f48-620a-ce7b3bd15222",
      "type": "Other",
      "subType": ""
    },
    {
      "name": "Stanley",
      "matches": [
        {
          "wikipediaScore": 0,
          "entityTypeScore": 0.6189033389091492,
          "text": "Stanley",
          "offset": 31,
          "length": 7
        }
      ],
      "wikipediaLanguage": "",
      "wikipediaId": "",
      "wikipediaUrl": "",
      "bingId": "",
      "type": "Location",
      "subType": ""
    }
  ],
  "id": "input12-en.txt"
}