{
  "entities": [
    {
      "name": "Monday morning",
      "matches": [
        {
          "wikipediaScore": 0,
          "entityTypeScore": 0.8,
          "text": "Monday morning",
          "offset": 14,
          "length": 14
        }
      ],
      "wikipediaLanguage": "",
      "wikipediaId": "",
      "wikipediaUrl": "",
      "bingId": "",
      "type": "DateTime",
      "subType": "DateTimeRange"
    },
    {
      "name": "Saint Joseph",
      "matches": [
        {
          "wikipediaScore": 0.13573035136820955,
          "entityTypeScore": 0.8,
          "text": "St. Joseph",
          "offset": 32,
          "length": 10
        }
      ],
      "wikipediaLanguage": "en",
      "wikipediaId": "Saint Joseph",
      "wikipediaUrl": "https://en.wikipedia.org/wiki/Saint_Joseph",
      "bingId": "5cfaf282-a6cd-1df2-b566-5f2e3d189de1",
      "type": "Person",
      "subType": ""
    },
    {
      "name": "St. Joseph",
      "matches": [
        {
          "wikipediaScore": 0,
          "entityTypeScore": 0.9523738622665405,
          "text": "St. Joseph",
          "offset": 32,
          "length": 10
        }
      ],
      "wikipediaLanguage": "",
      "wikipediaId": "",
      "wikipediaUrl": "",
      "bingId": "",
      "type": "Location",
      "subType": ""
    },
    {
      "name": "Hospital",
      "matches": [
        {
          "wikipediaScore": 0.2539914925398714,
          "entityTypeScore": 0.8,
          "text": "Hospital",
          "offset": 45,
          "length": 8
        }
      ],
      "wikipediaLanguage": "en",
      "wikipediaId": "Hospital",
      "wikipediaUrl": "https://en.wikipedia.org/wiki/Hospital",
      "bingId": "b308c1ba-4b1c-67bf-fc60-dddf020cbc2a",
      "type": "Location",
      "subType": ""
    },
    {
      "name": "Burbank, California",
      "matches": [
        {
          "wikipediaScore": 0.18312736443235567,
          "entityTypeScore": 0.8163256645202637,
          "text": "Burbank",
          "offset": 57,
          "length": 7
        }
      ],
      "wikipediaLanguage": "en",
      "wikipediaId": "Burbank, California",
      "wikipediaUrl": "https://en.wikipedia.org/wiki/Burbank,_California",
      "bingId": "fb041b1d-f5a0-45bc-bad8-f494262ca981",
      "type": "Location",
      "subType": ""
    },
    {
      "name": "California",
      "matches": [
        {
          "wikipediaScore": 0.65320411700228,
          "entityTypeScore": 0.7131862044334412,
          "text": "Calif.",
          "offset": 67,
          "length": 6
        }
      ],
      "wikipediaLanguage": "en",
      "wikipediaId": "California",
      "wikipediaUrl": "https://en.wikipedia.org/wiki/California",
      "bingId": "3009d91d-d582-4c34-85ba-772ba09e5be1",
      "type": "Location",
      "subType": ""
    },
    {
      "name": "Feb. 27",
      "matches": [
        {
          "wikipediaScore": 0,
          "entityTypeScore": 0.8,
          "text": "Feb. 27",
          "offset": 103,
          "length": 7
        }
      ],
      "wikipediaLanguage": "",
      "wikipediaId": "",
      "wikipediaUrl": "",
      "bingId": "",
      "type": "DateTime",
      "subType": "Date"
    }
  ],
  "id": "input100-en.txt"
}