{
  "entities": [
    {
      "name": "U.S.A",
      "matches": [
        {
          "wikipediaScore": 0,
          "entityTypeScore": 0.8884689211845398,
          "text": "U.S.A",
          "offset": 18,
          "length": 5
        }
      ],
      "wikipediaLanguage": "",
      "wikipediaId": "",
      "wikipediaUrl": "",
      "bingId": "",
      "type": "Organization",
      "subType": ""
    }
  ],
  "id": "input10-en.txt"
}