{
  "entities": [
    {
      "name": "Barack Obama",
      "matches": [
        {
          "wikipediaScore": 0,
          "entityTypeScore": 0.9901537704923553,
          "text": "Barack Obama",
          "offset": 0,
          "length": 12
        }
      ],
      "wikipediaLanguage": "",
      "wikipediaId": "",
      "wikipediaUrl": "",
      "bingId": "",
      "type": "Person",
      "subType": ""
    },
    {
      "name": "Chicago",
      "matches": [
        {
          "wikipediaScore": 0,
          "entityTypeScore": 0.9885006575988573,
          "text": "Chicago",
          "offset": 18,
          "length": 7
        }
      ],
      "wikipediaLanguage": "",
      "wikipediaId": "",
      "wikipediaUrl": "",
      "bingId": "",
      "type": "Location",
      "subType": ""
    }
  ],
  "id": "input130-it.txt"
}