{
  "entities": [
    {
      "name": "Y Combinator",
      "matches": [
        {
          "wikipediaScore": 0.6717139603783622,
          "entityTypeScore": 0.8,
          "text": "YC",
          "offset": 3,
          "length": 2
        }
      ],
      "wikipediaLanguage": "en",
      "wikipediaId": "Y Combinator",
      "wikipediaUrl": "https://en.wikipedia.org/wiki/Y_Combinator",
      "bingId": "cd7f4900-0412-cc24-4c1b-f52e0a1f7e46",
      "type": "Organization",
      "subType": ""
    },
    {
      "name": "Dropbox (service)",
      "matches": [
        {
          "wikipediaScore": 0.7432153940263857,
          "entityTypeScore": 0.8,
          "text": "Dropbox",
          "offset": 11,
          "length": 7
        }
      ],
      "wikipediaLanguage": "en",
      "wikipediaId": "Dropbox (service)",
      "wikipediaUrl": "https://en.wikipedia.org/wiki/Dropbox_(service)",
      "bingId": "75827e2a-7f12-99ab-9280-dd0f623a4a32",
      "type": "Organization",
      "subType": ""
    }
  ],
  "id": "input68-en.txt"
}