{
  "entities": [
    {
      "name": "Abbey Road",
      "matches": [
        {
          "wikipediaScore": 0,
          "entityTypeScore": 0.7968072891235352,
          "text": "Abbey Road",
          "offset": 1,
          "length": 10
        }
      ],
      "wikipediaLanguage": "",
      "wikipediaId": "",
      "wikipediaUrl": "",
      "bingId": "",
      "type": "Location",
      "subType": ""
    }
  ],
  "id": "input94-en.txt"
}