{
  "entities": [
    {
      "name": "Khalid ibn Abdullah",
      "matches": [
        {
          "wikipediaScore": 0,
          "entityTypeScore": 0.9997978210449219,
          "text": "Khalid ibn Abdullah",
          "offset": 0,
          "length": 19
        }
      ],
      "wikipediaLanguage": "",
      "wikipediaId": "",
      "wikipediaUrl": "",
      "bingId": "",
      "type": "Person",
      "subType": ""
    }
  ],
  "id": "input85-en.txt"
}