{
  "entities": [
    {
      "name": "Ballard, Seattle",
      "matches": [
        {
          "wikipediaScore": 0.7372352586173352,
          "entityTypeScore": 0.8,
          "text": "Ballard",
          "offset": 24,
          "length": 7
        }
      ],
      "wikipediaLanguage": "en",
      "wikipediaId": "Ballard, Seattle",
      "wikipediaUrl": "https://en.wikipedia.org/wiki/Ballard,_Seattle",
      "bingId": "391c4d24-00f4-4096-417e-c978ac297300",
      "type": "Location",
      "subType": ""
    },
    {
      "name": "Fremont, Seattle",
      "matches": [
        {
          "wikipediaScore": 0.7464889583705268,
          "entityTypeScore": 0.6067217588424683,
          "text": "Fremont",
          "offset": 35,
          "length": 7
        }
      ],
      "wikipediaLanguage": "en",
      "wikipediaId": "Fremont, Seattle",
      "wikipediaUrl": "https://en.wikipedia.org/wiki/Fremont,_Seattle",
      "bingId": "c4d76dd5-cf1e-90d8-12e9-55694687884b",
      "type": "Location",
      "subType": ""
    }
  ],
  "id": "input97-en.txt"
}