{
  "entities": [
    {
      "name": "Google",
      "matches": [
        {
          "wikipediaScore": 0.22664296909712967,
          "entityTypeScore": 0.9976224303245544,
          "text": "Google",
          "offset": 0,
          "length": 6
        },
        {
          "wikipediaScore": 0.22664296909712967,
          "entityTypeScore": 0.9993288516998291,
          "text": "Google",
          "offset": 38,
          "length": 6
        }
      ],
      "wikipediaLanguage": "en",
      "wikipediaId": "Google",
      "wikipediaUrl": "https://en.wikipedia.org/wiki/Google",
      "bingId": "f39b29ec-05ee-d6cb-3070-ddaa0fb00ee0",
      "type": "Organization",
      "subType": ""
    },
    {
      "name": "Mountain View, California",
      "matches": [
        {
          "wikipediaScore": 0.2499579271725303,
          "entityTypeScore": 0.8,
          "text": "Mountain View",
          "offset": 23,
          "length": 13
        }
      ],
      "wikipediaLanguage": "en",
      "wikipediaId": "Mountain View, California",
      "wikipediaUrl": "https://en.wikipedia.org/wiki/Mountain_View,_California",
      "bingId": "4ff5d80d-ed56-49ad-8130-c58934bdbbf3",
      "type": "Location",
      "subType": ""
    },
    {
      "name": "Mountain",
      "matches": [
        {
          "wikipediaScore": 0,
          "entityTypeScore": 0.6619033217430115,
          "text": "Mountain",
          "offset": 23,
          "length": 8
        }
      ],
      "wikipediaLanguage": "",
      "wikipediaId": "",
      "wikipediaUrl": "",
      "bingId": "",
      "type": "Location",
      "subType": ""
    }
  ],
  "id": "input27-en.txt"
}