{
  "entities": [
    {
      "name": "Sydney",
      "matches": [
        {
          "wikipediaScore": 0.7869835162429877,
          "entityTypeScore": 0.8,
          "text": "SYDNEY, Australia",
          "offset": 0,
          "length": 17
        }
      ],
      "wikipediaLanguage": "en",
      "wikipediaId": "Sydney",
      "wikipediaUrl": "https://en.wikipedia.org/wiki/Sydney",
      "bingId": "3ecec2e8-2993-42e7-7299-f693bbe3b9b9",
      "type": "Location",
      "subType": ""
    },
    {
      "name": "SYDNEY",
      "matches": [
        {
          "wikipediaScore": 0,
          "entityTypeScore": 0.98182612657547,
          "text": "SYDNEY",
          "offset": 0,
          "length": 6
        }
      ],
      "wikipediaLanguage": "",
      "wikipediaId": "",
      "wikipediaUrl": "",
      "bingId": "",
      "type": "Location",
      "subType": ""
    },
    {
      "name": "Australia",
      "matches": [
        {
          "wikipediaScore": 0,
          "entityTypeScore": 0.9931267499923706,
          "text": "Australia",
          "offset": 8,
          "length": 9
        },
        {
          "wikipediaScore": 0.2838222771486205,
          "entityTypeScore": 0.9961925745010376,
          "text": "Australia",
          "offset": 33,
          "length": 9
        },
        {
          "wikipediaScore": 0.2838222771486205,
          "entityTypeScore": 0.9991763830184937,
          "text": "Australia",
          "offset": 356,
          "length": 9
        },
        {
          "wikipediaScore": 0.2838222771486205,
          "entityTypeScore": 0.9721956253051758,
          "text": "Australia",
          "offset": 464,
          "length": 9
        }
      ],
      "wikipediaLanguage": "en",
      "wikipediaId": "Australia",
      "wikipediaUrl": "https://en.wikipedia.org/wiki/Australia",
      "bingId": "06de2191-243d-a83f-6990-2eb1c7f3382a",
      "type": "Location",
      "subType": ""
    },
    {
      "name": "Apple Inc.",
      "matches": [
        {
          "wikipediaScore": 0.24148650896055668,
          "entityTypeScore": 0.9912192225456238,
          "text": "Apple",
          "offset": 124,
          "length": 5
        },
        {
          "wikipediaScore": 0.24148650896055668,
          "entityTypeScore": 0.9911889433860779,
          "text": "Apple",
          "offset": 402,
          "length": 5
        }
      ],
      "wikipediaLanguage": "en",
      "wikipediaId": "Apple Inc.",
      "wikipediaUrl": "https://en.wikipedia.org/wiki/Apple_Inc.",
      "bingId": "6fa57c29-e813-4a1d-7fba-3541ca4c1dc3",
      "type": "Organization",
      "subType": ""
    },
    {
      "name": "Telecommunication",
      "matches": [
        {
          "wikipediaScore": 0.3645050128287237,
          "entityTypeScore": 0.8,
          "text": "Telecommunications",
          "offset": 225,
          "length": 18
        }
      ],
      "wikipediaLanguage": "en",
      "wikipediaId": "Telecommunication",
      "wikipediaUrl": "https://en.wikipedia.org/wiki/Telecommunication",
      "bingId": "ecb65d99-0258-0482-dfe4-b97c7ff37b5f",
      "type": "Other",
      "subType": ""
    },
    {
      "name": "Race and ethnicity in the United States Census",
      "matches": [
        {
          "wikipediaScore": 0.5964886831148011,
          "entityTypeScore": 0.8,
          "text": "Other",
          "offset": 248,
          "length": 5
        }
      ],
      "wikipediaLanguage": "en",
      "wikipediaId": "Race and ethnicity in the United States Census",
      "wikipediaUrl": "https://en.wikipedia.org/wiki/Race_and_ethnicity_in_the_United_States_Census",
      "bingId": "8460a6f1-a73a-02b1-f60d-9476d88ff479",
      "type": "Other",
      "subType": ""
    },
    {
      "name": "Australian Capital Territory",
      "matches": [
        {
          "wikipediaScore": 0.1893230435982074,
          "entityTypeScore": 0.8,
          "text": "Act",
          "offset": 300,
          "length": 3
        }
      ],
      "wikipediaLanguage": "en",
      "wikipediaId": "Australian Capital Territory",
      "wikipediaUrl": "https://en.wikipedia.org/wiki/Australian_Capital_Territory",
      "bingId": "c296eb2e-2c1a-16bf-bc37-164541ce7365",
      "type": "Location",
      "subType": ""
    },
    {
      "name": "2018",
      "matches": [
        {
          "wikipediaScore": 0,
          "entityTypeScore": 0.8,
          "text": "2018",
          "offset": 304,
          "length": 4
        }
      ],
      "wikipediaLanguage": "",
      "wikipediaId": "",
      "wikipediaUrl": "",
      "bingId": "",
      "type": "DateTime",
      "subType": "DateRange"
    },
    {
      "name": "Impact factor",
      "matches": [
        {
          "wikipediaScore": 0.13459309798100016,
          "entityTypeScore": 0.8,
          "text": "If",
          "offset": 399,
          "length": 2
        }
      ],
      "wikipediaLanguage": "en",
      "wikipediaId": "Impact factor",
      "wikipediaUrl": "https://en.wikipedia.org/wiki/Impact_factor",
      "bingId": "abe3aeeb-c35e-2e25-c256-6d366b693bc5",
      "type": "Other",
      "subType": ""
    },
    {
      "name": "IPhone",
      "matches": [
        {
          "wikipediaScore": 0.8411373093931505,
          "entityTypeScore": 0.8,
          "text": "iPhones",
          "offset": 448,
          "length": 7
        }
      ],
      "wikipediaLanguage": "en",
      "wikipediaId": "IPhone",
      "wikipediaUrl": "https://en.wikipedia.org/wiki/IPhone",
      "bingId": "ceeab753-899f-4459-8ceb-d64ec0992439",
      "type": "Other",
      "subType": ""
    },
    {
      "name": "United States",
      "matches": [
        {
          "wikipediaScore": 0,
          "entityTypeScore": 0.9957366585731506,
          "text": "United States",
          "offset": 525,
          "length": 13
        }
      ],
      "wikipediaLanguage": "",
      "wikipediaId": "",
      "wikipediaUrl": "",
      "bingId": "",
      "type": "Location",
      "subType": ""
    }
  ],
  "id": "input95-en.txt"
}