{
  "entities": [
    {
      "name": "Microsoft",
      "matches": [
        {
          "wikipediaScore": 0.24964647869463952,
          "entityTypeScore": 1,
          "text": "Microsoft",
          "offset": 39,
          "length": 9
        },
        {
          "wikipediaScore": 0.24964647869463952,
          "entityTypeScore": 0.8,
          "text": "MSFT",
          "offset": 50,
          "length": 4
        }
      ],
      "wikipediaLanguage": "en",
      "wikipediaId": "Microsoft",
      "wikipediaUrl": "https://en.wikipedia.org/wiki/Microsoft",
      "bingId": "a093e9b9-90f5-a3d5-c4b8-5855e1b01f85",
      "type": "Organization",
      "subType": ""
    },
    {
      "name": "Oracle Corporation",
      "matches": [
        {
          "wikipediaScore": 0.13613753410702323,
          "entityTypeScore": 0.6410542726516724,
          "text": "Oracle",
          "offset": 57,
          "length": 6
        },
        {
          "wikipediaScore": 0.13613753410702323,
          "entityTypeScore": 0.8,
          "text": "ORCL",
          "offset": 66,
          "length": 4
        }
      ],
      "wikipediaLanguage": "en",
      "wikipediaId": "Oracle Corporation",
      "wikipediaUrl": "https://en.wikipedia.org/wiki/Oracle_Corporation",
      "bingId": "cafb5c69-0d68-2211-85a0-3067c643f408",
      "type": "Organization",
      "subType": ""
    },
    {
      "name": "SAP",
      "matches": [
        {
          "wikipediaScore": 0,
          "entityTypeScore": 0.9854583144187927,
          "text": "SAP",
          "offset": 77,
          "length": 3
        }
      ],
      "wikipediaLanguage": "",
      "wikipediaId": "",
      "wikipediaUrl": "",
      "bingId": "",
      "type": "Organization",
      "subType": ""
    },
    {
      "name": "2",
      "matches": [
        {
          "wikipediaScore": 0,
          "entityTypeScore": 0.8,
          "text": "2",
          "offset": 220,
          "length": 1
        }
      ],
      "wikipediaLanguage": "",
      "wikipediaId": "",
      "wikipediaUrl": "",
      "bingId": "",
      "type": "Quantity",
      "subType": "Number"
    },
    {
      "name": "S\u0026P 500 Index",
      "matches": [
        {
          "wikipediaScore": 0.6629227083871336,
          "entityTypeScore": 0.8,
          "text": "S\u0026P 500",
          "offset": 244,
          "length": 7
        }
      ],
      "wikipediaLanguage": "en",
      "wikipediaId": "S\u0026P 500 Index",
      "wikipediaUrl": "https://en.wikipedia.org/wiki/S\u0026P_500_Index",
      "bingId": "4ef0946d-31b7-304e-410a-4bef17f9fd05",
      "type": "Other",
      "subType": ""
    },
    {
      "name": "S\u0026P",
      "matches": [
        {
          "wikipediaScore": 0,
          "entityTypeScore": 0.9092885851860046,
          "text": "S\u0026P",
          "offset": 244,
          "length": 3
        }
      ],
      "wikipediaLanguage": "",
      "wikipediaId": "",
      "wikipediaUrl": "",
      "bingId": "",
      "type": "Organization",
      "subType": ""
    },
    {
      "name": "500",
      "matches": [
        {
          "wikipediaScore": 0,
          "entityTypeScore": 0.8,
          "text": "500",
          "offset": 248,
          "length": 3
        }
      ],
      "wikipediaLanguage": "",
      "wikipediaId": "",
      "wikipediaUrl": "",
      "bingId": "",
      "type": "Quantity",
      "subType": "Number"
    },
    {
      "name": "end of last year",
      "matches": [
        {
          "wikipediaScore": 0,
          "entityTypeScore": 0.8,
          "text": "end of last year",
          "offset": 262,
          "length": 16
        }
      ],
      "wikipediaLanguage": "",
      "wikipediaId": "",
      "wikipediaUrl": "",
      "bingId": "",
      "type": "DateTime",
      "subType": "DateRange"
    }
  ],
  "id": "input44-en.txt"
}