{
  "entities": [
    {
      "name": "Drake (musician)",
      "matches": [
        {
          "wikipediaScore": 0.31407901926484705,
          "entityTypeScore": 0.9938544034957886,
          "text": "Drake",
          "offset": 6,
          "length": 5
        }
      ],
      "wikipediaLanguage": "en",
      "wikipediaId": "Drake (musician)",
      "wikipediaUrl": "https://en.wikipedia.org/wiki/Drake_(musician)",
      "bingId": "d17f53ef-3494-43c7-a3da-06ec73aff121",
      "type": "Person",
      "subType": ""
    },
    {
      "name": "Views (album)",
      "matches": [
        {
          "wikipediaScore": 0.6530584483766537,
          "entityTypeScore": 0.8,
          "text": "Views",
          "offset": 22,
          "length": 5
        }
      ],
      "wikipediaLanguage": "en",
      "wikipediaId": "Views (album)",
      "wikipediaUrl": "https://en.wikipedia.org/wiki/Views_(album)",
      "bingId": "0536fb9c-744c-4d9b-8836-4fb118a52989",
      "type": "Other",
      "subType": ""
    },
    {
      "name": "CN Tower",
      "matches": [
        {
          "wikipediaScore": 0,
          "entityTypeScore": 0.9850674271583557,
          "text": "CN Tower",
          "offset": 62,
          "length": 8
        }
      ],
      "wikipediaLanguage": "",
      "wikipediaId": "",
      "wikipediaUrl": "",
      "bingId": "",
      "type": "Organization",
      "subType": ""
    },
    {
      "name": "eighth",
      "matches": [
        {
          "wikipediaScore": 0,
          "entityTypeScore": 0.8,
          "text": "eighth",
          "offset": 74,
          "length": 6
        }
      ],
      "wikipediaLanguage": "",
      "wikipediaId": "",
      "wikipediaUrl": "",
      "bingId": "",
      "type": "Quantity",
      "subType": "Ordinal"
    },
    {
      "name": "annual",
      "matches": [
        {
          "wikipediaScore": 0,
          "entityTypeScore": 0.8,
          "text": "annual",
          "offset": 81,
          "length": 6
        }
      ],
      "wikipediaLanguage": "",
      "wikipediaId": "",
      "wikipediaUrl": "",
      "bingId": "",
      "type": "DateTime",
      "subType": "Set"
    },
    {
      "name": "OVO Sound",
      "matches": [
        {
          "wikipediaScore": 0.1482391667868792,
          "entityTypeScore": 0.8,
          "text": "OVO",
          "offset": 88,
          "length": 3
        }
      ],
      "wikipediaLanguage": "en",
      "wikipediaId": "OVO Sound",
      "wikipediaUrl": "https://en.wikipedia.org/wiki/OVO_Sound",
      "bingId": "97007f91-77bf-2753-ead2-178b5f13243b",
      "type": "Organization",
      "subType": ""
    },
    {
      "name": "http://trib.al/jEitIBS",
      "matches": [
        {
          "wikipediaScore": 0,
          "entityTypeScore": 0.8,
          "text": "http://trib.al/jEitIBS",
          "offset": 98,
          "length": 22
        }
      ],
      "wikipediaLanguage": "",
      "wikipediaId": "",
      "wikipediaUrl": "",
      "bingId": "",
      "type": "URL",
      "subType": ""
    }
  ],
  "id": "input3-en.txt"
}