{
  "entities": [
    {
      "name": "11月",
      "matches": [
        {
          "wikipediaScore": 0,
          "entityTypeScore": 0.8,
          "text": "11月",
          "offset": 0,
          "length": 3
        }
      ],
      "wikipediaLanguage": "",
      "wikipediaId": "",
      "wikipediaUrl": "",
      "bingId": "",
      "type": "DateTime",
      "subType": "DateRange"
    }
  ],
  "id": "input132-zh.txt"
}