{
  "entities": [
    {
      "name": "Meltwater (company)",
      "matches": [
        {
          "wikipediaScore": 0.7325132524340365,
          "entityTypeScore": 0.8,
          "text": "Meltwater",
          "offset": 0,
          "length": 9
        }
      ],
      "wikipediaLanguage": "en",
      "wikipediaId": "Meltwater (company)",
      "wikipediaUrl": "https://en.wikipedia.org/wiki/Meltwater_(company)",
      "bingId": "6db5aa40-b03f-46d2-51dd-71609bf492c9",
      "type": "Organization",
      "subType": ""
    },
    {
      "name": "Meltwater",
      "matches": [
        {
          "wikipediaScore": 0,
          "entityTypeScore": 0.9282844066619873,
          "text": "Meltwater",
          "offset": 0,
          "length": 9
        }
      ],
      "wikipediaLanguage": "",
      "wikipediaId": "",
      "wikipediaUrl": "",
      "bingId": "",
      "type": "Person",
      "subType": ""
    }
  ],
  "id": "input113-en.txt"
}