{
  "entities": [
    {
      "name": "McDonald's",
      "matches": [
        {
          "wikipediaScore": 0.7820039264184175,
          "entityTypeScore": 0.528009295463562,
          "text": "McDonald’s",
          "offset": 8,
          "length": 10
        },
        {
          "wikipediaScore": 0.7820039264184175,
          "entityTypeScore": 0.9825754761695862,
          "text": "McDonald’s",
          "offset": 211,
          "length": 10
        },
        {
          "wikipediaScore": 0.7820039264184175,
          "entityTypeScore": 0.8,
          "text": "McDonald’s",
          "offset": 661,
          "length": 10
        }
      ],
      "wikipediaLanguage": "en",
      "wikipediaId": "McDonald's",
      "wikipediaUrl": "https://en.wikipedia.org/wiki/McDonald's",
      "bingId": "03a08fb0-b340-cd39-d5da-0b5aeda6243f",
      "type": "Organization",
      "subType": ""
    },
    {
      "name": "today",
      "matches": [
        {
          "wikipediaScore": 0,
          "entityTypeScore": 0.8,
          "text": "today",
          "offset": 30,
          "length": 5
        }
      ],
      "wikipediaLanguage": "",
      "wikipediaId": "",
      "wikipediaUrl": "",
      "bingId": "",
      "type": "DateTime",
      "subType": "Date"
    },
    {
      "name": "Big Ten Conference",
      "matches": [
        {
          "wikipediaScore": 0.5447682331536658,
          "entityTypeScore": 0.8,
          "text": "Big",
          "offset": 76,
          "length": 3
        }
      ],
      "wikipediaLanguage": "en",
      "wikipediaId": "Big Ten Conference",
      "wikipediaUrl": "https://en.wikipedia.org/wiki/Big_Ten_Conference",
      "bingId": "69f8446a-2105-3eb5-7b55-3149466256fd",
      "type": "Organization",
      "subType": ""
    },
    {
      "name": "Big Data",
      "matches": [
        {
          "wikipediaScore": 0,
          "entityTypeScore": 0.995280921459198,
          "text": "Big Data",
          "offset": 89,
          "length": 8
        }
      ],
      "wikipediaLanguage": "",
      "wikipediaId": "",
      "wikipediaUrl": "",
      "bingId": "",
      "type": "Organization",
      "subType": ""
    },
    {
      "name": "Dynamic Yield",
      "matches": [
        {
          "wikipediaScore": 0.7498772180060556,
          "entityTypeScore": 0.8,
          "text": "Dynamic Yield",
          "offset": 285,
          "length": 13
        },
        {
          "wikipediaScore": 0.7498772180060556,
          "entityTypeScore": 0.8,
          "text": "Dynamic Yield",
          "offset": 531,
          "length": 13
        }
      ],
      "wikipediaLanguage": "en",
      "wikipediaId": "Dynamic Yield",
      "wikipediaUrl": "https://en.wikipedia.org/wiki/Dynamic_Yield",
      "bingId": "457170f7-eb7f-db2b-a348-462762cde4a2",
      "type": "Organization",
      "subType": ""
    },
    {
      "name": "Tel Aviv",
      "matches": [
        {
          "wikipediaScore": 0.2089793455828115,
          "entityTypeScore": 0.8140369653701782,
          "text": "Tel Aviv",
          "offset": 319,
          "length": 8
        }
      ],
      "wikipediaLanguage": "en",
      "wikipediaId": "Tel Aviv",
      "wikipediaUrl": "https://en.wikipedia.org/wiki/Tel_Aviv",
      "bingId": "7105fc08-1958-b454-5216-cd319a983ad0",
      "type": "Location",
      "subType": ""
    },
    {
      "name": "recently",
      "matches": [
        {
          "wikipediaScore": 0,
          "entityTypeScore": 0.8,
          "text": "recently",
          "offset": 565,
          "length": 8
        }
      ],
      "wikipediaLanguage": "",
      "wikipediaId": "",
      "wikipediaUrl": "",
      "bingId": "",
      "type": "DateTime",
      "subType": ""
    },
    {
      "name": "dollars",
      "matches": [
        {
          "wikipediaScore": 0,
          "entityTypeScore": 0.8,
          "text": "dollars",
          "offset": 612,
          "length": 7
        }
      ],
      "wikipediaLanguage": "",
      "wikipediaId": "",
      "wikipediaUrl": "",
      "bingId": "",
      "type": "Quantity",
      "subType": "Currency"
    },
    {
      "name": "McDonald",
      "matches": [
        {
          "wikipediaScore": 0,
          "entityTypeScore": 0.999908447265625,
          "text": "McDonald",
          "offset": 661,
          "length": 8
        }
      ],
      "wikipediaLanguage": "",
      "wikipediaId": "",
      "wikipediaUrl": "",
      "bingId": "",
      "type": "Organization",
      "subType": ""
    },
    {
      "name": "$300 million",
      "matches": [
        {
          "wikipediaScore": 0,
          "entityTypeScore": 0.8,
          "text": "$300 million",
          "offset": 693,
          "length": 12
        }
      ],
      "wikipediaLanguage": "",
      "wikipediaId": "",
      "wikipediaUrl": "",
      "bingId": "",
      "type": "Quantity",
      "subType": "Currency"
    },
    {
      "name": "Boston Market",
      "matches": [
        {
          "wikipediaScore": 0.7051584137855456,
          "entityTypeScore": 0.575049638748169,
          "text": "Boston Market",
          "offset": 775,
          "length": 13
        }
      ],
      "wikipediaLanguage": "en",
      "wikipediaId": "Boston Market",
      "wikipediaUrl": "https://en.wikipedia.org/wiki/Boston_Market",
      "bingId": "3e2e22ad-5b2c-af4b-e7ae-cd1cef14500a",
      "type": "Organization",
      "subType": ""
    },
    {
      "name": "1999",
      "matches": [
        {
          "wikipediaScore": 0,
          "entityTypeScore": 0.8,
          "text": "1999",
          "offset": 792,
          "length": 4
        }
      ],
      "wikipediaLanguage": "",
      "wikipediaId": "",
      "wikipediaUrl": "",
      "bingId": "",
      "type": "DateTime",
      "subType": "DateRange"
    }
  ],
  "id": "input103-en.txt"
}