{
  "entities": [
    {
      "name": "Nigeria",
      "matches": [
        {
          "wikipediaScore": 0,
          "entityTypeScore": 0.9733394761114518,
          "text": "Nigeria",
          "offset": 199,
          "length": 7
        }
      ],
      "wikipediaLanguage": "",
      "wikipediaId": "",
      "wikipediaUrl": "",
      "bingId": "",
      "type": "Location",
      "subType": ""
    }
  ],
  "id": "input114-it.txt"
}