{
  "entities": [
    {
      "name": "Michael Flynn",
      "matches": [
        {
          "wikipediaScore": 0.6425386416090868,
          "entityTypeScore": 0.9388112425804138,
          "text": "Michael Flynn",
          "offset": 0,
          "length": 13
        },
        {
          "wikipediaScore": 0.6425386416090868,
          "entityTypeScore": 0.9992373585700989,
          "text": "Flynn",
          "offset": 321,
          "length": 5
        },
        {
          "wikipediaScore": 0.6425386416090868,
          "entityTypeScore": 0.9957974553108215,
          "text": "Flynn",
          "offset": 558,
          "length": 5
        }
      ],
      "wikipediaLanguage": "en",
      "wikipediaId": "Michael Flynn",
      "wikipediaUrl": "https://en.wikipedia.org/wiki/Michael_Flynn",
      "bingId": "bca01b40-4a73-4c9d-be40-bb003bfeb66b",
      "type": "Person",
      "subType": ""
    },
    {
      "name": "U.S.",
      "matches": [
        {
          "wikipediaScore": 0,
          "entityTypeScore": 0.9927025437355042,
          "text": "U.S.",
          "offset": 41,
          "length": 4
        },
        {
          "wikipediaScore": 0,
          "entityTypeScore": 0.9956151247024536,
          "text": "U.S.",
          "offset": 530,
          "length": 4
        },
        {
          "wikipediaScore": 0,
          "entityTypeScore": 0.996222972869873,
          "text": "U.S.",
          "offset": 903,
          "length": 4
        },
        {
          "wikipediaScore": 0,
          "entityTypeScore": 0.996116578578949,
          "text": "U.S.",
          "offset": 1696,
          "length": 4
        },
        {
          "wikipediaScore": 0,
          "entityTypeScore": 0.9807779788970947,
          "text": "U.S.",
          "offset": 2505,
          "length": 4
        },
        {
          "wikipediaScore": 0,
          "entityTypeScore": 0.997002363204956,
          "text": "U.S.",
          "offset": 2849,
          "length": 4
        },
        {
          "wikipediaScore": 0,
          "entityTypeScore": 0.9557804465293884,
          "text": "U.S.",
          "offset": 3943,
          "length": 4
        },
        {
          "wikipediaScore": 0,
          "entityTypeScore": 0.9960405826568604,
          "text": "U.S.",
          "offset": 3989,
          "length": 4
        },
        {
          "wikipediaScore": 0,
          "entityTypeScore": 0.9909470081329346,
          "text": "U.S.",
          "offset": 4207,
          "length": 4
        }
      ],
      "wikipediaLanguage": "",
      "wikipediaId": "",
      "wikipediaUrl": "",
      "bingId": "",
      "type": "Location",
      "subType": ""
    },
    {
      "name": "National Security Advisor (United States)",
      "matches": [
        {
          "wikipediaScore": 0.8520588466844647,
          "entityTypeScore": 0.8,
          "text": "U.S. national security adviser",
          "offset": 41,
          "length": 30
        }
      ],
      "wikipediaLanguage": "en",
      "wikipediaId": "National Security Advisor (United States)",
      "wikipediaUrl": "https://en.wikipedia.org/wiki/National_Security_Advisor_(United_States)",
      "bingId": "226583c0-7e35-23d2-5ae9-ef2f92872cc8",
      "type": "Organization",
      "subType": ""
    },
    {
      "name": "United States House of Representatives",
      "matches": [
        {
          "wikipediaScore": 0.5005123130575693,
          "entityTypeScore": 0.8,
          "text": "the House",
          "offset": 95,
          "length": 9
        },
        {
          "wikipediaScore": 0.5005123130575693,
          "entityTypeScore": 0.8,
          "text": "the House",
          "offset": 645,
          "length": 9
        },
        {
          "wikipediaScore": 0.5005123130575693,
          "entityTypeScore": 0.8875746130943298,
          "text": "House of Representatives",
          "offset": 2709,
          "length": 24
        },
        {
          "wikipediaScore": 0.5005123130575693,
          "entityTypeScore": 0.8359138369560242,
          "text": "House",
          "offset": 3269,
          "length": 5
        },
        {
          "wikipediaScore": 0.5005123130575693,
          "entityTypeScore": 0.8,
          "text": "Representative",
          "offset": 3522,
          "length": 14
        },
        {
          "wikipediaScore": 0.5005123130575693,
          "entityTypeScore": 0.8,
          "text": "the House",
          "offset": 4772,
          "length": 9
        }
      ],
      "wikipediaLanguage": "en",
      "wikipediaId": "United States House of Representatives",
      "wikipediaUrl": "https://en.wikipedia.org/wiki/United_States_House_of_Representatives",
      "bingId": "12ddc427-7163-da75-6b30-699692adfa3b",
      "type": "Organization",
      "subType": ""
    },
    {
      "name": "House",
      "matches": [
        {
          "wikipediaScore": 0,
          "entityTypeScore": 0.9984143376350403,
          "text": "House",
          "offset": 99,
          "length": 5
        },
        {
          "wikipediaScore": 0,
          "entityTypeScore": 0.9952505826950073,
          "text": "House",
          "offset": 649,
          "length": 5
        },
        {
          "wikipediaScore": 0,
          "entityTypeScore": 0.9884099960327148,
          "text": "House",
          "offset": 3340,
          "length": 5
        },
        {
          "wikipediaScore": 0,
          "entityTypeScore": 0.9972267746925354,
          "text": "House",
          "offset": 4776,
          "length": 5
        }
      ],
      "wikipediaLanguage": "",
      "wikipediaId": "",
      "wikipediaUrl": "",
      "bingId": "",
      "type": "Organization",
      "subType": ""
    },
    {
      "name": "Senate",
      "matches": [
        {
          "wikipediaScore": 0,
          "entityTypeScore": 0.9924299120903015,
          "text": "Senate",
          "offset": 109,
          "length": 6
        },
        {
          "wikipediaScore": 0,
          "entityTypeScore": 0.9942488074302673,
          "text": "Senate",
          "offset": 659,
          "length": 6
        },
        {
          "wikipediaScore": 0,
          "entityTypeScore": 0.9987190961837769,
          "text": "Senate",
          "offset": 2698,
          "length": 6
        },
        {
          "wikipediaScore": 0,
          "entityTypeScore": 0.998536229133606,
          "text": "Senate",
          "offset": 3258,
          "length": 6
        }
      ],
      "wikipediaLanguage": "",
      "wikipediaId": "",
      "wikipediaUrl": "",
      "bingId": "",
      "type": "Organization",
      "subType": ""
    },
    {
      "name": "United States Senate Select Committee on Intelligence",
      "matches": [
        {
          "wikipediaScore": 0.8430929433868009,
          "entityTypeScore": 0.8,
          "text": "Senate intelligence committees",
          "offset": 109,
          "length": 30
        },
        {
          "wikipediaScore": 0.8430929433868009,
          "entityTypeScore": 0.8,
          "text": "Senate intelligence committees",
          "offset": 659,
          "length": 30
        },
        {
          "wikipediaScore": 0.8430929433868009,
          "entityTypeScore": 0.8,
          "text": "U.S. Senate intelligence committee",
          "offset": 760,
          "length": 34
        },
        {
          "wikipediaScore": 0.8430929433868009,
          "entityTypeScore": 0.9891643524169922,
          "text": "Senate Intelligence Committee",
          "offset": 2323,
          "length": 29
        }
      ],
      "wikipediaLanguage": "en",
      "wikipediaId": "United States Senate Select Committee on Intelligence",
      "wikipediaUrl": "https://en.wikipedia.org/wiki/United_States_Senate_Select_Committee_on_Intelligence",
      "bingId": "e1bfc7fd-6567-8460-b443-b60278b4f9db",
      "type": "Organization",
      "subType": ""
    },
    {
      "name": "Robert Kelner",
      "matches": [
        {
          "wikipediaScore": 0,
          "entityTypeScore": 0.9997101426124573,
          "text": "Robert Kelner",
          "offset": 217,
          "length": 13
        }
      ],
      "wikipediaLanguage": "",
      "wikipediaId": "",
      "wikipediaUrl": "",
      "bingId": "",
      "type": "Person",
      "subType": ""
    },
    {
      "name": "Donald Trump",
      "matches": [
        {
          "wikipediaScore": 0.31834995693221924,
          "entityTypeScore": 0.8,
          "text": "President Donald Trump",
          "offset": 353,
          "length": 22
        },
        {
          "wikipediaScore": 0,
          "entityTypeScore": 0.9917033314704895,
          "text": "Donald Trump",
          "offset": 363,
          "length": 12
        },
        {
          "wikipediaScore": 0,
          "entityTypeScore": 0.9996643662452698,
          "text": "Donald Trump",
          "offset": 1002,
          "length": 12
        },
        {
          "wikipediaScore": 0.31834995693221924,
          "entityTypeScore": 0.9893757104873657,
          "text": "Trump",
          "offset": 1418,
          "length": 5
        },
        {
          "wikipediaScore": 0.31834995693221924,
          "entityTypeScore": 0.9897834062576294,
          "text": "Trump",
          "offset": 4061,
          "length": 5
        }
      ],
      "wikipediaLanguage": "en",
      "wikipediaId": "Donald Trump",
      "wikipediaUrl": "https://en.wikipedia.org/wiki/Donald_Trump",
      "bingId": "1a466af2-ed23-25bd-794d-1ca925e4681b",
      "type": "Person",
      "subType": ""
    },
    {
      "name": "first",
      "matches": [
        {
          "wikipediaScore": 0,
          "entityTypeScore": 0.8,
          "text": "first",
          "offset": 378,
          "length": 5
        }
      ],
      "wikipediaLanguage": "",
      "wikipediaId": "",
      "wikipediaUrl": "",
      "bingId": "",
      "type": "Quantity",
      "subType": "Ordinal"
    },
    {
      "name": "Soviet Union",
      "matches": [
        {
          "wikipediaScore": 0.14566643463897289,
          "entityTypeScore": 0.8,
          "text": "Russian",
          "offset": 504,
          "length": 7
        },
        {
          "wikipediaScore": 0.14566643463897289,
          "entityTypeScore": 0.9914914965629578,
          "text": "Russia",
          "offset": 574,
          "length": 6
        },
        {
          "wikipediaScore": 0.14566643463897289,
          "entityTypeScore": 0.9231569170951843,
          "text": "Russia",
          "offset": 803,
          "length": 6
        },
        {
          "wikipediaScore": 0.14566643463897289,
          "entityTypeScore": 0.9887720346450806,
          "text": "Russia",
          "offset": 1059,
          "length": 6
        },
        {
          "wikipediaScore": 0.14566643463897289,
          "entityTypeScore": 0.8,
          "text": "Russian",
          "offset": 1098,
          "length": 7
        },
        {
          "wikipediaScore": 0.14566643463897289,
          "entityTypeScore": 0.8,
          "text": "Russian",
          "offset": 1249,
          "length": 7
        },
        {
          "wikipediaScore": 0.14566643463897289,
          "entityTypeScore": 0.8,
          "text": "Russian",
          "offset": 1435,
          "length": 7
        },
        {
          "wikipediaScore": 0.14566643463897289,
          "entityTypeScore": 0.998079240322113,
          "text": "Russia",
          "offset": 1794,
          "length": 6
        },
        {
          "wikipediaScore": 0.14566643463897289,
          "entityTypeScore": 0.8,
          "text": "Russians",
          "offset": 2134,
          "length": 8
        },
        {
          "wikipediaScore": 0.14566643463897289,
          "entityTypeScore": 0.8,
          "text": "Russian",
          "offset": 3919,
          "length": 7
        },
        {
          "wikipediaScore": 0.14566643463897289,
          "entityTypeScore": 0.9498486518859863,
          "text": "Russia",
          "offset": 4391,
          "length": 6
        },
        {
          "wikipediaScore": 0.14566643463897289,
          "entityTypeScore": 0.8,
          "text": "Russian",
          "offset": 4693,
          "length": 7
        }
      ],
      "wikipediaLanguage": "en",
      "wikipediaId": "Soviet Union",
      "wikipediaUrl": "https://en.wikipedia.org/wiki/Soviet_Union",
      "bingId": "a39405be-be1f-1a0a-cf80-021e0d600d07",
      "type": "Location",
      "subType": ""
    },
    {
      "name": "United States",
      "matches": [
        {
          "wikipediaScore": 0.7903050150971245,
          "entityTypeScore": 0.8,
          "text": "the U.S.",
          "offset": 526,
          "length": 8
        },
        {
          "wikipediaScore": 0.7903050150971245,
          "entityTypeScore": 0.8,
          "text": "American",
          "offset": 1949,
          "length": 8
        },
        {
          "wikipediaScore": 0.7903050150971245,
          "entityTypeScore": 0.8,
          "text": "USA",
          "offset": 2306,
          "length": 3
        },
        {
          "wikipediaScore": 0.7903050150971245,
          "entityTypeScore": 0.8,
          "text": "the U.S.",
          "offset": 3985,
          "length": 8
        },
        {
          "wikipediaScore": 0.7903050150971245,
          "entityTypeScore": 0.8,
          "text": "the U.S.",
          "offset": 4203,
          "length": 8
        }
      ],
      "wikipediaLanguage": "en",
      "wikipediaId": "United States",
      "wikipediaUrl": "https://en.wikipedia.org/wiki/United_States",
      "bingId": "5232ed96-85b1-2edb-12c6-63e6c597a1de",
      "type": "Location",
      "subType": ""
    },
    {
      "name": "Federal Bureau of Investigation",
      "matches": [
        {
          "wikipediaScore": 0.6256314093674786,
          "entityTypeScore": 1,
          "text": "FBI",
          "offset": 610,
          "length": 3
        },
        {
          "wikipediaScore": 0.6256314093674786,
          "entityTypeScore": 0.9998779296875,
          "text": "FBI",
          "offset": 1072,
          "length": 3
        }
      ],
      "wikipediaLanguage": "en",
      "wikipediaId": "Federal Bureau of Investigation",
      "wikipediaUrl": "https://en.wikipedia.org/wiki/Federal_Bureau_of_Investigation",
      "bingId": "e470e552-d479-42f9-dff4-a15995402e33",
      "type": "Organization",
      "subType": ""
    },
    {
      "name": "Propaganda",
      "matches": [
        {
          "wikipediaScore": 0.18911678179648694,
          "entityTypeScore": 0.8,
          "text": "Propaganda",
          "offset": 692,
          "length": 10
        }
      ],
      "wikipediaLanguage": "en",
      "wikipediaId": "Propaganda",
      "wikipediaUrl": "https://en.wikipedia.org/wiki/Propaganda",
      "bingId": "00186ae4-e7ec-f6f9-b7a8-c32b6067e113",
      "type": "Other",
      "subType": ""
    },
    {
      "name": "the day",
      "matches": [
        {
          "wikipediaScore": 0,
          "entityTypeScore": 0.8,
          "text": "the day",
          "offset": 727,
          "length": 7
        }
      ],
      "wikipediaLanguage": "",
      "wikipediaId": "",
      "wikipediaUrl": "",
      "bingId": "",
      "type": "DateTime",
      "subType": "Date"
    },
    {
      "name": "Democratic Party (United States)",
      "matches": [
        {
          "wikipediaScore": 0.1182040887125495,
          "entityTypeScore": 0.8,
          "text": "Democrat",
          "offset": 744,
          "length": 8
        },
        {
          "wikipediaScore": 0.1182040887125495,
          "entityTypeScore": 0.8,
          "text": "Democrat",
          "offset": 1813,
          "length": 8
        },
        {
          "wikipediaScore": 0.1182040887125495,
          "entityTypeScore": 0.8,
          "text": "Democratic",
          "offset": 2672,
          "length": 10
        },
        {
          "wikipediaScore": 0.1182040887125495,
          "entityTypeScore": 0.8,
          "text": "Democratic",
          "offset": 3224,
          "length": 10
        },
        {
          "wikipediaScore": 0.1182040887125495,
          "entityTypeScore": 0.8,
          "text": "Democrat",
          "offset": 3324,
          "length": 8
        }
      ],
      "wikipediaLanguage": "en",
      "wikipediaId": "Democratic Party (United States)",
      "wikipediaUrl": "https://en.wikipedia.org/wiki/Democratic_Party_(United_States)",
      "bingId": "022d3e13-c9e7-91f5-ce61-8a3d48d58fc6",
      "type": "Organization",
      "subType": ""
    },
    {
      "name": "U.S. Senate",
      "matches": [
        {
          "wikipediaScore": 0,
          "entityTypeScore": 0.9688192009925842,
          "text": "U.S. Senate",
          "offset": 760,
          "length": 11
        }
      ],
      "wikipediaLanguage": "",
      "wikipediaId": "",
      "wikipediaUrl": "",
      "bingId": "",
      "type": "Organization",
      "subType": ""
    },
    {
      "name": "Thursday",
      "matches": [
        {
          "wikipediaScore": 0,
          "entityTypeScore": 0.8,
          "text": "Thursday",
          "offset": 813,
          "length": 8
        },
        {
          "wikipediaScore": 0,
          "entityTypeScore": 0.8,
          "text": "Thursday",
          "offset": 3832,
          "length": 8
        },
        {
          "wikipediaScore": 0,
          "entityTypeScore": 0.8,
          "text": "Thursday",
          "offset": 4109,
          "length": 8
        }
      ],
      "wikipediaLanguage": "",
      "wikipediaId": "",
      "wikipediaUrl": "",
      "bingId": "",
      "type": "DateTime",
      "subType": "Date"
    },
    {
      "name": "2016 United States presidential election",
      "matches": [
        {
          "wikipediaScore": 0.9191682131671468,
          "entityTypeScore": 0.8,
          "text": "2016 U.S. presidential election",
          "offset": 898,
          "length": 31
        },
        {
          "wikipediaScore": 0.9191682131671468,
          "entityTypeScore": 0.8,
          "text": "2016 U.S. presidential election",
          "offset": 1691,
          "length": 31
        },
        {
          "wikipediaScore": 0.9191682131671468,
          "entityTypeScore": 0.8,
          "text": "U.S. presidential election",
          "offset": 2849,
          "length": 26
        }
      ],
      "wikipediaLanguage": "en",
      "wikipediaId": "2016 United States presidential election",
      "wikipediaUrl": "https://en.wikipedia.org/wiki/2016_United_States_presidential_election",
      "bingId": "4f08303e-5177-40d4-8df3-404a96670cb4",
      "type": "Other",
      "subType": ""
    },
    {
      "name": "2016",
      "matches": [
        {
          "wikipediaScore": 0,
          "entityTypeScore": 0.8,
          "text": "2016",
          "offset": 898,
          "length": 4
        },
        {
          "wikipediaScore": 0,
          "entityTypeScore": 0.8,
          "text": "2016",
          "offset": 1691,
          "length": 4
        },
        {
          "wikipediaScore": 0,
          "entityTypeScore": 0.8,
          "text": "2016",
          "offset": 2500,
          "length": 4
        },
        {
          "wikipediaScore": 0,
          "entityTypeScore": 0.8,
          "text": "2016",
          "offset": 4441,
          "length": 4
        }
      ],
      "wikipediaLanguage": "",
      "wikipediaId": "",
      "wikipediaUrl": "",
      "bingId": "",
      "type": "DateTime",
      "subType": "DateRange"
    },
    {
      "name": "Donald Trump 2016 presidential campaign",
      "matches": [
        {
          "wikipediaScore": 0.7836251273327528,
          "entityTypeScore": 0.8,
          "text": "Donald Trump's campaign",
          "offset": 1002,
          "length": 23
        }
      ],
      "wikipediaLanguage": "en",
      "wikipediaId": "Donald Trump 2016 presidential campaign",
      "wikipediaUrl": "https://en.wikipedia.org/wiki/Donald_Trump_2016_presidential_campaign",
      "bingId": "74bdc4a3-2ec5-7bf7-3f57-d83353596f61",
      "type": "Other",
      "subType": ""
    },
    {
      "name": "Devin Nunes",
      "matches": [
        {
          "wikipediaScore": 0.8557237969265021,
          "entityTypeScore": 0.930283784866333,
          "text": "Nunes",
          "offset": 1027,
          "length": 5
        },
        {
          "wikipediaScore": 0.8557237969265021,
          "entityTypeScore": 0.9016069173812866,
          "text": "Devin Nunes",
          "offset": 3485,
          "length": 11
        }
      ],
      "wikipediaLanguage": "en",
      "wikipediaId": "Devin Nunes",
      "wikipediaUrl": "https://en.wikipedia.org/wiki/Devin_Nunes",
      "bingId": "293daa86-e689-8fdb-be85-caee83c910f9",
      "type": "Person",
      "subType": ""
    },
    {
      "name": "Mark Warner",
      "matches": [
        {
          "wikipediaScore": 0.8126305938068212,
          "entityTypeScore": 0.8,
          "text": "Senator Mark Warner",
          "offset": 1168,
          "length": 19
        },
        {
          "wikipediaScore": 0,
          "entityTypeScore": 0.998536229133606,
          "text": "Mark Warner",
          "offset": 1176,
          "length": 11
        },
        {
          "wikipediaScore": 0.8126305938068212,
          "entityTypeScore": 0.8,
          "text": "Warner",
          "offset": 1397,
          "length": 6
        },
        {
          "wikipediaScore": 0.8126305938068212,
          "entityTypeScore": 0.8,
          "text": "Sen. Mark Warner",
          "offset": 2384,
          "length": 16
        },
        {
          "wikipediaScore": 0,
          "entityTypeScore": 0.8689211010932922,
          "text": "Mark Warner",
          "offset": 2389,
          "length": 11
        },
        {
          "wikipediaScore": 0.8126305938068212,
          "entityTypeScore": 0.8,
          "text": "Warner",
          "offset": 4224,
          "length": 6
        },
        {
          "wikipediaScore": 0.8126305938068212,
          "entityTypeScore": 0.8,
          "text": "Warner",
          "offset": 4620,
          "length": 6
        }
      ],
      "wikipediaLanguage": "en",
      "wikipediaId": "Mark Warner",
      "wikipediaUrl": "https://en.wikipedia.org/wiki/Mark_Warner",
      "bingId": "bafe4c69-4773-f0a1-de77-fad6715b4e46",
      "type": "Person",
      "subType": ""
    },
    {
      "name": "Warner",
      "matches": [
        {
          "wikipediaScore": 0,
          "entityTypeScore": 0.6965377330780029,
          "text": "Warner",
          "offset": 1397,
          "length": 6
        },
        {
          "wikipediaScore": 0,
          "entityTypeScore": 0.9702394008636475,
          "text": "Warner",
          "offset": 4224,
          "length": 6
        },
        {
          "wikipediaScore": 0,
          "entityTypeScore": 0.8722953796386719,
          "text": "Warner",
          "offset": 4620,
          "length": 6
        }
      ],
      "wikipediaLanguage": "",
      "wikipediaId": "",
      "wikipediaUrl": "",
      "bingId": "",
      "type": "Organization",
      "subType": ""
    },
    {
      "name": "Russia",
      "matches": [
        {
          "wikipediaScore": 0.1904744458528147,
          "entityTypeScore": 0.8,
          "text": "Russia's",
          "offset": 1654,
          "length": 8
        },
        {
          "wikipediaScore": 0,
          "entityTypeScore": 0.9848870635032654,
          "text": "Russia",
          "offset": 1654,
          "length": 6
        },
        {
          "wikipediaScore": 0.1904744458528147,
          "entityTypeScore": 0.8,
          "text": "Russian government",
          "offset": 1893,
          "length": 18
        },
        {
          "wikipediaScore": 0,
          "entityTypeScore": 0.737364649772644,
          "text": "Russia",
          "offset": 2264,
          "length": 6
        },
        {
          "wikipediaScore": 0.1904744458528147,
          "entityTypeScore": 0.8,
          "text": "Russia's",
          "offset": 2812,
          "length": 8
        },
        {
          "wikipediaScore": 0,
          "entityTypeScore": 0.951124906539917,
          "text": "Russia",
          "offset": 2812,
          "length": 6
        },
        {
          "wikipediaScore": 0.1904744458528147,
          "entityTypeScore": 0.8,
          "text": "Russian government",
          "offset": 4505,
          "length": 18
        }
      ],
      "wikipediaLanguage": "en",
      "wikipediaId": "Russia",
      "wikipediaUrl": "https://en.wikipedia.org/wiki/Russia",
      "bingId": "ed4fce79-8ad4-352b-205b-e4db36c49bbe",
      "type": "Location",
      "subType": ""
    },
    {
      "name": "Ron Wyden",
      "matches": [
        {
          "wikipediaScore": 0.809270137450878,
          "entityTypeScore": 0.8565599918365479,
          "text": "Senator Ron Wyden",
          "offset": 1724,
          "length": 17
        }
      ],
      "wikipediaLanguage": "en",
      "wikipediaId": "Ron Wyden",
      "wikipediaUrl": "https://en.wikipedia.org/wiki/Ron_Wyden",
      "bingId": "d0e83019-c9b2-fd5a-a7c5-a65db12029f0",
      "type": "Person",
      "subType": ""
    },
    {
      "name": "Ron",
      "matches": [
        {
          "wikipediaScore": 0,
          "entityTypeScore": 0.8,
          "text": "Ron",
          "offset": 1732,
          "length": 3
        }
      ],
      "wikipediaLanguage": "",
      "wikipediaId": "",
      "wikipediaUrl": "",
      "bingId": "",
      "type": "Quantity",
      "subType": "Currency"
    },
    {
      "name": "Oregon Democrat",
      "matches": [
        {
          "wikipediaScore": 0,
          "entityTypeScore": 0.9620134830474854,
          "text": "Oregon Democrat",
          "offset": 1806,
          "length": 15
        }
      ],
      "wikipediaLanguage": "",
      "wikipediaId": "",
      "wikipediaUrl": "",
      "bingId": "",
      "type": "Organization",
      "subType": ""
    },
    {
      "name": "Oregon",
      "matches": [
        {
          "wikipediaScore": 0.1926303039517332,
          "entityTypeScore": 0.8,
          "text": "Oregon",
          "offset": 1806,
          "length": 6
        }
      ],
      "wikipediaLanguage": "en",
      "wikipediaId": "Oregon",
      "wikipediaUrl": "https://en.wikipedia.org/wiki/Oregon",
      "bingId": "cacd36fd-7c62-43e2-a632-64a2a1811933",
      "type": "Location",
      "subType": ""
    },
    {
      "name": "two",
      "matches": [
        {
          "wikipediaScore": 0,
          "entityTypeScore": 0.8,
          "text": "two",
          "offset": 1934,
          "length": 3
        }
      ],
      "wikipediaLanguage": "",
      "wikipediaId": "",
      "wikipediaUrl": "",
      "bingId": "",
      "type": "Quantity",
      "subType": "Number"
    },
    {
      "name": "Clint Watts",
      "matches": [
        {
          "wikipediaScore": 0.8230132163494044,
          "entityTypeScore": 0.9974398016929626,
          "text": "Clint Watts",
          "offset": 1972,
          "length": 11
        }
      ],
      "wikipediaLanguage": "en",
      "wikipediaId": "Clint Watts",
      "wikipediaUrl": "https://en.wikipedia.org/wiki/Clint_Watts",
      "bingId": "e8a1652a-4e11-f95c-0e03-b692148b65cd",
      "type": "Person",
      "subType": ""
    },
    {
      "name": "Foreign Policy Research Institute Program on National Security",
      "matches": [
        {
          "wikipediaScore": 0,
          "entityTypeScore": 0.5303509831428528,
          "text": "Foreign Policy Research Institute Program on National Security",
          "offset": 1994,
          "length": 62
        }
      ],
      "wikipediaLanguage": "",
      "wikipediaId": "",
      "wikipediaUrl": "",
      "bingId": "",
      "type": "Organization",
      "subType": ""
    },
    {
      "name": "Foreign Policy Research Institute",
      "matches": [
        {
          "wikipediaScore": 0.7240879039038144,
          "entityTypeScore": 0.8,
          "text": "Foreign Policy Research Institute",
          "offset": 1994,
          "length": 33
        }
      ],
      "wikipediaLanguage": "en",
      "wikipediaId": "Foreign Policy Research Institute",
      "wikipediaUrl": "https://en.wikipedia.org/wiki/Foreign_Policy_Research_Institute",
      "bingId": "a1e61109-eea9-9049-78c1-029f8d9c3ff8",
      "type": "Organization",
      "subType": ""
    },
    {
      "name": "Television show",
      "matches": [
        {
          "wikipediaScore": 0.1521628518384046,
          "entityTypeScore": 0.8,
          "text": "Program",
          "offset": 2028,
          "length": 7
        }
      ],
      "wikipediaLanguage": "en",
      "wikipediaId": "Television show",
      "wikipediaUrl": "https://en.wikipedia.org/wiki/Television_show",
      "bingId": "7e927161-920b-d128-12a0-1dcc2dcfd8b0",
      "type": "Other",
      "subType": ""
    },
    {
      "name": "National security",
      "matches": [
        {
          "wikipediaScore": 0.14982487023966895,
          "entityTypeScore": 0.8,
          "text": "National Security",
          "offset": 2039,
          "length": 17
        }
      ],
      "wikipediaLanguage": "en",
      "wikipediaId": "National security",
      "wikipediaUrl": "https://en.wikipedia.org/wiki/National_security",
      "bingId": "043261dd-648e-1d4e-719b-66817728c306",
      "type": "Other",
      "subType": ""
    },
    {
      "name": "Kremlin",
      "matches": [
        {
          "wikipediaScore": 0,
          "entityTypeScore": 0.9526936411857605,
          "text": "Kremlin",
          "offset": 2174,
          "length": 7
        },
        {
          "wikipediaScore": 0,
          "entityTypeScore": 0.9973180294036865,
          "text": "Kremlin",
          "offset": 4141,
          "length": 7
        }
      ],
      "wikipediaLanguage": "",
      "wikipediaId": "",
      "wikipediaUrl": "",
      "bingId": "",
      "type": "Organization",
      "subType": ""
    },
    {
      "name": "Moscow Kremlin",
      "matches": [
        {
          "wikipediaScore": 0.22281855344038703,
          "entityTypeScore": 0.8,
          "text": "Kremlin",
          "offset": 2174,
          "length": 7
        },
        {
          "wikipediaScore": 0.22281855344038703,
          "entityTypeScore": 0.8,
          "text": "the Kremlin",
          "offset": 4137,
          "length": 11
        }
      ],
      "wikipediaLanguage": "en",
      "wikipediaId": "Moscow Kremlin",
      "wikipediaUrl": "https://en.wikipedia.org/wiki/Moscow_Kremlin",
      "bingId": "33b0df5b-d2f9-cb6d-06c5-1eade9f6f4a7",
      "type": "Location",
      "subType": ""
    },
    {
      "name": "past three months",
      "matches": [
        {
          "wikipediaScore": 0,
          "entityTypeScore": 0.8,
          "text": "past three months",
          "offset": 2232,
          "length": 17
        }
      ],
      "wikipediaLanguage": "",
      "wikipediaId": "",
      "wikipediaUrl": "",
      "bingId": "",
      "type": "DateTime",
      "subType": "DateRange"
    },
    {
      "name": "Russian reversal",
      "matches": [
        {
          "wikipediaScore": 0.6536453733211283,
          "entityTypeScore": 0.8,
          "text": "in Russia",
          "offset": 2261,
          "length": 9
        }
      ],
      "wikipediaLanguage": "en",
      "wikipediaId": "Russian reversal",
      "wikipediaUrl": "https://en.wikipedia.org/wiki/Russian_reversal",
      "bingId": "5a4045ef-c5dc-a450-e869-5c6511abce02",
      "type": "Other",
      "subType": ""
    },
    {
      "name": "Western world",
      "matches": [
        {
          "wikipediaScore": 0.7031004375076377,
          "entityTypeScore": 0.8,
          "text": "Western countries",
          "offset": 2279,
          "length": 17
        }
      ],
      "wikipediaLanguage": "en",
      "wikipediaId": "Western world",
      "wikipediaUrl": "https://en.wikipedia.org/wiki/Western_world",
      "bingId": "81fa8d2b-d41f-f7e6-1755-6e9b92acf836",
      "type": "Other",
      "subType": ""
    },
    {
      "name": "Russian interference in the 2016 United States elections",
      "matches": [
        {
          "wikipediaScore": 0.9293761149351469,
          "entityTypeScore": 0.8,
          "text": "TRUMP/RUSSIA",
          "offset": 2310,
          "length": 12
        },
        {
          "wikipediaScore": 0.9293761149351469,
          "entityTypeScore": 0.8,
          "text": "Russian interference in the 2016 U.S. election",
          "offset": 2472,
          "length": 46
        }
      ],
      "wikipediaLanguage": "en",
      "wikipediaId": "Russian interference in the 2016 United States elections",
      "wikipediaUrl": "https://en.wikipedia.org/wiki/Russian_interference_in_the_2016_United_States_elections",
      "bingId": "dcacea6b-068d-00ab-df60-e955a3b536ba",
      "type": "Other",
      "subType": ""
    },
    {
      "name": "Richard Burr",
      "matches": [
        {
          "wikipediaScore": 0.8267743840105515,
          "entityTypeScore": 0.8,
          "text": "Sen. Richard Burr",
          "offset": 2362,
          "length": 17
        },
        {
          "wikipediaScore": 0,
          "entityTypeScore": 0.9174555540084839,
          "text": "Richard Burr",
          "offset": 2367,
          "length": 12
        },
        {
          "wikipediaScore": 0.8267743840105515,
          "entityTypeScore": 0.8,
          "text": "Senator Richard Burr",
          "offset": 4257,
          "length": 20
        },
        {
          "wikipediaScore": 0,
          "entityTypeScore": 0.9591699242591858,
          "text": "Richard Burr",
          "offset": 4265,
          "length": 12
        },
        {
          "wikipediaScore": 0.8267743840105515,
          "entityTypeScore": 0.8592173457145691,
          "text": "Burr",
          "offset": 4611,
          "length": 4
        }
      ],
      "wikipediaLanguage": "en",
      "wikipediaId": "Richard Burr",
      "wikipediaUrl": "https://en.wikipedia.org/wiki/Richard_Burr",
      "bingId": "f379b02b-f8c1-ea91-3942-773cc5a351e7",
      "type": "Person",
      "subType": ""
    },
    {
      "name": "Aaron P. Bernstein",
      "matches": [
        {
          "wikipediaScore": 0,
          "entityTypeScore": 1,
          "text": "Aaron P. Bernstein",
          "offset": 2521,
          "length": 18
        }
      ],
      "wikipediaLanguage": "",
      "wikipediaId": "",
      "wikipediaUrl": "",
      "bingId": "",
      "type": "Person",
      "subType": ""
    },
    {
      "name": "Reuters",
      "matches": [
        {
          "wikipediaScore": 0.6243836743659907,
          "entityTypeScore": 0.8,
          "text": "Reuters",
          "offset": 2540,
          "length": 7
        }
      ],
      "wikipediaLanguage": "en",
      "wikipediaId": "Reuters",
      "wikipediaUrl": "https://en.wikipedia.org/wiki/Reuters",
      "bingId": "9f417f89-9a37-e0d0-912e-99dccfb8982d",
      "type": "Organization",
      "subType": ""
    },
    {
      "name": "New Testament",
      "matches": [
        {
          "wikipediaScore": 0.1338335415780434,
          "entityTypeScore": 0.8,
          "text": "New",
          "offset": 2549,
          "length": 3
        }
      ],
      "wikipediaLanguage": "en",
      "wikipediaId": "New Testament",
      "wikipediaUrl": "https://en.wikipedia.org/wiki/New_Testament",
      "bingId": "a02fa319-1919-b3d2-9ff3-2c326793715f",
      "type": "Other",
      "subType": ""
    },
    {
      "name": "Thursday afternoon",
      "matches": [
        {
          "wikipediaScore": 0,
          "entityTypeScore": 0.8,
          "text": "Thursday afternoon",
          "offset": 2584,
          "length": 18
        }
      ],
      "wikipediaLanguage": "",
      "wikipediaId": "",
      "wikipediaUrl": "",
      "bingId": "",
      "type": "DateTime",
      "subType": "DateTimeRange"
    },
    {
      "name": "President of the United States",
      "matches": [
        {
          "wikipediaScore": 0.1704068418101634,
          "entityTypeScore": 0.8,
          "text": "White House",
          "offset": 2604,
          "length": 11
        }
      ],
      "wikipediaLanguage": "en",
      "wikipediaId": "President of the United States",
      "wikipediaUrl": "https://en.wikipedia.org/wiki/President_of_the_United_States",
      "bingId": "27fdd497-ed4d-8486-511e-def460eadac7",
      "type": "Other",
      "subType": ""
    },
    {
      "name": "White House",
      "matches": [
        {
          "wikipediaScore": 0,
          "entityTypeScore": 0.9990239143371582,
          "text": "White House",
          "offset": 2604,
          "length": 11
        },
        {
          "wikipediaScore": 0,
          "entityTypeScore": 0.9605759978294373,
          "text": "White House",
          "offset": 3558,
          "length": 11
        },
        {
          "wikipediaScore": 0,
          "entityTypeScore": 0.9982315301895142,
          "text": "White House",
          "offset": 3639,
          "length": 11
        }
      ],
      "wikipediaLanguage": "",
      "wikipediaId": "",
      "wikipediaUrl": "",
      "bingId": "",
      "type": "Organization",
      "subType": ""
    },
    {
      "name": "Sean Spicer",
      "matches": [
        {
          "wikipediaScore": 0.8325572357887041,
          "entityTypeScore": 0.998962938785553,
          "text": "Sean Spicer",
          "offset": 2629,
          "length": 11
        },
        {
          "wikipediaScore": 0.8325572357887041,
          "entityTypeScore": 0.9673125147819519,
          "text": "Spicer",
          "offset": 3046,
          "length": 6
        }
      ],
      "wikipediaLanguage": "en",
      "wikipediaId": "Sean Spicer",
      "wikipediaUrl": "https://en.wikipedia.org/wiki/Sean_Spicer",
      "bingId": "b0d01a62-d269-5d02-7427-e791cf505cd7",
      "type": "Person",
      "subType": ""
    },
    {
      "name": "United States Senate",
      "matches": [
        {
          "wikipediaScore": 0.6071160261129691,
          "entityTypeScore": 0.8,
          "text": "the Senate",
          "offset": 2694,
          "length": 10
        },
        {
          "wikipediaScore": 0.6071160261129691,
          "entityTypeScore": 0.8,
          "text": "the Senate",
          "offset": 3254,
          "length": 10
        }
      ],
      "wikipediaLanguage": "en",
      "wikipediaId": "United States Senate",
      "wikipediaUrl": "https://en.wikipedia.org/wiki/United_States_Senate",
      "bingId": "32bbfbff-afd2-34d2-f847-5de8b7d27fb1",
      "type": "Organization",
      "subType": ""
    },
    {
      "name": "Later Thursday",
      "matches": [
        {
          "wikipediaScore": 0,
          "entityTypeScore": 0.8,
          "text": "Later Thursday",
          "offset": 3300,
          "length": 14
        }
      ],
      "wikipediaLanguage": "",
      "wikipediaId": "",
      "wikipediaUrl": "",
      "bingId": "",
      "type": "DateTime",
      "subType": "DateTimeRange"
    },
    {
      "name": "United States House Permanent Select Committee on Intelligence",
      "matches": [
        {
          "wikipediaScore": 0.8653028759261701,
          "entityTypeScore": 0.8,
          "text": "House intelligence committee",
          "offset": 3340,
          "length": 28
        }
      ],
      "wikipediaLanguage": "en",
      "wikipediaId": "United States House Permanent Select Committee on Intelligence",
      "wikipediaUrl": "https://en.wikipedia.org/wiki/United_States_House_Permanent_Select_Committee_on_Intelligence",
      "bingId": "5d7b3d04-666a-b7a3-eb38-e0ea02c55b6f",
      "type": "Organization",
      "subType": ""
    },
    {
      "name": "Adam Schiff",
      "matches": [
        {
          "wikipediaScore": 0.848953713600973,
          "entityTypeScore": 0.9956758618354797,
          "text": "Adam Schiff",
          "offset": 3537,
          "length": 11
        }
      ],
      "wikipediaLanguage": "en",
      "wikipediaId": "Adam Schiff",
      "wikipediaUrl": "https://en.wikipedia.org/wiki/Adam_Schiff",
      "bingId": "d5c1a692-eb25-8c7a-976b-c75a43f36513",
      "type": "Person",
      "subType": ""
    },
    {
      "name": "Executive Office of the President of the United States",
      "matches": [
        {
          "wikipediaScore": 0.7649862069262625,
          "entityTypeScore": 0.8,
          "text": "White House staff",
          "offset": 3639,
          "length": 17
        }
      ],
      "wikipediaLanguage": "en",
      "wikipediaId": "Executive Office of the President of the United States",
      "wikipediaUrl": "https://en.wikipedia.org/wiki/Executive_Office_of_the_President_of_the_United_States",
      "bingId": "16d53185-91bd-e3a1-a0f2-252299952d25",
      "type": "Organization",
      "subType": ""
    },
    {
      "name": "Vladimir Putin",
      "matches": [
        {
          "wikipediaScore": 0.4806015108386559,
          "entityTypeScore": 0.9964662194252014,
          "text": "Putin",
          "offset": 3818,
          "length": 5
        },
        {
          "wikipediaScore": 0.4806015108386559,
          "entityTypeScore": 0.9917941093444824,
          "text": "Putin",
          "offset": 3842,
          "length": 5
        }
      ],
      "wikipediaLanguage": "en",
      "wikipediaId": "Vladimir Putin",
      "wikipediaUrl": "https://en.wikipedia.org/wiki/Vladimir_Putin",
      "bingId": "60d41b9e-06ae-967b-bcc5-97ad4a13d29c",
      "type": "Person",
      "subType": ""
    },
    {
      "name": "Elections in the United States",
      "matches": [
        {
          "wikipediaScore": 0.7177733716162398,
          "entityTypeScore": 0.8,
          "text": "U.S. election",
          "offset": 3943,
          "length": 13
        }
      ],
      "wikipediaLanguage": "en",
      "wikipediaId": "Elections in the United States",
      "wikipediaUrl": "https://en.wikipedia.org/wiki/Elections_in_the_United_States",
      "bingId": "40758d56-958a-3b15-3c3d-69d73aeb4392",
      "type": "Other",
      "subType": ""
    },
    {
      "name": "Arctic",
      "matches": [
        {
          "wikipediaScore": 0,
          "entityTypeScore": 0.5377993583679199,
          "text": "Arctic",
          "offset": 4082,
          "length": 6
        }
      ],
      "wikipediaLanguage": "",
      "wikipediaId": "",
      "wikipediaUrl": "",
      "bingId": "",
      "type": "Location",
      "subType": ""
    },
    {
      "name": "Europe",
      "matches": [
        {
          "wikipediaScore": 0,
          "entityTypeScore": 0.9996948838233948,
          "text": "Europe",
          "offset": 4216,
          "length": 6
        }
      ],
      "wikipediaLanguage": "",
      "wikipediaId": "",
      "wikipediaUrl": "",
      "bingId": "",
      "type": "Location",
      "subType": ""
    },
    {
      "name": "North Carolina",
      "matches": [
        {
          "wikipediaScore": 0.16962520676094628,
          "entityTypeScore": 0.8713641166687012,
          "text": "North Carolina",
          "offset": 4297,
          "length": 14
        }
      ],
      "wikipediaLanguage": "en",
      "wikipediaId": "North Carolina",
      "wikipediaUrl": "https://en.wikipedia.org/wiki/North_Carolina",
      "bingId": "9e2bf053-dd80-4646-8f26-65075e7085c0",
      "type": "Location",
      "subType": ""
    },
    {
      "name": "Wednesday",
      "matches": [
        {
          "wikipediaScore": 0,
          "entityTypeScore": 0.8,
          "text": "Wednesday",
          "offset": 4332,
          "length": 9
        }
      ],
      "wikipediaLanguage": "",
      "wikipediaId": "",
      "wikipediaUrl": "",
      "bingId": "",
      "type": "DateTime",
      "subType": "Date"
    }
  ],
  "id": "input48-en.txt"
}