{
  "entities": [
    {
      "name": "Toronto",
      "matches": [
        {
          "wikipediaScore": 0.8075760086112596,
          "entityTypeScore": 0.8,
          "text": "Toronto City",
          "offset": 0,
          "length": 12
        },
        {
          "wikipediaScore": 0,
          "entityTypeScore": 0.7255595326423645,
          "text": "Toronto",
          "offset": 0,
          "length": 7
        }
      ],
      "wikipediaLanguage": "en",
      "wikipediaId": "Toronto",
      "wikipediaUrl": "https://en.wikipedia.org/wiki/Toronto",
      "bingId": "e9c1d78f-effd-4cbf-af56-ce709763b200",
      "type": "Location",
      "subType": ""
    },
    {
      "name": "John Filion",
      "matches": [
        {
          "wikipediaScore": 0.7822057062781025,
          "entityTypeScore": 0.9336968064308167,
          "text": "John Filion",
          "offset": 24,
          "length": 11
        }
      ],
      "wikipediaLanguage": "en",
      "wikipediaId": "John Filion",
      "wikipediaUrl": "https://en.wikipedia.org/wiki/John_Filion",
      "bingId": "ddcceb3e-5585-08b3-22b7-ed0f47ddc1a5",
      "type": "Person",
      "subType": ""
    }
  ],
  "id": "input63-en.txt"
}