{
  "entities": [
    {
      "name": "Al-Qaeda",
      "matches": [
        {
          "wikipediaScore": 0.1596048958777716,
          "entityTypeScore": 0.9051011800765991,
          "text": "Al-Qaeda",
          "offset": 0,
          "length": 8
        }
      ],
      "wikipediaLanguage": "en",
      "wikipediaId": "Al-Qaeda",
      "wikipediaUrl": "https://en.wikipedia.org/wiki/Al-Qaeda",
      "bingId": "b2bfa56d-623a-2a4d-e984-fcec15c7b7ce",
      "type": "Organization",
      "subType": ""
    }
  ],
  "id": "input13-en.txt"
}