{
  "entities": [
    {
      "name": "巴拉克奥巴马",
      "matches": [
        {
          "wikipediaScore": 0,
          "entityTypeScore": 1,
          "text": "巴拉克奥巴马",
          "offset": 0,
          "length": 6
        }
      ],
      "wikipediaLanguage": "",
      "wikipediaId": "",
      "wikipediaUrl": "",
      "bingId": "",
      "type": "Person",
      "subType": ""
    },
    {
      "name": "芝加哥",
      "matches": [
        {
          "wikipediaScore": 0,
          "entityTypeScore": 1,
          "text": "芝加哥",
          "offset": 8,
          "length": 3
        }
      ],
      "wikipediaLanguage": "",
      "wikipediaId": "",
      "wikipediaUrl": "",
      "bingId": "",
      "type": "Location",
      "subType": ""
    },
    {
      "name": "11月",
      "matches": [
        {
          "wikipediaScore": 0,
          "entityTypeScore": 0.8,
          "text": "11月",
          "offset": 15,
          "length": 3
        }
      ],
      "wikipediaLanguage": "",
      "wikipediaId": "",
      "wikipediaUrl": "",
      "bingId": "",
      "type": "DateTime",
      "subType": "DateRange"
    }
  ],
  "id": "input125-zh.txt"
}