{
  "entities": [
    {
      "name": "Mohammad bin Salman",
      "matches": [
        {
          "wikipediaScore": 0.18568099556604567,
          "entityTypeScore": 0.8,
          "text": "Mohammad",
          "offset": 0,
          "length": 8
        },
        {
          "wikipediaScore": 0,
          "entityTypeScore": 0.9999504089355469,
          "text": "Mohammad bin Salman",
          "offset": 0,
          "length": 19
        }
      ],
      "wikipediaLanguage": "en",
      "wikipediaId": "Mohammad bin Salman",
      "wikipediaUrl": "https://en.wikipedia.org/wiki/Mohammad_bin_Salman",
      "bingId": "485957f4-5f7f-4ecb-8ef8-627eb3f0b28a",
      "type": "Person",
      "subType": ""
    },
    {
      "name": "Salman of Saudi Arabia",
      "matches": [
        {
          "wikipediaScore": 0.23804526701604667,
          "entityTypeScore": 0.8,
          "text": "Salman",
          "offset": 13,
          "length": 6
        }
      ],
      "wikipediaLanguage": "en",
      "wikipediaId": "Salman of Saudi Arabia",
      "wikipediaUrl": "https://en.wikipedia.org/wiki/Salman_of_Saudi_Arabia",
      "bingId": "3b5a69d0-c16b-2cb2-fb8c-65e7c9a377e6",
      "type": "Person",
      "subType": ""
    }
  ],
  "id": "input84-en.txt"
}