{
  "entities": [
    {
      "name": "4 feet",
      "matches": [
        {
          "wikipediaScore": 0,
          "entityTypeScore": 0.8,
          "text": "4 feet",
          "offset": 0,
          "length": 6
        }
      ],
      "wikipediaLanguage": "",
      "wikipediaId": "",
      "wikipediaUrl": "",
      "bingId": "",
      "type": "Quantity",
      "subType": "Dimension"
    }
  ],
  "id": "input49-en.txt"
}