{
  "entities": [
    {
      "name": "Wayne Rooney",
      "matches": [
        {
          "wikipediaScore": 0.3379110586351668,
          "entityTypeScore": 0.9961469769477844,
          "text": "Rooney",
          "offset": 0,
          "length": 6
        }
      ],
      "wikipediaLanguage": "en",
      "wikipediaId": "Wayne Rooney",
      "wikipediaUrl": "https://en.wikipedia.org/wiki/Wayne_Rooney",
      "bingId": "25b677ac-2d2a-6eac-f7f8-5046eee1b4f1",
      "type": "Person",
      "subType": ""
    },
    {
      "name": "United",
      "matches": [
        {
          "wikipediaScore": 0,
          "entityTypeScore": 0.6221755146980286,
          "text": "United",
          "offset": 35,
          "length": 6
        }
      ],
      "wikipediaLanguage": "",
      "wikipediaId": "",
      "wikipediaUrl": "",
      "bingId": "",
      "type": "Location",
      "subType": ""
    },
    {
      "name": "3",
      "matches": [
        {
          "wikipediaScore": 0,
          "entityTypeScore": 0.8,
          "text": "3",
          "offset": 44,
          "length": 1
        }
      ],
      "wikipediaLanguage": "",
      "wikipediaId": "",
      "wikipediaUrl": "",
      "bingId": "",
      "type": "Quantity",
      "subType": "Number"
    },
    {
      "name": "1",
      "matches": [
        {
          "wikipediaScore": 0,
          "entityTypeScore": 0.8,
          "text": "1",
          "offset": 46,
          "length": 1
        }
      ],
      "wikipediaLanguage": "",
      "wikipediaId": "",
      "wikipediaUrl": "",
      "bingId": "",
      "type": "Quantity",
      "subType": "Number"
    },
    {
      "name": "Arsenal F.C.",
      "matches": [
        {
          "wikipediaScore": 0.25860361420147915,
          "entityTypeScore": 0.999755859375,
          "text": "Arsenal",
          "offset": 57,
          "length": 7
        }
      ],
      "wikipediaLanguage": "en",
      "wikipediaId": "Arsenal F.C.",
      "wikipediaUrl": "https://en.wikipedia.org/wiki/Arsenal_F.C.",
      "bingId": "8b3b4135-cb8e-ded8-10ce-8f130d64b863",
      "type": "Organization",
      "subType": ""
    }
  ],
  "id": "input15-en.txt"
}