{
  "entities": [
    {
      "name": "باراك أوباما",
      "matches": [
        {
          "wikipediaScore": 0,
          "entityTypeScore": 0.7108820423391777,
          "text": "باراك أوباما",
          "offset": 5,
          "length": 12
        }
      ],
      "wikipediaLanguage": "",
      "wikipediaId": "",
      "wikipediaUrl": "",
      "bingId": "",
      "type": "Person",
      "subType": ""
    }
  ],
  "id": "input143-ar.txt"
}