{
  "text": "I saw Vlad Putin the other day",
  "language": "en",
  "entities": {
    "date": [
      "other day"
    ],
    "keyword": [
      "Vlad Putin",
      "Putin",
      "Vlad"
    ],
    "person": [
      "Vlad Putin"
    ]
  }
}