{
  "text": "Barack Obama and Donald Trump are both US Presidents",
  "language": "en",
  "entities": {
    "keyword": [
      "Obama",
      "Trump",
      "Barack",
      "Donald"
    ],
    "organization": [
      "US Presidents"
    ],
    "person": [
      "Barack Obama",
      "Donald Trump"
    ]
  }
}