{
  "text": "This resonates with me. I've spent 1 year+ in each of C, C++, C#,\n\tPHP, Java, Python, and JS. There are obvious benefits to taking advantage\n\tof a platform's strengths, but the \"plain\" code has merits too. Easier to\n\treason about, often more maintainable, faster to ramp up new team members,\n\tetc.",
  "language": "en",
  "entities": {
    "keyword": [
      "obvious",
      "maintainable",
      "benefits",
      "merits",
      "code",
      "advantage",
      "plain",
      "platform",
      "strengths",
      "ramp",
      "Python",
      "team",
      "Java",
      "year",
      "members"
    ],
    "organization": [
      "JS"
    ]
  }
}