{
  "text": "President Trump got off to an underwhelming start at the U.N. General Assembly \n\ton Monday morning. He sat on a panel flanked by various\n\tdiplomats, including Ambassador Nikki Haley, who introduced him before he\n\tdelivered some brief remarks, and it would be charitable to describe the\n\twelcoming applause as “light.”\n\n\tThen came the clunker. Haley had told the assembled that the new American\n\tpresident sees “tremendous potential” in the U.N.—a cold enough slap at an\n\torganization that’s been around for 72 years and, for all its flaws, has\n\taccomplished quite a bit. But Trump followed that dig with a face-splash of\n\tice water, saying that the real “potential” he saw was “right across the\n\tstreet”—a reference to one of his East Side real-estate projects—and noted\n\tthat the U.N.’s presence was what gave it such potential.",
  "language": "en",
  "entities": {
    "organization": [
      "U.N. General Assembly",
      "U.N",
      "Trump"
    ],
    "location": [
      "East Side"
    ],
    "url": [
      "U.N.—a",
      "U.N.’s"
    ],
    "keyword": [
      "President Trump",
      "U.N.",
      "potential",
      "Monday morning",
      "Haley",
      "Trump",
      "President",
      "Ambassador",
      "Monday",
      "diplomats",
      "Nikki",
      "morning",
      "panel",
      "Assembly",
      "Side",
      "East",
      "reference",
      "face-splash",
      "water",
      "remarks"
    ],
    "date": [
      "72 years"
    ],
    "person": [
      "Trump",
      "Nikki Haley",
      "Haley"
    ]
  }
}