{
  "text": "Barack Obama kommt aus Chicago und wurde im November geboren",
  "language": "de",
  "entities": {
    "date": [
      "November"
    ],
    "location": [
      "Chicago"
    ],
    "keyword": [
      "Chicago",
      "wurde",
      "kommt",
      "November",
      "Obama",
      "geboren",
      "Barack"
    ],
    "person": [
      "Barack Obama"
    ]
  }
}