{
  "text": "RT @FoxNews: .@LindseyGrahamSC: \"President Trump has\n\tdone more in 500 days to deal with North Korea than every president in the\n\tlast 30 years.\"",
  "language": "en",
  "entities": {
    "organization": [
      "RT @FoxNews"
    ],
    "location": [
      "North Korea"
    ],
    "keyword": [
      "President",
      "Trump",
      "days",
      "North",
      "Korea",
      "@LindseyGrahamSC",
      "@FoxNews",
      "years"
    ],
    "date": [
      "500 days",
      "last 30 years"
    ],
    "person": [
      "Trump"
    ]
  }
}