{
  "text": "Musk says Model S doing well.",
  "language": "en",
  "entities": {
    "location": [
      "Musk"
    ],
    "keyword": [
      "Musk says Model",
      "Musk",
      "Model"
    ],
    "person": [
      "Model S"
    ]
  }
}