{
  "text": "Montreal Canadiens play the St. Louis Blues tonight",
  "language": "en",
  "entities": {
    "location": [
      "St. Louis Blues"
    ],
    "keyword": [
      "Montreal",
      "Louis",
      "tonight",
      "Blues"
    ],
    "organization": [
      "Montreal Canadiens"
    ]
  }
}