{
  "text": "hard_test.go:10: \n    hard_test.go:27: \n    hard_test.go:35: \n    hard_test.go:43: \n    hard_test.go:52: \n    hard_test.go:62: \n    hard_test.go:77: \n    hashtag_test.go:8: \n    hashtag_test.go:14: \nNigeria",
  "language": "it",
  "entities": {
    "location": [
      "hard_test.go:35"
    ],
    "keyword": [
      "hashtag_test",
      "Nigeria",
      "hard_test"
    ],
    "url": [
      "test.go:10",
      "test.go:27",
      "test.go:35",
      "test.go:43",
      "test.go:52",
      "test.go:62",
      "test.go:77",
      "test.go:8",
      "test.go:14"
    ]
  }
}