{
  "text": "A comparison image of a diffusion-weighted image (DWI) and a perfusion-weighted image (PWI)",
  "language": "en",
  "entities": {
    "keyword": [
      "image",
      "diffusion-weighted",
      "perfusion-weighted",
      "comparison"
    ],
    "organization": [
      "PWI"
    ]
  }
}