{
  "text": "I took the train from Jackson Heights to Brooklyn",
  "language": "en",
  "entities": {
    "location": [
      "Jackson Heights",
      "Brooklyn"
    ],
    "keyword": [
      "Brooklyn",
      "Jackson",
      "train",
      "Heights"
    ]
  }
}