{
  "text": "n0ns3ns3 said:                you will also cut\n\tdown the performance by going 750evo.Your choice of SSD with good\n\tperformance and reasonable price is:1. Smasung 850     EVO2. SanDisk X4003.\n\tCrucial MX300BTW, there is no advantage of using M.2 version over 2.5\"\n\tversion for those SSDs beside smaller form factor and lack of cables.as for\n\tthe support, here is the     quote from the specs\n\thttps://www.asus.com/Motherboards/Z170-E/specifications/:1 x M.2 x4 Socket\n\t3, with M Key, type 2242/2260/2280/22110 storage devices support (both SATA\n\tu0026amp; PCIE mode)*1    that means you can use both SATA and NVMe M.2\n\tdrives in this slot.     Ahhhh, I was under the impression the M.2's are\n\tquicker than the 2.5\" SSD's, so that's why I was leaning to one. But\n\tas they're the same price, I might as well go for the M.2 for\n\tconvenience.nRegarding the specs, that's exactly what I read and was why\n\tI was under the impression that the Samsung 850 EVO M.2     would work.\n\tTherefore would you advise that it would be best to stick with the Samsung\n\t850 EVO M.2 as mentioned?nCheers,  Karln",
  "language": "en",
  "entities": {
    "keyword": [
      "price",
      "specs",
      "SATA",
      "performance",
      "support",
      "quote",
      "impression",
      "cables.as",
      "https://www.asus.com/Motherboards/Z170-E/specifications/:1",
      "Socket",
      "lack",
      "EVO2",
      "type",
      "SanDisk",
      "storage",
      "X4003",
      "reasonable",
      "factor",
      "version",
      "devices"
    ],
    "product": [
      "M.2"
    ],
    "url": [
      "750evo.Your",
      "cables.as",
      "https://www.asus.com/Motherboards/Z170-E/specifications/:1",
      "convenience.nRegarding"
    ],
    "organization": [
      "SSD",
      "SanDisk X4003",
      "SATA",
      "Samsung",
      "Karln"
    ]
  }
}