{
  "text": "My mother and father live in a house.",
  "language": "en",
  "entities": {
    "keyword": [
      "mother and father live in a house",
      "mother",
      "father",
      "house"
    ]
  }
}