{
  "text": "Bloor-Yonge station, teeming with commuters since it became Toronto’s main subway intersection in 1966, could get a new platform and other changes to reduce the sometimes dangerous overcrowding.\n\nEasily the busiest of the TTC’s 75 subway stations with more than 200,000 passengers flowing through daily, Bloor-Yonge has shot up a priority list to the point where city staff recommend $500 million in precious federal transit funding be aimed at the major expansion.\nA city spokesperson said Bloor-Yonge station is \"at a critical point where it needs to be expanded\" to handle the crowds of riders.\nA city spokesperson said Bloor-Yonge station is \"at a critical point where it needs to be expanded\" to handle the crowds of riders.  (Andrew Francis Wallace / Toronto Star)\n\nTotal cost, including city and provincial funding, is pegged at $1.1 billion.\n\nIf approved by city council and other levels of government, a new eastbound platform will be built on the lower level near where the south wall is now, giving Line 2 passengers heading up to a Yonge train an additional set of stairs, escalators and elevators.\n\nHaving two separate platforms, rather the current narrow island with tracks on both sides, should neutralize a pinch point at the station’s north end that jams when eastbound and westbound trains arrive around the same time. Smaller improvements are planned for the Line 1 Yonge line platform.\n\nA city staff report released Wednesday says planning and construction on the complex project needs to be fast-tracked because computer modelling shows extra capacity is badly needed before 2028.",
  "language": "en",
  "entities": {
    "organization": [
      "TTC",
      "Bloor-Yonge",
      "Toronto Star",
      "Yonge"
    ],
    "location": [
      "Toronto"
    ],
    "keyword": [
      "point where city staff",
      "point at the station",
      "city",
      "Yonge train",
      "platform",
      "fast-tracked because computer",
      "station",
      "point",
      "Toronto",
      "train",
      "staff",
      "Yonge",
      "computer",
      "fast-tracked",
      "eastbound",
      "passengers",
      "project",
      "Bloor-Yonge",
      "funding",
      "complex"
    ],
    "date": [
      "1966",
      "daily",
      "Wednesday",
      "before 2028"
    ],
    "money": [
      "$500 million",
      "$1.1 billion"
    ],
    "person": [
      "Easily",
      "Andrew Francis Wallace",
      "Having"
    ]
  }
}