{
  "text": "Get a $50 Visa reward card",
  "language": "en",
  "entities": {
    "keyword": [
      "Visa reward card",
      "reward",
      "card",
      "Visa"
    ],
    "money": [
      "50"
    ],
    "organization": [
      "Visa"
    ]
  }
}