{
  "text": "I took an Uber to the airport yesterday and then took a Lyft to my hotel",
  "language": "en",
  "entities": {
    "date": [
      "yesterday"
    ],
    "keyword": [
      "Lyft",
      "yesterday",
      "airport",
      "Uber",
      "hotel"
    ],
    "organization": [
      "Uber"
    ]
  }
}