{
  "text": "Mohammad bin Salman",
  "language": "en",
  "entities": {
    "keyword": [
      "Mohammad bin Salman",
      "Mohammad",
      "Salman"
    ],
    "person": [
      "Mohammad bin Salman"
    ]
  }
}