{
  "text": "May is a good time to go to the store.",
  "language": "en",
  "entities": {
    "date": [
      "May"
    ],
    "keyword": [
      "good time to go to the store",
      "store",
      "time",
      "good"
    ]
  }
}