{
  "text": "A scalable computing system for managing annotations is capable of\n\thandling requests for annotations to millions of documents a day. The\n\tcomputing system consists of multiple tiers of servers. A tier I server\n\tindicates whether there are annotations associated with a content source. A\n\ttier II server indexes the annotations. A tier III server stores the body\n\tof the annotation.",
  "language": "en",
  "entities": {
    "keyword": [
      "tier II server",
      "annotations",
      "system",
      "tiers",
      "computing",
      "servers",
      "millions",
      "documents",
      "capable",
      "requests",
      "multiple",
      "scalable",
      "source",
      "stores",
      "indexes",
      "content",
      "body"
    ]
  }
}