{
  "text": "I've been putting off buying a new laptop over concerns about the\n\tkeyboard and overall fragileness. I was debating ditching Mac for the first\n\ttime in like 15years. This makes me more likely to choose Mac since they\n\tare admitting it's a problem and they'll fix it out of warranty without\n\tquestion.\n\n\tMy big concern was getting the extended warranty and then having it break just\n\toutside the warranty period leaving me stuck with a big repair bill.\n\n\tPersonally I still think they should make a 32Gig Memory MacBook Pro, that's\n\tbuilt like a tank, maybe it weighs 5+ pounds, who cares, people who want a\n\tlight fragile comp can just get the non-Pro model.\n\n\tedit: updated \"4 pounds\" to \"5+ pounds\" since apparently it's already 4.5\n\tpounds",
  "language": "en",
  "entities": {
    "keyword": [
      "concern was getting the extended warranty and then having it break just outside the warranty",
      "fragileness",
      "pounds",
      "concerns",
      "warranty",
      "MacBook",
      "people",
      "tank",
      "Memory",
      "32Gig",
      "time",
      "light",
      "bill",
      "15years",
      "comp",
      "problem",
      "keyboard",
      "repair",
      "period",
      "non-Pro"
    ],
    "money": [
      "5+ pounds"
    ],
    "person": [
      "Mac"
    ]
  }
}