{
  "text": "Walmart stores have big lines and people are not happy",
  "language": "en",
  "entities": {
    "keyword": [
      "people",
      "stores",
      "lines",
      "Walmart",
      "happy"
    ],
    "organization": [
      "Walmart"
    ]
  }
}