{
  "text": "Ambassador Nikki Haley",
  "language": "en",
  "entities": {
    "keyword": [
      "Ambassador Nikki Haley",
      "Ambassador",
      "Nikki",
      "Haley"
    ],
    "person": [
      "Nikki Haley"
    ]
  }
}