{
  "text": "If you were drawing up the kind of player the Raptors\n\twould benefit the most from in this buyout season for NBA veterans, Jeremy\n\tLin would fit the bill perfectly. He’s a veteran backcourt player who is a\n\tsolid three-point shooter, an effective pick-and-roll player with no sense\n\tof entitlement for shots and playing time and role.",
  "language": "en",
  "entities": {
    "date": [
      "this buyout season"
    ],
    "keyword": [
      "player who is a solid three-point",
      "player",
      "season for NBA veterans",
      "entitlement",
      "sense",
      "veterans",
      "shots",
      "pick-and-roll",
      "effective",
      "three-point",
      "solid",
      "season",
      "backcourt",
      "time",
      "shooter",
      "buyout",
      "bill",
      "Jeremy",
      "role",
      "kind"
    ],
    "organization": [
      "NBA"
    ],
    "person": [
      "Jeremy\n\tLin"
    ]
  }
}