{
  "text": "Muon is a modern low-level programming language, inspired by C, C#, Go, Rust and Python.",
  "language": "en",
  "entities": {
    "keyword": [
      "programming",
      "low-level",
      "language",
      "Rust",
      "modern",
      "Python",
      "Muon"
    ],
    "organization": [
      "Muon",
      "C, C#, Go, Rust and Python"
    ]
  }
}