{
  "text": "Meltwater has acquired DataSift to double down on social media analytics",
  "language": "en",
  "entities": {
    "keyword": [
      "DataSift",
      "social",
      "media",
      "Meltwater",
      "analytics"
    ],
    "organization": [
      "DataSift"
    ],
    "person": [
      "Meltwater"
    ]
  }
}