{
  "text": "Multiple endocrine neoplasia type 1",
  "language": "en",
  "entities": {
    "keyword": [
      "neoplasia",
      "endocrine",
      "Multiple",
      "type"
    ],
    "organization": [
      "Multiple"
    ]
  }
}