{
    "Trump": "PERSON",
    "the U.N. General Assembly": "ORG",
    "Monday morning": "TIME",
    "Nikki Haley": "PERSON",
    "Haley": "PERSON",
    "American": "NORP",
    "U.N.—a": "CARDINAL",
    "72 years": "DATE",
    "one": "CARDINAL",
    "East Side": "LOC",
    "U.N.": "ORG"
}