{
    "n0ns3ns3": "PERSON",
    "750evo": "DATE",
    "SSD": "ORG",
    "Smasung 850     EVO2": "LAW",
    "M.2": "ORG",
    "2.5": "CARDINAL",
    "M.2 x4 Socket": "PERSON",
    "3": "CARDINAL",
    "M Key": "PERSON",
    "2242/2260/2280/22110": "CARDINAL",
    "SATA": "ORG",
    "PCIE mode)*1": "ORG",
    "NVMe M.2\n\t": "ORG",
    "Samsung": "ORG",
    "850": "CARDINAL",
    "EVO M.2": "ORG",
    "mentioned?nCheers": "CARDINAL"
}