{
    "编者按：1989年春夏之交，中国爆发了一场历时近两月，波及中国各阶层和几乎所有大中城市的民主抗议运动。八九民运以当局在6月4日凌晨以坦克机枪镇压而结束。六四30周年之际BBC中文网特别推出这套10集系列，翔实记录六四事件始末，并对爆发八九民运的社会背景，学生，知识分子，民众和回归前的香港扮演的角色以及八九民运的政治遗产做全景分析": "MISC",
    "” 李鹏宣布，首都北京从1989年5月20日起实施戒严。在李鹏大会发言的同时，从全国各地调集的野战军正在向北京开进，准备执行戒严": "PER",
    "戒严和派军队进入北京城的命令，不但进一步激化了政府与大学生的对立，也激怒了北京市民。": "MISC",
    "： “": "MISC",
    "小-平-你-好": "MISC",
    "庆祝建国35周年首都群众游行检阅时，北京大学的游行队伍在行进到天安门城楼下时，突然展开一条“小平您好”的横幅。城楼上的邓小平看到了，露出微笑。摄像机扑捉到的这个画面，成为老百姓拥护邓小平搞改革开放的历史定格": "MISC",
    "” “人民解放军，站到人民一边来！”": "PER",
    "戒严令，也把一场学生运动进一步推向了全民全社会。": "ORG",
    "“": "PER",
    "戒严的军队被堵在了城外，城里则到处是游行的人流。戒严令成了一张废纸": "MISC",
    "中央高层领导没有人出来讲话，没有人理会广场上的学生，也不再有军警阻拦游行，甚至连交警都不见了。维持长安街上交通秩序的责任由学生和市民承担了起来": "MISC",
    "“六四”导赏团": "PER",
    "寻找1989年香港支援民运的踪迹 Facebook“误禁”香港纪念六四头像相框": "MISC",
    "众多的媒体，包括非常著名的国际媒体，像CNN，BBC等，都派了很重的兵在广场上。广场变成了很重要的一个舞台，站在这个舞台上，许多学生领袖可能不由自主地想要‘表演’。那么，把自己的定位越激进，在观众中的效果就越好。如果喊‘撤退’，没人理你。如果喊‘我要自焚’，记者马上拥上来": "MISC",
    "撤不撤出广场成了学运领导圈里争论的焦点。广场上300多个北京和全国各地高校的自治会代表们每天都要开会争论一番，但结果却每天都一样，主张坚守广场的一派占了上风": "MISC",
    "：": "MISC",
    "” 就在这个关键时刻，一大批海外援助的到来，给坚守广场的学生的士气打了一计强心针": "PER",
    "六四镇压后多次被中国政府投入监狱，2017年7月在监狱医院病逝的诺贝尔和平奖获得者刘晓波，1989年时是北京师范大学中文系教师，他召集了高新、周舵，还有当时红遍中国大江南北、人正在北京的台湾歌星侯德建，即后来被称作的“四君子”，6月2日来到天安门广场开始绝食": "MISC"
}