{
    "Washroom Rituals": "ORG",
    "1": "CARDINAL",
    "10": "CARDINAL",
    "today": "DATE",
    "yester-year's": "DATE",
    "Chelsea": "ORG",
    "John Terry": "PERSON",
    "one": "CARDINAL",
    "2": "CARDINAL",
    "my own playing days": "DATE",
    "Playoff Beard": "PERSON",
    "3": "CARDINAL",
    "the United States": "GPE",
    "Major League Soccer's": "ORG",
    "Houston Dynamo": "ORG",
    "LA Galaxy": "ORG",
    "Sheffield United": "ORG",
    "FA Cup": "EVENT",
    "1993": "DATE",
    "The Golden Egg 4": "FAC",
    "Bald": "PERSON",
    "French": "NORP",
    "Fabian Barthez": "PERSON",
    "the 1998 World Cup": "EVENT",
    "5": "CARDINAL",
    "One": "CARDINAL",
    "6": "CARDINAL",
    "England": "GPE",
    "Bobby Moore": "PERSON",
    "Same Old Soles 8": "PERSON",
    "9": "CARDINAL",
    "Waste Your Goals 10 of 10": "WORK_OF_ART",
    "Tottenham": "GPE",
    "Gary Lineker": "PERSON",
    "0": "CARDINAL",
    "Major League Baseball's": "ORG",
    "the National Football League": "ORG",
    "hundreds": "CARDINAL",
    "World Football": "ORG",
    "Bleacher Report": "PERSON"
}