{
    "70 cents": "MONEY",
    "1 percent": "PERCENT",
    "74.14": "MONEY",
    "12:41 p.m. EDT": "TIME",
    "U.S.": "GPE",
    "1.06": "MONEY",
    "69.58": "MONEY",
    "1.6 percent": "PERCENT",
    "6.1 million barrels": "QUANTITY",
    "the week to July 20": "DATE",
    "U.S. Energy Information Administration": "ORG",
    "404.9 million barrels": "QUANTITY",
    "February 2015": "DATE",
    "2.3\n\tmillion barrels": "QUANTITY",
    "Oklahoma": "GPE",
    "1.1 million barrels": "QUANTITY",
    "EIA": "ORG",
    "November 2014": "DATE",
    "Phil Flynn": "PERSON",
    "Price Futures Group": "ORG",
    "Chicago": "GPE"
}