{
    "Michael Flynn's": "PERSON",
    "U.S.": "GPE",
    "House": "ORG",
    "Senate": "ORG",
    "Robert Kelner": "PERSON",
    "Flynn": "PERSON",
    "Donald Trump": "PERSON",
    "first": "ORDINAL",
    "Russian": "NORP",
    "Russia": "GPE",
    "FBI": "ORG",
    "Propaganda": "PERSON",
    "Earlier in the day": "TIME",
    "Democrat": "NORP",
    "Thursday": "DATE",
    "2016": "DATE",
    "Republican": "NORP",
    "Mark Warner": "PERSON",
    "Warner": "ORG",
    "Trump": "PERSON",
    "Ron Wyden": "PERSON",
    "Oregon": "GPE",
    "two": "CARDINAL",
    "American": "NORP",
    "Clint Watts": "PERSON",
    "the Foreign Policy Research Institute Program": "ORG",
    "National Security": "ORG",
    "Russians": "NORP",
    "Kremlin": "ORG",
    "the past three months": "DATE",
    "Senate Intelligence Committee": "ORG",
    "Richard Burr": "PERSON",
    "Aaron P. Bernstein": "PERSON",
    "Reuters": "ORG",
    "afternoon": "TIME",
    "White House": "ORG",
    "Sean Spicer": "PERSON",
    "Democratic": "NORP",
    "House of Representatives": "ORG",
    "Later Thursday": "DATE",
    "Devin Nunes": "PERSON",
    "Adam Schiff": "PERSON",
    "the White House's": "ORG",
    "Putin Earlier": "PERSON",
    "Putin": "PERSON",
    "Arctic": "LOC",
    "Europe": "LOC",
    "North Carolina": "GPE",
    "Wednesday": "DATE",
    "Burr": "PERSON"
}