{
  "Entities": [
    {
      "BeginOffset": 39,
      "EndOffset": 48,
      "Score": 0.9960969090461731,
      "Text": "Microsoft",
      "Type": "ORGANIZATION"
    },
    {
      "BeginOffset": 50,
      "EndOffset": 54,
      "Score": 0.9478378891944885,
      "Text": "MSFT",
      "Type": "ORGANIZATION"
    },
    {
      "BeginOffset": 57,
      "EndOffset": 63,
      "Score": 0.9831741452217102,
      "Text": "Oracle",
      "Type": "ORGANIZATION"
    },
    {
      "BeginOffset": 66,
      "EndOffset": 70,
      "Score": 0.9930253028869629,
      "Text": "ORCL",
      "Type": "ORGANIZATION"
    },
    {
      "BeginOffset": 77,
      "EndOffset": 80,
      "Score": 0.9869521856307983,
      "Text": "SAP",
      "Type": "ORGANIZATION"
    },
    {
      "BeginOffset": 82,
      "EndOffset": 85,
      "Score": 0.9969496130943298,
      "Text": "SAP",
      "Type": "ORGANIZATION"
    },
    {
      "BeginOffset": 220,
      "EndOffset": 227,
      "Score": 0.9911728501319885,
      "Text": "2 times",
      "Type": "QUANTITY"
    },
    {
      "BeginOffset": 244,
      "EndOffset": 251,
      "Score": 0.7272645831108093,
      "Text": "S\u0026P 500",
      "Type": "ORGANIZATION"
    },
    {
      "BeginOffset": 262,
      "EndOffset": 278,
      "Score": 0.8646570444107056,
      "Text": "end of last year",
      "Type": "DATE"
    }
  ]
}