{
  "Entities": [
    {
      "BeginOffset": 0,
      "EndOffset": 18,
      "Score": 0.9968875050544739,
      "Text": "Montreal Canadiens",
      "Type": "ORGANIZATION"
    },
    {
      "BeginOffset": 28,
      "EndOffset": 43,
      "Score": 0.9399310350418091,
      "Text": "St. Louis Blues",
      "Type": "ORGANIZATION"
    },
    {
      "BeginOffset": 44,
      "EndOffset": 51,
      "Score": 0.8507254719734192,
      "Text": "tonight",
      "Type": "DATE"
    }
  ]
}