{
  "Entities": [
    {
      "BeginOffset": 0,
      "EndOffset": 11,
      "Score": 0.8376342058181763,
      "Text": "@M_Kelleher",
      "Type": "PERSON"
    },
    {
      "BeginOffset": 11,
      "EndOffset": 13,
      "Score": 0.6554633378982544,
      "Text": "94",
      "Type": "QUANTITY"
    },
    {
      "BeginOffset": 58,
      "EndOffset": 72,
      "Score": 0.9615100026130676,
      "Text": "KISS\n\tSTEALING",
      "Type": "PERSON"
    },
    {
      "BeginOffset": 74,
      "EndOffset": 90,
      "Score": 0.949634313583374,
      "Text": "WHEELING DEALING",
      "Type": "PERSON"
    },
    {
      "BeginOffset": 92,
      "EndOffset": 108,
      "Score": 0.9600886106491089,
      "Text": "LIMOUSINE RIDING",
      "Type": "PERSON"
    },
    {
      "BeginOffset": 110,
      "EndOffset": 120,
      "Score": 0.8613753914833069,
      "Text": "JET FLYING",
      "Type": "PERSON"
    }
  ]
}