{
  "Entities": [
    {
      "BeginOffset": 0,
      "EndOffset": 12,
      "Score": 0.9997554421424866,
      "Text": "Phil Jackson",
      "Type": "PERSON"
    },
    {
      "BeginOffset": 30,
      "EndOffset": 48,
      "Score": 0.996901273727417,
      "Text": "Los Angeles Lakers",
      "Type": "ORGANIZATION"
    }
  ]
}