{
  "Entities": [
    {
      "BeginOffset": 4,
      "EndOffset": 22,
      "Score": 0.9727866053581238,
      "Text": "Montreal Canadians",
      "Type": "ORGANIZATION"
    },
    {
      "BeginOffset": 31,
      "EndOffset": 42,
      "Score": 0.6971499919891357,
      "Text": "Stanley Cup",
      "Type": "EVENT"
    }
  ]
}