{
  "Entities": [
    {
      "BeginOffset": 0,
      "EndOffset": 17,
      "Score": 0.9850543141365051,
      "Text": "SYDNEY, Australia",
      "Type": "LOCATION"
    },
    {
      "BeginOffset": 33,
      "EndOffset": 42,
      "Score": 0.9586414098739624,
      "Text": "Australia",
      "Type": "LOCATION"
    },
    {
      "BeginOffset": 124,
      "EndOffset": 129,
      "Score": 0.9973638653755188,
      "Text": "Apple",
      "Type": "ORGANIZATION"
    },
    {
      "BeginOffset": 304,
      "EndOffset": 308,
      "Score": 0.9716326594352722,
      "Text": "2018",
      "Type": "DATE"
    },
    {
      "BeginOffset": 356,
      "EndOffset": 365,
      "Score": 0.9964737296104431,
      "Text": "Australia",
      "Type": "LOCATION"
    },
    {
      "BeginOffset": 402,
      "EndOffset": 407,
      "Score": 0.9920359253883362,
      "Text": "Apple",
      "Type": "ORGANIZATION"
    },
    {
      "BeginOffset": 448,
      "EndOffset": 455,
      "Score": 0.9958394765853882,
      "Text": "iPhones",
      "Type": "COMMERCIAL_ITEM"
    },
    {
      "BeginOffset": 464,
      "EndOffset": 473,
      "Score": 0.9958472847938538,
      "Text": "Australia",
      "Type": "LOCATION"
    },
    {
      "BeginOffset": 525,
      "EndOffset": 538,
      "Score": 0.8840258717536926,
      "Text": "United States",
      "Type": "LOCATION"
    }
  ]
}