{
  "Entities": [
    {
      "BeginOffset": 0,
      "EndOffset": 28,
      "Score": 0.6964464783668518,
      "Text": "Multiple endocrine neoplasia",
      "Type": "OTHER"
    },
    {
      "BeginOffset": 29,
      "EndOffset": 35,
      "Score": 0.7762203216552734,
      "Text": "type 1",
      "Type": "OTHER"
    }
  ]
}