{
  "Entities": [
    {
      "BeginOffset": 0,
      "EndOffset": 5,
      "Score": 0.4876541495323181,
      "Text": "Brent",
      "Type": "PERSON"
    },
    {
      "BeginOffset": 25,
      "EndOffset": 33,
      "Score": 0.9951607584953308,
      "Text": "70 cents",
      "Type": "QUANTITY"
    },
    {
      "BeginOffset": 38,
      "EndOffset": 47,
      "Score": 0.9970493316650391,
      "Text": "1 percent",
      "Type": "QUANTITY"
    },
    {
      "BeginOffset": 52,
      "EndOffset": 58,
      "Score": 0.9876022338867188,
      "Text": "$74.14",
      "Type": "QUANTITY"
    },
    {
      "BeginOffset": 72,
      "EndOffset": 86,
      "Score": 0.9671577215194702,
      "Text": "12:41 p.m. EDT",
      "Type": "DATE"
    },
    {
      "BeginOffset": 88,
      "EndOffset": 96,
      "Score": 0.7391545176506042,
      "Text": "1641 GMT",
      "Type": "DATE"
    },
    {
      "BeginOffset": 100,
      "EndOffset": 104,
      "Score": 0.6870450377464294,
      "Text": "U.S.",
      "Type": "LOCATION"
    },
    {
      "BeginOffset": 105,
      "EndOffset": 128,
      "Score": 0.8720744848251343,
      "Text": "West Texas Intermediate",
      "Type": "ORGANIZATION"
    },
    {
      "BeginOffset": 130,
      "EndOffset": 133,
      "Score": 0.967980146408081,
      "Text": "WTI",
      "Type": "ORGANIZATION"
    },
    {
      "BeginOffset": 147,
      "EndOffset": 152,
      "Score": 0.9885696172714233,
      "Text": "$1.06",
      "Type": "QUANTITY"
    },
    {
      "BeginOffset": 156,
      "EndOffset": 162,
      "Score": 0.9750394225120544,
      "Text": "$69.58",
      "Type": "QUANTITY"
    },
    {
      "BeginOffset": 175,
      "EndOffset": 186,
      "Score": 0.9903038144111633,
      "Text": "1.6 percent",
      "Type": "QUANTITY"
    },
    {
      "BeginOffset": 194,
      "EndOffset": 198,
      "Score": 0.8621237277984619,
      "Text": "U.S.",
      "Type": "LOCATION"
    },
    {
      "BeginOffset": 223,
      "EndOffset": 242,
      "Score": 0.9346497058868408,
      "Text": "6.1 million barrels",
      "Type": "QUANTITY"
    },
    {
      "BeginOffset": 258,
      "EndOffset": 265,
      "Score": 0.9943258762359619,
      "Text": "July 20",
      "Type": "DATE"
    },
    {
      "BeginOffset": 282,
      "EndOffset": 320,
      "Score": 0.984665036201477,
      "Text": "U.S. Energy Information Administration",
      "Type": "ORGANIZATION"
    },
    {
      "BeginOffset": 332,
      "EndOffset": 353,
      "Score": 0.9663462042808533,
      "Text": "404.9 million barrels",
      "Type": "QUANTITY"
    },
    {
      "BeginOffset": 375,
      "EndOffset": 388,
      "Score": 0.998130202293396,
      "Text": "February 2015",
      "Type": "DATE"
    },
    {
      "BeginOffset": 426,
      "EndOffset": 446,
      "Score": 0.953377902507782,
      "Text": "2.3\n\tmillion barrels",
      "Type": "QUANTITY"
    },
    {
      "BeginOffset": 469,
      "EndOffset": 477,
      "Score": 0.9793734550476074,
      "Text": "Oklahoma",
      "Type": "LOCATION"
    },
    {
      "BeginOffset": 501,
      "EndOffset": 520,
      "Score": 0.9755841493606567,
      "Text": "1.1 million barrels",
      "Type": "QUANTITY"
    },
    {
      "BeginOffset": 522,
      "EndOffset": 525,
      "Score": 0.963905930519104,
      "Text": "EIA",
      "Type": "ORGANIZATION"
    },
    {
      "BeginOffset": 551,
      "EndOffset": 564,
      "Score": 0.9983047246932983,
      "Text": "November 2014",
      "Type": "DATE"
    },
    {
      "BeginOffset": 643,
      "EndOffset": 647,
      "Score": 0.9562625885009766,
      "Text": "U.S.",
      "Type": "LOCATION"
    },
    {
      "BeginOffset": 693,
      "EndOffset": 697,
      "Score": 0.8493303656578064,
      "Text": "U.S.",
      "Type": "LOCATION"
    },
    {
      "BeginOffset": 748,
      "EndOffset": 758,
      "Score": 0.9995104074478149,
      "Text": "Phil Flynn",
      "Type": "PERSON"
    },
    {
      "BeginOffset": 771,
      "EndOffset": 790,
      "Score": 0.9915741086006165,
      "Text": "Price Futures Group",
      "Type": "ORGANIZATION"
    },
    {
      "BeginOffset": 795,
      "EndOffset": 802,
      "Score": 0.9992907047271729,
      "Text": "Chicago",
      "Type": "LOCATION"
    }
  ]
}