{
  "Entities": [
    {
      "BeginOffset": 0,
      "EndOffset": 13,
      "Score": 0.9982127547264099,
      "Text": "Michael Flynn",
      "Type": "PERSON"
    },
    {
      "BeginOffset": 41,
      "EndOffset": 45,
      "Score": 0.7480290532112122,
      "Text": "U.S.",
      "Type": "LOCATION"
    },
    {
      "BeginOffset": 99,
      "EndOffset": 104,
      "Score": 0.6815903186798096,
      "Text": "House",
      "Type": "ORGANIZATION"
    },
    {
      "BeginOffset": 109,
      "EndOffset": 115,
      "Score": 0.5952889919281006,
      "Text": "Senate",
      "Type": "ORGANIZATION"
    },
    {
      "BeginOffset": 217,
      "EndOffset": 230,
      "Score": 0.9991418719291687,
      "Text": "Robert Kelner",
      "Type": "PERSON"
    },
    {
      "BeginOffset": 321,
      "EndOffset": 326,
      "Score": 0.9977151155471802,
      "Text": "Flynn",
      "Type": "PERSON"
    },
    {
      "BeginOffset": 353,
      "EndOffset": 375,
      "Score": 0.963146984577179,
      "Text": "President Donald Trump",
      "Type": "PERSON"
    },
    {
      "BeginOffset": 378,
      "EndOffset": 409,
      "Score": 0.8127012252807617,
      "Text": "first national security adviser",
      "Type": "QUANTITY"
    },
    {
      "BeginOffset": 504,
      "EndOffset": 511,
      "Score": 0.8995230197906494,
      "Text": "Russian",
      "Type": "OTHER"
    },
    {
      "BeginOffset": 530,
      "EndOffset": 534,
      "Score": 0.8446567058563232,
      "Text": "U.S.",
      "Type": "LOCATION"
    },
    {
      "BeginOffset": 558,
      "EndOffset": 563,
      "Score": 0.9935811758041382,
      "Text": "Flynn",
      "Type": "PERSON"
    },
    {
      "BeginOffset": 574,
      "EndOffset": 580,
      "Score": 0.5041791796684265,
      "Text": "Russia",
      "Type": "ORGANIZATION"
    },
    {
      "BeginOffset": 610,
      "EndOffset": 613,
      "Score": 0.9991917014122009,
      "Text": "FBI",
      "Type": "ORGANIZATION"
    },
    {
      "BeginOffset": 649,
      "EndOffset": 654,
      "Score": 0.8673740029335022,
      "Text": "House",
      "Type": "ORGANIZATION"
    },
    {
      "BeginOffset": 659,
      "EndOffset": 665,
      "Score": 0.6379600167274475,
      "Text": "Senate",
      "Type": "ORGANIZATION"
    },
    {
      "BeginOffset": 744,
      "EndOffset": 752,
      "Score": 0.9569965600967407,
      "Text": "Democrat",
      "Type": "ORGANIZATION"
    },
    {
      "BeginOffset": 760,
      "EndOffset": 771,
      "Score": 0.7863843441009521,
      "Text": "U.S. Senate",
      "Type": "ORGANIZATION"
    },
    {
      "BeginOffset": 803,
      "EndOffset": 809,
      "Score": 0.6571446657180786,
      "Text": "Russia",
      "Type": "ORGANIZATION"
    },
    {
      "BeginOffset": 813,
      "EndOffset": 821,
      "Score": 0.989443838596344,
      "Text": "Thursday",
      "Type": "DATE"
    },
    {
      "BeginOffset": 898,
      "EndOffset": 929,
      "Score": 0.9946319460868835,
      "Text": "2016 U.S. presidential election",
      "Type": "EVENT"
    },
    {
      "BeginOffset": 991,
      "EndOffset": 1001,
      "Score": 0.9857534170150757,
      "Text": "Republican",
      "Type": "ORGANIZATION"
    },
    {
      "BeginOffset": 1002,
      "EndOffset": 1014,
      "Score": 0.9960850477218628,
      "Text": "Donald Trump",
      "Type": "PERSON"
    },
    {
      "BeginOffset": 1027,
      "EndOffset": 1032,
      "Score": 0.7304245233535767,
      "Text": "Nunes",
      "Type": "PERSON"
    },
    {
      "BeginOffset": 1059,
      "EndOffset": 1065,
      "Score": 0.5206198692321777,
      "Text": "Russia",
      "Type": "ORGANIZATION"
    },
    {
      "BeginOffset": 1072,
      "EndOffset": 1075,
      "Score": 0.9991897940635681,
      "Text": "FBI",
      "Type": "ORGANIZATION"
    },
    {
      "BeginOffset": 1098,
      "EndOffset": 1105,
      "Score": 0.8580846190452576,
      "Text": "Russian",
      "Type": "OTHER"
    },
    {
      "BeginOffset": 1168,
      "EndOffset": 1187,
      "Score": 0.8772755861282349,
      "Text": "Senator Mark Warner",
      "Type": "PERSON"
    },
    {
      "BeginOffset": 1249,
      "EndOffset": 1256,
      "Score": 0.7967994213104248,
      "Text": "Russian",
      "Type": "OTHER"
    },
    {
      "BeginOffset": 1397,
      "EndOffset": 1403,
      "Score": 0.8928484916687012,
      "Text": "Warner",
      "Type": "PERSON"
    },
    {
      "BeginOffset": 1418,
      "EndOffset": 1423,
      "Score": 0.9990777969360352,
      "Text": "Trump",
      "Type": "PERSON"
    },
    {
      "BeginOffset": 1435,
      "EndOffset": 1442,
      "Score": 0.8167037963867188,
      "Text": "Russian",
      "Type": "OTHER"
    },
    {
      "BeginOffset": 1654,
      "EndOffset": 1660,
      "Score": 0.549456000328064,
      "Text": "Russia",
      "Type": "LOCATION"
    },
    {
      "BeginOffset": 1691,
      "EndOffset": 1722,
      "Score": 0.9880263805389404,
      "Text": "2016 U.S. presidential election",
      "Type": "EVENT"
    },
    {
      "BeginOffset": 1724,
      "EndOffset": 1741,
      "Score": 0.9272672533988953,
      "Text": "Senator Ron Wyden",
      "Type": "PERSON"
    },
    {
      "BeginOffset": 1794,
      "EndOffset": 1800,
      "Score": 0.8084818720817566,
      "Text": "Russia",
      "Type": "LOCATION"
    },
    {
      "BeginOffset": 1806,
      "EndOffset": 1821,
      "Score": 0.780177116394043,
      "Text": "Oregon Democrat",
      "Type": "ORGANIZATION"
    },
    {
      "BeginOffset": 1893,
      "EndOffset": 1900,
      "Score": 0.5572897791862488,
      "Text": "Russian",
      "Type": "OTHER"
    },
    {
      "BeginOffset": 1934,
      "EndOffset": 1937,
      "Score": 0.37587323784828186,
      "Text": "two",
      "Type": "QUANTITY"
    },
    {
      "BeginOffset": 1949,
      "EndOffset": 1957,
      "Score": 0.8410664796829224,
      "Text": "American",
      "Type": "OTHER"
    },
    {
      "BeginOffset": 1972,
      "EndOffset": 1983,
      "Score": 0.9882761240005493,
      "Text": "Clint Watts",
      "Type": "PERSON"
    },
    {
      "BeginOffset": 1994,
      "EndOffset": 2027,
      "Score": 0.7231931090354919,
      "Text": "Foreign Policy Research Institute",
      "Type": "ORGANIZATION"
    },
    {
      "BeginOffset": 2039,
      "EndOffset": 2056,
      "Score": 0.7543190121650696,
      "Text": "National Security",
      "Type": "ORGANIZATION"
    },
    {
      "BeginOffset": 2134,
      "EndOffset": 2142,
      "Score": 0.6069573760032654,
      "Text": "Russians",
      "Type": "OTHER"
    },
    {
      "BeginOffset": 2174,
      "EndOffset": 2181,
      "Score": 0.43904680013656616,
      "Text": "Kremlin",
      "Type": "ORGANIZATION"
    },
    {
      "BeginOffset": 2232,
      "EndOffset": 2249,
      "Score": 0.8649182319641113,
      "Text": "past three months",
      "Type": "DATE"
    },
    {
      "BeginOffset": 2264,
      "EndOffset": 2270,
      "Score": 0.9816898107528687,
      "Text": "Russia",
      "Type": "LOCATION"
    },
    {
      "BeginOffset": 2306,
      "EndOffset": 2309,
      "Score": 0.5880438685417175,
      "Text": "USA",
      "Type": "LOCATION"
    },
    {
      "BeginOffset": 2310,
      "EndOffset": 2315,
      "Score": 0.8218216300010681,
      "Text": "TRUMP",
      "Type": "PERSON"
    },
    {
      "BeginOffset": 2316,
      "EndOffset": 2322,
      "Score": 0.7799901366233826,
      "Text": "RUSSIA",
      "Type": "LOCATION"
    },
    {
      "BeginOffset": 2323,
      "EndOffset": 2342,
      "Score": 0.4375595152378082,
      "Text": "Senate Intelligence",
      "Type": "ORGANIZATION"
    },
    {
      "BeginOffset": 2362,
      "EndOffset": 2379,
      "Score": 0.947563648223877,
      "Text": "Sen. Richard Burr",
      "Type": "PERSON"
    },
    {
      "BeginOffset": 2384,
      "EndOffset": 2400,
      "Score": 0.9262797832489014,
      "Text": "Sen. Mark Warner",
      "Type": "PERSON"
    },
    {
      "BeginOffset": 2472,
      "EndOffset": 2479,
      "Score": 0.8281428813934326,
      "Text": "Russian",
      "Type": "OTHER"
    },
    {
      "BeginOffset": 2500,
      "EndOffset": 2518,
      "Score": 0.9144899845123291,
      "Text": "2016 U.S. election",
      "Type": "EVENT"
    },
    {
      "BeginOffset": 2521,
      "EndOffset": 2539,
      "Score": 0.9908955693244934,
      "Text": "Aaron P. Bernstein",
      "Type": "PERSON"
    },
    {
      "BeginOffset": 2540,
      "EndOffset": 2547,
      "Score": 0.9632329344749451,
      "Text": "Reuters",
      "Type": "ORGANIZATION"
    },
    {
      "BeginOffset": 2584,
      "EndOffset": 2602,
      "Score": 0.9826775193214417,
      "Text": "Thursday afternoon",
      "Type": "DATE"
    },
    {
      "BeginOffset": 2604,
      "EndOffset": 2615,
      "Score": 0.9823873043060303,
      "Text": "White House",
      "Type": "ORGANIZATION"
    },
    {
      "BeginOffset": 2629,
      "EndOffset": 2640,
      "Score": 0.999932050704956,
      "Text": "Sean Spicer",
      "Type": "PERSON"
    },
    {
      "BeginOffset": 2657,
      "EndOffset": 2667,
      "Score": 0.9857887625694275,
      "Text": "Republican",
      "Type": "ORGANIZATION"
    },
    {
      "BeginOffset": 2672,
      "EndOffset": 2682,
      "Score": 0.9878323078155518,
      "Text": "Democratic",
      "Type": "ORGANIZATION"
    },
    {
      "BeginOffset": 2698,
      "EndOffset": 2704,
      "Score": 0.9283290505409241,
      "Text": "Senate",
      "Type": "ORGANIZATION"
    },
    {
      "BeginOffset": 2709,
      "EndOffset": 2733,
      "Score": 0.9953191876411438,
      "Text": "House of Representatives",
      "Type": "ORGANIZATION"
    },
    {
      "BeginOffset": 2812,
      "EndOffset": 2818,
      "Score": 0.6344239711761475,
      "Text": "Russia",
      "Type": "ORGANIZATION"
    },
    {
      "BeginOffset": 2849,
      "EndOffset": 2875,
      "Score": 0.896395206451416,
      "Text": "U.S. presidential election",
      "Type": "EVENT"
    },
    {
      "BeginOffset": 3046,
      "EndOffset": 3052,
      "Score": 0.9960163235664368,
      "Text": "Spicer",
      "Type": "PERSON"
    },
    {
      "BeginOffset": 3202,
      "EndOffset": 3212,
      "Score": 0.9441373944282532,
      "Text": "Republican",
      "Type": "ORGANIZATION"
    },
    {
      "BeginOffset": 3224,
      "EndOffset": 3234,
      "Score": 0.9265438914299011,
      "Text": "Democratic",
      "Type": "ORGANIZATION"
    },
    {
      "BeginOffset": 3258,
      "EndOffset": 3264,
      "Score": 0.8679207563400269,
      "Text": "Senate",
      "Type": "ORGANIZATION"
    },
    {
      "BeginOffset": 3269,
      "EndOffset": 3298,
      "Score": 0.8510420322418213,
      "Text": "House intelligence committees",
      "Type": "ORGANIZATION"
    },
    {
      "BeginOffset": 3300,
      "EndOffset": 3314,
      "Score": 0.8077684640884399,
      "Text": "Later Thursday",
      "Type": "DATE"
    },
    {
      "BeginOffset": 3324,
      "EndOffset": 3332,
      "Score": 0.9383960962295532,
      "Text": "Democrat",
      "Type": "ORGANIZATION"
    },
    {
      "BeginOffset": 3340,
      "EndOffset": 3368,
      "Score": 0.77755206823349,
      "Text": "House intelligence committee",
      "Type": "ORGANIZATION"
    },
    {
      "BeginOffset": 3474,
      "EndOffset": 3484,
      "Score": 0.9188931584358215,
      "Text": "Republican",
      "Type": "ORGANIZATION"
    },
    {
      "BeginOffset": 3485,
      "EndOffset": 3496,
      "Score": 0.9980772733688354,
      "Text": "Devin Nunes",
      "Type": "PERSON"
    },
    {
      "BeginOffset": 3537,
      "EndOffset": 3548,
      "Score": 0.9994962811470032,
      "Text": "Adam Schiff",
      "Type": "PERSON"
    },
    {
      "BeginOffset": 3558,
      "EndOffset": 3569,
      "Score": 0.9801724553108215,
      "Text": "White House",
      "Type": "ORGANIZATION"
    },
    {
      "BeginOffset": 3639,
      "EndOffset": 3650,
      "Score": 0.9933323264122009,
      "Text": "White House",
      "Type": "ORGANIZATION"
    },
    {
      "BeginOffset": 3818,
      "EndOffset": 3823,
      "Score": 0.907079815864563,
      "Text": "Putin",
      "Type": "PERSON"
    },
    {
      "BeginOffset": 3832,
      "EndOffset": 3840,
      "Score": 0.9937132000923157,
      "Text": "Thursday",
      "Type": "DATE"
    },
    {
      "BeginOffset": 3842,
      "EndOffset": 3847,
      "Score": 0.9991686344146729,
      "Text": "Putin",
      "Type": "PERSON"
    },
    {
      "BeginOffset": 3919,
      "EndOffset": 3926,
      "Score": 0.6901283264160156,
      "Text": "Russian",
      "Type": "OTHER"
    },
    {
      "BeginOffset": 3943,
      "EndOffset": 3947,
      "Score": 0.8718253374099731,
      "Text": "U.S.",
      "Type": "LOCATION"
    },
    {
      "BeginOffset": 3989,
      "EndOffset": 3993,
      "Score": 0.8627554178237915,
      "Text": "U.S.",
      "Type": "LOCATION"
    },
    {
      "BeginOffset": 4061,
      "EndOffset": 4066,
      "Score": 0.9972546696662903,
      "Text": "Trump",
      "Type": "PERSON"
    },
    {
      "BeginOffset": 4082,
      "EndOffset": 4088,
      "Score": 0.41228485107421875,
      "Text": "Arctic",
      "Type": "LOCATION"
    },
    {
      "BeginOffset": 4109,
      "EndOffset": 4117,
      "Score": 0.9906424880027771,
      "Text": "Thursday",
      "Type": "DATE"
    },
    {
      "BeginOffset": 4141,
      "EndOffset": 4148,
      "Score": 0.3768253028392792,
      "Text": "Kremlin",
      "Type": "LOCATION"
    },
    {
      "BeginOffset": 4207,
      "EndOffset": 4211,
      "Score": 0.9471635222434998,
      "Text": "U.S.",
      "Type": "LOCATION"
    },
    {
      "BeginOffset": 4216,
      "EndOffset": 4222,
      "Score": 0.9949313998222351,
      "Text": "Europe",
      "Type": "LOCATION"
    },
    {
      "BeginOffset": 4224,
      "EndOffset": 4230,
      "Score": 0.63618403673172,
      "Text": "Warner",
      "Type": "PERSON"
    },
    {
      "BeginOffset": 4257,
      "EndOffset": 4277,
      "Score": 0.8558472394943237,
      "Text": "Senator Richard Burr",
      "Type": "PERSON"
    },
    {
      "BeginOffset": 4281,
      "EndOffset": 4291,
      "Score": 0.9159072041511536,
      "Text": "Republican",
      "Type": "ORGANIZATION"
    },
    {
      "BeginOffset": 4297,
      "EndOffset": 4311,
      "Score": 0.9923222064971924,
      "Text": "North Carolina",
      "Type": "LOCATION"
    },
    {
      "BeginOffset": 4332,
      "EndOffset": 4341,
      "Score": 0.9963698387145996,
      "Text": "Wednesday",
      "Type": "DATE"
    },
    {
      "BeginOffset": 4391,
      "EndOffset": 4397,
      "Score": 0.8356688618659973,
      "Text": "Russia",
      "Type": "LOCATION"
    },
    {
      "BeginOffset": 4441,
      "EndOffset": 4445,
      "Score": 0.8169146180152893,
      "Text": "2016",
      "Type": "DATE"
    },
    {
      "BeginOffset": 4505,
      "EndOffset": 4512,
      "Score": 0.42604467272758484,
      "Text": "Russian",
      "Type": "OTHER"
    },
    {
      "BeginOffset": 4611,
      "EndOffset": 4615,
      "Score": 0.9665408730506897,
      "Text": "Burr",
      "Type": "PERSON"
    },
    {
      "BeginOffset": 4620,
      "EndOffset": 4626,
      "Score": 0.9881540536880493,
      "Text": "Warner",
      "Type": "PERSON"
    },
    {
      "BeginOffset": 4693,
      "EndOffset": 4700,
      "Score": 0.8290799856185913,
      "Text": "Russian",
      "Type": "OTHER"
    },
    {
      "BeginOffset": 4776,
      "EndOffset": 4781,
      "Score": 0.5720028877258301,
      "Text": "House",
      "Type": "ORGANIZATION"
    }
  ]
}