{
  "Entities": [
    {
      "BeginOffset": 8,
      "EndOffset": 20,
      "Score": 0.998836100101471,
      "Text": "Atul Gawande",
      "Type": "PERSON"
    },
    {
      "BeginOffset": 57,
      "EndOffset": 63,
      "Score": 0.995208203792572,
      "Text": "Amazon",
      "Type": "ORGANIZATION"
    }
  ]
}