{
  "Entities": [
    {
      "BeginOffset": 0,
      "EndOffset": 12,
      "Score": 0.9998714923858643,
      "Text": "Barack Obama",
      "Type": "PERSON"
    },
    {
      "BeginOffset": 17,
      "EndOffset": 29,
      "Score": 0.999086856842041,
      "Text": "Donald Trump",
      "Type": "PERSON"
    },
    {
      "BeginOffset": 34,
      "EndOffset": 38,
      "Score": 0.8155733346939087,
      "Text": "both",
      "Type": "QUANTITY"
    },
    {
      "BeginOffset": 39,
      "EndOffset": 41,
      "Score": 0.7485048770904541,
      "Text": "US",
      "Type": "LOCATION"
    }
  ]
}