{
  "Entities": [
    {
      "BeginOffset": 0,
      "EndOffset": 19,
      "Score": 0.8693467974662781,
      "Text": "Bloor-Yonge station",
      "Type": "LOCATION"
    },
    {
      "BeginOffset": 60,
      "EndOffset": 67,
      "Score": 0.9918943047523499,
      "Text": "Toronto",
      "Type": "LOCATION"
    },
    {
      "BeginOffset": 98,
      "EndOffset": 102,
      "Score": 0.9989019632339478,
      "Text": "1966",
      "Type": "DATE"
    },
    {
      "BeginOffset": 222,
      "EndOffset": 225,
      "Score": 0.5898378491401672,
      "Text": "TTC",
      "Type": "ORGANIZATION"
    },
    {
      "BeginOffset": 228,
      "EndOffset": 246,
      "Score": 0.8825464844703674,
      "Text": "75 subway stations",
      "Type": "QUANTITY"
    },
    {
      "BeginOffset": 252,
      "EndOffset": 280,
      "Score": 0.985520601272583,
      "Text": "more than 200,000 passengers",
      "Type": "QUANTITY"
    },
    {
      "BeginOffset": 304,
      "EndOffset": 315,
      "Score": 0.8377271294593811,
      "Text": "Bloor-Yonge",
      "Type": "LOCATION"
    },
    {
      "BeginOffset": 384,
      "EndOffset": 396,
      "Score": 0.9976252913475037,
      "Text": "$500 million",
      "Type": "QUANTITY"
    },
    {
      "BeginOffset": 491,
      "EndOffset": 510,
      "Score": 0.8667650818824768,
      "Text": "Bloor-Yonge station",
      "Type": "LOCATION"
    },
    {
      "BeginOffset": 623,
      "EndOffset": 642,
      "Score": 0.8817535638809204,
      "Text": "Bloor-Yonge station",
      "Type": "LOCATION"
    },
    {
      "BeginOffset": 732,
      "EndOffset": 754,
      "Score": 0.974216103553772,
      "Text": "Andrew Francis Wallace",
      "Type": "PERSON"
    },
    {
      "BeginOffset": 757,
      "EndOffset": 769,
      "Score": 0.8942630290985107,
      "Text": "Toronto Star",
      "Type": "ORGANIZATION"
    },
    {
      "BeginOffset": 836,
      "EndOffset": 848,
      "Score": 0.998960018157959,
      "Text": "$1.1 billion",
      "Type": "QUANTITY"
    },
    {
      "BeginOffset": 1015,
      "EndOffset": 1027,
      "Score": 0.974021852016449,
      "Text": "2 passengers",
      "Type": "QUANTITY"
    },
    {
      "BeginOffset": 1119,
      "EndOffset": 1141,
      "Score": 0.8954513669013977,
      "Text": "two separate platforms",
      "Type": "QUANTITY"
    },
    {
      "BeginOffset": 1191,
      "EndOffset": 1201,
      "Score": 0.8610369563102722,
      "Text": "both sides",
      "Type": "QUANTITY"
    },
    {
      "BeginOffset": 1378,
      "EndOffset": 1390,
      "Score": 0.6398158669471741,
      "Text": "Line 1 Yonge",
      "Type": "ORGANIZATION"
    },
    {
      "BeginOffset": 1436,
      "EndOffset": 1445,
      "Score": 0.9892210364341736,
      "Text": "Wednesday",
      "Type": "DATE"
    },
    {
      "BeginOffset": 1596,
      "EndOffset": 1600,
      "Score": 0.986354649066925,
      "Text": "2028",
      "Type": "DATE"
    }
  ]
}