{
  "Entities": [
    {
      "BeginOffset": 0,
      "EndOffset": 12,
      "Score": 0.9955013990402222,
      "Text": "Barack Obama",
      "Type": "PERSON"
    },
    {
      "BeginOffset": 23,
      "EndOffset": 30,
      "Score": 0.9950962662696838,
      "Text": "Chicago",
      "Type": "LOCATION"
    },
    {
      "BeginOffset": 44,
      "EndOffset": 52,
      "Score": 0.9955154061317444,
      "Text": "November",
      "Type": "DATE"
    }
  ]
}