{
  "Entities": [
    {
      "BeginOffset": 52,
      "EndOffset": 55,
      "Score": 0.5666574835777283,
      "Text": "NBA",
      "Type": "ORGANIZATION"
    },
    {
      "BeginOffset": 129,
      "EndOffset": 135,
      "Score": 0.982608437538147,
      "Text": "Harden",
      "Type": "PERSON"
    },
    {
      "BeginOffset": 238,
      "EndOffset": 242,
      "Score": 0.9742257595062256,
      "Text": "Nene",
      "Type": "PERSON"
    },
    {
      "BeginOffset": 337,
      "EndOffset": 341,
      "Score": 0.9546812772750854,
      "Text": "Nene",
      "Type": "PERSON"
    },
    {
      "BeginOffset": 395,
      "EndOffset": 404,
      "Score": 0.9975165724754333,
      "Text": "5 minutes",
      "Type": "QUANTITY"
    }
  ]
}