{
  "Entities": [
    {
      "BeginOffset": 0,
      "EndOffset": 4,
      "Score": 0.6631952524185181,
      "Text": "n0ns",
      "Type": "ORGANIZATION"
    },
    {
      "BeginOffset": 4,
      "EndOffset": 8,
      "Score": 0.8727169632911682,
      "Text": "3ns3",
      "Type": "COMMERCIAL_ITEM"
    },
    {
      "BeginOffset": 79,
      "EndOffset": 85,
      "Score": 0.8283317685127258,
      "Text": "750evo",
      "Type": "QUANTITY"
    },
    {
      "BeginOffset": 163,
      "EndOffset": 175,
      "Score": 0.7807301878929138,
      "Text": "850     EVO2",
      "Type": "COMMERCIAL_ITEM"
    },
    {
      "BeginOffset": 177,
      "EndOffset": 184,
      "Score": 0.9940768480300903,
      "Text": "SanDisk",
      "Type": "ORGANIZATION"
    },
    {
      "BeginOffset": 185,
      "EndOffset": 190,
      "Score": 0.9823188185691833,
      "Text": "X4003",
      "Type": "COMMERCIAL_ITEM"
    },
    {
      "BeginOffset": 193,
      "EndOffset": 200,
      "Score": 0.7745873928070068,
      "Text": "Crucial",
      "Type": "ORGANIZATION"
    },
    {
      "BeginOffset": 201,
      "EndOffset": 209,
      "Score": 0.9523841738700867,
      "Text": "MX300BTW",
      "Type": "COMMERCIAL_ITEM"
    },
    {
      "BeginOffset": 242,
      "EndOffset": 245,
      "Score": 0.7445843815803528,
      "Text": "M.2",
      "Type": "COMMERCIAL_ITEM"
    },
    {
      "BeginOffset": 259,
      "EndOffset": 263,
      "Score": 0.9432018995285034,
      "Text": "2.5\"",
      "Type": "QUANTITY"
    },
    {
      "BeginOffset": 393,
      "EndOffset": 470,
      "Score": 0.8852333426475525,
      "Text": "https://www.asus.com/Motherboards/Z170-E/specifications/:1 x M.2 x4 Socket\n\t3",
      "Type": "OTHER"
    },
    {
      "BeginOffset": 535,
      "EndOffset": 539,
      "Score": 0.6971200108528137,
      "Text": "both",
      "Type": "QUANTITY"
    },
    {
      "BeginOffset": 567,
      "EndOffset": 568,
      "Score": 0.7701393365859985,
      "Text": "1",
      "Type": "QUANTITY"
    },
    {
      "BeginOffset": 595,
      "EndOffset": 599,
      "Score": 0.8220655918121338,
      "Text": "both",
      "Type": "QUANTITY"
    },
    {
      "BeginOffset": 710,
      "EndOffset": 714,
      "Score": 0.9055537581443787,
      "Text": "2.5\"",
      "Type": "QUANTITY"
    },
    {
      "BeginOffset": 817,
      "EndOffset": 820,
      "Score": 0.7059130072593689,
      "Text": "M.2",
      "Type": "OTHER"
    },
    {
      "BeginOffset": 936,
      "EndOffset": 943,
      "Score": 0.9881734251976013,
      "Text": "Samsung",
      "Type": "ORGANIZATION"
    },
    {
      "BeginOffset": 944,
      "EndOffset": 955,
      "Score": 0.9792004823684692,
      "Text": "850 EVO M.2",
      "Type": "COMMERCIAL_ITEM"
    },
    {
      "BeginOffset": 1040,
      "EndOffset": 1047,
      "Score": 0.9864529967308044,
      "Text": "Samsung",
      "Type": "ORGANIZATION"
    },
    {
      "BeginOffset": 1049,
      "EndOffset": 1060,
      "Score": 0.9909496903419495,
      "Text": "850 EVO M.2",
      "Type": "COMMERCIAL_ITEM"
    },
    {
      "BeginOffset": 1084,
      "EndOffset": 1089,
      "Score": 0.9609572291374207,
      "Text": "Karln",
      "Type": "PERSON"
    }
  ]
}