{
  "Entities": [
    {
      "BeginOffset": 41,
      "EndOffset": 46,
      "Score": 0.49632105231285095,
      "Text": "Linux",
      "Type": "TITLE"
    },
    {
      "BeginOffset": 61,
      "EndOffset": 69,
      "Score": 0.8921263813972473,
      "Text": "v.\n\t1.00",
      "Type": "OTHER"
    },
    {
      "BeginOffset": 175,
      "EndOffset": 179,
      "Score": 0.9396069645881653,
      "Text": "3.5\"",
      "Type": "QUANTITY"
    },
    {
      "BeginOffset": 232,
      "EndOffset": 239,
      "Score": 0.7087589502334595,
      "Text": "386/IDE",
      "Type": "QUANTITY"
    }
  ]
}