{
  "Entities": [
    {
      "BeginOffset": 0,
      "EndOffset": 6,
      "Score": 0.9527612924575806,
      "Text": "LONDON",
      "Type": "LOCATION"
    },
    {
      "BeginOffset": 9,
      "EndOffset": 22,
      "Score": 0.9956834316253662,
      "Text": "J. K. Rowling",
      "Type": "PERSON"
    },
    {
      "BeginOffset": 44,
      "EndOffset": 51,
      "Score": 0.9469619989395142,
      "Text": "seventh",
      "Type": "QUANTITY"
    },
    {
      "BeginOffset": 53,
      "EndOffset": 65,
      "Score": 0.9189932942390442,
      "Text": "Harry Potter",
      "Type": "TITLE"
    },
    {
      "BeginOffset": 73,
      "EndOffset": 109,
      "Score": 0.9986781477928162,
      "Text": "Harry Potter and the Deathly Hallows",
      "Type": "TITLE"
    }
  ]
}