{
  "Entities": [
    {
      "BeginOffset": 0,
      "EndOffset": 12,
      "Score": 0.9965983629226685,
      "Text": "Barack Obama",
      "Type": "PERSON"
    },
    {
      "BeginOffset": 18,
      "EndOffset": 25,
      "Score": 0.9224851727485657,
      "Text": "Chicago",
      "Type": "LOCATION"
    },
    {
      "BeginOffset": 38,
      "EndOffset": 46,
      "Score": 0.9648588299751282,
      "Text": "novembro",
      "Type": "DATE"
    }
  ]
}