{
  "Entities": [
    {
      "BeginOffset": 0,
      "EndOffset": 12,
      "Score": 0.9998698234558105,
      "Text": "Barack Obama",
      "Type": "PERSON"
    },
    {
      "BeginOffset": 37,
      "EndOffset": 50,
      "Score": 0.8343458771705627,
      "Text": "United States",
      "Type": "LOCATION"
    }
  ]
}