{
  "Entities": [
    {
      "BeginOffset": 0,
      "EndOffset": 8,
      "Score": 0.9987892508506775,
      "Text": "Rex Ryan",
      "Type": "PERSON"
    },
    {
      "BeginOffset": 10,
      "EndOffset": 25,
      "Score": 0.9997907876968384,
      "Text": "Matt Hasselbeck",
      "Type": "PERSON"
    },
    {
      "BeginOffset": 34,
      "EndOffset": 54,
      "Score": 0.9395090937614441,
      "Text": "New England Patriots",
      "Type": "ORGANIZATION"
    },
    {
      "BeginOffset": 57,
      "EndOffset": 72,
      "Score": 0.9965025782585144,
      "Text": "Jimmy Garoppolo",
      "Type": "PERSON"
    },
    {
      "BeginOffset": 92,
      "EndOffset": 118,
      "Score": 0.8946159482002258,
      "Text": "New England Sports Network",
      "Type": "ORGANIZATION"
    }
  ]
}