{
  "Entities": [
    {
      "BeginOffset": 0,
      "EndOffset": 5,
      "Score": 0.9310867190361023,
      "Text": "Lowry",
      "Type": "PERSON"
    },
    {
      "BeginOffset": 10,
      "EndOffset": 17,
      "Score": 0.9947072267532349,
      "Text": "DeRozan",
      "Type": "PERSON"
    },
    {
      "BeginOffset": 31,
      "EndOffset": 40,
      "Score": 0.9908444285392761,
      "Text": "50 points",
      "Type": "QUANTITY"
    },
    {
      "BeginOffset": 46,
      "EndOffset": 49,
      "Score": 0.9644117951393127,
      "Text": "101",
      "Type": "QUANTITY"
    },
    {
      "BeginOffset": 50,
      "EndOffset": 52,
      "Score": 0.9757846593856812,
      "Text": "85",
      "Type": "QUANTITY"
    },
    {
      "BeginOffset": 66,
      "EndOffset": 70,
      "Score": 0.993615984916687,
      "Text": "Cavs",
      "Type": "ORGANIZATION"
    },
    {
      "BeginOffset": 74,
      "EndOffset": 80,
      "Score": 0.9856735467910767,
      "Text": "Friday",
      "Type": "DATE"
    }
  ]
}