{
  "response": {
    "language": "eng",
    "languageIsReliable": true,
    "entities": [
      {
        "id": 0,
        "type": [
          "Agent",
          "Organisation",
          "SportsTeam",
          "HockeyTeam"
        ],
        "matchingTokens": [
          0,
          1
        ],
        "entityId": "Montreal Canadiens",
        "freebaseTypes": [
          "/organization/organization",
          "/ice_hockey/hockey_team",
          "/sports/professional_sports_team",
          "/book/book_subject",
          "/sports/sports_team",
          "/business/employer"
        ],
        "confidenceScore": 32.85,
        "wikiLink": "http://en.wikipedia.org/wiki/Montreal_Canadiens",
        "matchedText": "Montreal Canadiens",
        "freebaseId": "/m/0bszz",
        "relevanceScore": 0.04819,
        "entityEnglishId": "Montreal Canadiens",
        "startingPos": 0,
        "endingPos": 18,
        "wikidataId": "Q188143",
        "crunchbaseId": "arizona-coyotes-hockey-club",
        "permid": "4297019126"
      },
      {
        "id": 1,
        "type": [
          "Agent",
          "Organisation",
          "SportsTeam",
          "HockeyTeam"
        ],
        "matchingTokens": [
          4,
          5,
          6
        ],
        "entityId": "St. Louis Blues",
        "freebaseTypes": [
          "/sports/sports_team",
          "/sports/professional_sports_team",
          "/organization/organization",
          "/ice_hockey/hockey_team"
        ],
        "confidenceScore": 9.609,
        "wikiLink": "http://en.wikipedia.org/wiki/St._Louis_Blues",
        "matchedText": "St. Louis Blues",
        "freebaseId": "/m/06x6s",
        "relevanceScore": 0.08598,
        "entityEnglishId": "St. Louis Blues",
        "startingPos": 28,
        "endingPos": 43,
        "wikidataId": "Q207735",
        "crunchbaseId": "st-louis-blues"
      }
    ]
  },
  "time": 0.01879,
  "ok": true
}