{
  "response": {
    "language": "eng",
    "languageIsReliable": true,
    "entities": [
      {
        "id": 0,
        "type": [
          "Number"
        ],
        "matchingTokens": [
          51
        ],
        "entityId": "2",
        "confidenceScore": 0.5,
        "wikiLink": "",
        "matchedText": "2",
        "relevanceScore": 0,
        "entityEnglishId": "",
        "startingPos": 220,
        "endingPos": 221,
        "unit": "Number"
      },
      {
        "id": 1,
        "type": [
          "Agent",
          "Organisation",
          "Company"
        ],
        "matchingTokens": [
          14
        ],
        "entityId": "Oracle Corporation",
        "freebaseTypes": [
          "/business/employer",
          "/book/book_subject",
          "/organization/organization_partnership",
          "/business/issuer",
          "/venture_capital/venture_funded_company",
          "/computer/programming_language_designer",
          "/business/sponsor",
          "/law/litigant",
          "/business/employer",
          "/award/ranked_item",
          "/conferences/conference_sponsor",
          "/organization/organization",
          "/business/consumer_company",
          "/organization/organization_member",
          "/projects/project_participant",
          "/business/business_operation",
          "/computer/software_developer",
          "/venture_capital/venture_investor"
        ],
        "confidenceScore": 5.295,
        "wikiLink": "http://en.wikipedia.org/wiki/Oracle_Corporation",
        "matchedText": "Oracle",
        "freebaseId": "/m/05njw",
        "relevanceScore": 0.3599,
        "entityEnglishId": "Oracle Corporation",
        "startingPos": 57,
        "endingPos": 63,
        "wikidataId": "Q19900",
        "crunchbaseId": "oracle",
        "lei": "1Z4GXXU7ZHVWFCD8TV52",
        "figi": "BBG001S5SJG6",
        "permid": "4295907485"
      },
      {
        "id": 2,
        "type": [
          "Number"
        ],
        "matchingTokens": [
          59
        ],
        "entityId": "500",
        "confidenceScore": 0.5,
        "wikiLink": "",
        "matchedText": "500",
        "relevanceScore": 0,
        "entityEnglishId": "",
        "startingPos": 248,
        "endingPos": 251
      },
      {
        "id": 3,
        "type": [
          "Agent",
          "Organisation",
          "Company"
        ],
        "matchingTokens": [
          21
        ],
        "entityId": "SAP SE",
        "freebaseTypes": [
          "/business/employer",
          "/business/shareholder",
          "/business/business_operation",
          "/business/issuer",
          "/computer/software_developer",
          "/projects/project_participant",
          "/organization/organization",
          "/business/consumer_company",
          "/business/industry",
          "/organization/organization_partnership",
          "/book/book_subject",
          "/business/brand"
        ],
        "confidenceScore": 4.91,
        "wikiLink": "http://en.wikipedia.org/wiki/SAP_SE",
        "matchedText": "SAP",
        "freebaseId": "/m/01pf4l",
        "relevanceScore": 0.241,
        "entityEnglishId": "SAP SE",
        "startingPos": 77,
        "endingPos": 80,
        "wikidataId": "Q552581",
        "crunchbaseId": "sap",
        "lei": "529900D6BF99LW9R2E68",
        "figi": "BBG001S6RK27",
        "permid": "5043321284"
      },
      {
        "id": 4,
        "type": [
          "Agent",
          "Organisation",
          "Company"
        ],
        "matchingTokens": [
          17
        ],
        "entityId": "Oracle Corporation",
        "freebaseTypes": [
          "/business/employer",
          "/book/book_subject",
          "/organization/organization_partnership",
          "/business/issuer",
          "/venture_capital/venture_funded_company",
          "/computer/programming_language_designer",
          "/business/sponsor",
          "/law/litigant",
          "/business/employer",
          "/award/ranked_item",
          "/conferences/conference_sponsor",
          "/organization/organization",
          "/business/consumer_company",
          "/organization/organization_member",
          "/projects/project_participant",
          "/business/business_operation",
          "/computer/software_developer",
          "/venture_capital/venture_investor"
        ],
        "confidenceScore": 1.258,
        "wikiLink": "http://en.wikipedia.org/wiki/Oracle_Corporation",
        "matchedText": "ORCL",
        "freebaseId": "/m/05njw",
        "relevanceScore": 0.7714,
        "entityEnglishId": "Oracle Corporation",
        "startingPos": 66,
        "endingPos": 70,
        "wikidataId": "Q19900",
        "crunchbaseId": "oracle",
        "lei": "1Z4GXXU7ZHVWFCD8TV52",
        "figi": "BBG001S5SJG6",
        "permid": "4295907485"
      },
      {
        "id": 5,
        "type": [
          "Time"
        ],
        "matchingTokens": [
          64,
          65
        ],
        "entityId": "2018-01-01T00:00:00.000+00:00",
        "confidenceScore": 0.5,
        "wikiLink": "",
        "matchedText": "last year",
        "relevanceScore": 0,
        "entityEnglishId": "",
        "startingPos": 269,
        "endingPos": 278
      },
      {
        "id": 6,
        "matchingTokens": [
          56,
          57,
          58,
          59
        ],
        "entityId": "S&P 500 Index",
        "freebaseTypes": [
          "/business/market_index"
        ],
        "confidenceScore": 2.366,
        "wikiLink": "http://en.wikipedia.org/wiki/S&P_500_Index",
        "matchedText": "S&P 500",
        "freebaseId": "/m/016yss",
        "relevanceScore": 0.05947,
        "entityEnglishId": "S&P 500 Index",
        "startingPos": 244,
        "endingPos": 251,
        "wikidataId": "Q242345"
      },
      {
        "id": 7,
        "type": [
          "Agent",
          "Organisation",
          "Company"
        ],
        "matchingTokens": [
          23
        ],
        "entityId": "SAP SE",
        "freebaseTypes": [
          "/business/employer",
          "/business/shareholder",
          "/business/business_operation",
          "/business/issuer",
          "/computer/software_developer",
          "/projects/project_participant",
          "/organization/organization",
          "/business/consumer_company",
          "/business/industry",
          "/organization/organization_partnership",
          "/book/book_subject",
          "/business/brand"
        ],
        "confidenceScore": 4.91,
        "wikiLink": "http://en.wikipedia.org/wiki/SAP_SE",
        "matchedText": "SAP",
        "freebaseId": "/m/01pf4l",
        "relevanceScore": 0.241,
        "entityEnglishId": "SAP SE",
        "startingPos": 82,
        "endingPos": 85,
        "wikidataId": "Q552581",
        "crunchbaseId": "sap",
        "lei": "529900D6BF99LW9R2E68",
        "figi": "BBG001S6RK27",
        "permid": "5043321284"
      },
      {
        "id": 8,
        "type": [
          "Agent",
          "Organisation",
          "Company"
        ],
        "matchingTokens": [
          9
        ],
        "entityId": "Microsoft",
        "freebaseTypes": [
          "/business/customer",
          "/award/award_nominee",
          "/organization/organization_sector",
          "/conferences/conference_sponsor",
          "/award/award_winner",
          "/internet/website_owner",
          "/business/employer",
          "/projects/project_participant",
          "/cvg/cvg_publisher",
          "/media_common/quotation_subject",
          "/business/sponsor",
          "/business/consumer_company",
          "/computer/programming_language_designer",
          "/venture_capital/venture_investor",
          "/computer/operating_system_developer",
          "/computer/processor_manufacturer",
          "/computer/software_developer",
          "/book/book_subject",
          "/law/litigant",
          "/internet/top_level_domain_sponsor",
          "/computer/computer_manufacturer_brand",
          "/award/award_presenting_organization",
          "/cvg/cvg_developer",
          "/venture_capital/venture_funded_company",
          "/organization/organization_partnership",
          "/book/author",
          "/organization/organization",
          "/law/inventor",
          "/computer/programming_language_developer",
          "/business/issuer",
          "/business/business_operation",
          "/award/ranked_item"
        ],
        "confidenceScore": 11.62,
        "wikiLink": "http://en.wikipedia.org/wiki/Microsoft",
        "matchedText": "Microsoft",
        "freebaseId": "/m/04sv4",
        "relevanceScore": 0.1426,
        "entityEnglishId": "Microsoft",
        "startingPos": 39,
        "endingPos": 48,
        "wikidataId": "Q2283",
        "crunchbaseId": "microsoft",
        "lei": "INR2EJN1ERAN0W5ZP974",
        "figi": "BBG001S5TD05",
        "permid": "4295907168"
      },
      {
        "id": 9,
        "type": [
          "Agent",
          "Organisation",
          "Company"
        ],
        "matchingTokens": [
          11
        ],
        "entityId": "Microsoft",
        "freebaseTypes": [
          "/business/customer",
          "/award/award_nominee",
          "/organization/organization_sector",
          "/conferences/conference_sponsor",
          "/award/award_winner",
          "/internet/website_owner",
          "/business/employer",
          "/projects/project_participant",
          "/cvg/cvg_publisher",
          "/media_common/quotation_subject",
          "/business/sponsor",
          "/business/consumer_company",
          "/computer/programming_language_designer",
          "/venture_capital/venture_investor",
          "/computer/operating_system_developer",
          "/computer/processor_manufacturer",
          "/computer/software_developer",
          "/book/book_subject",
          "/law/litigant",
          "/internet/top_level_domain_sponsor",
          "/computer/computer_manufacturer_brand",
          "/award/award_presenting_organization",
          "/cvg/cvg_developer",
          "/venture_capital/venture_funded_company",
          "/organization/organization_partnership",
          "/book/author",
          "/organization/organization",
          "/law/inventor",
          "/computer/programming_language_developer",
          "/business/issuer",
          "/business/business_operation",
          "/award/ranked_item"
        ],
        "confidenceScore": 1.613,
        "wikiLink": "http://en.wikipedia.org/wiki/Microsoft",
        "matchedText": "MSFT",
        "freebaseId": "/m/04sv4",
        "relevanceScore": 0.4169,
        "entityEnglishId": "Microsoft",
        "startingPos": 50,
        "endingPos": 54,
        "wikidataId": "Q2283",
        "crunchbaseId": "microsoft",
        "lei": "INR2EJN1ERAN0W5ZP974",
        "figi": "BBG001S5TD05",
        "permid": "4295907168"
      }
    ]
  },
  "time": 0.03817,
  "ok": true
}