{
  "response": {
    "language": "eng",
    "languageIsReliable": true,
    "entities": [
      {
        "id": 0,
        "type": [
          "Company"
        ],
        "matchingTokens": [
          103
        ],
        "entityId": "PSQ",
        "freebaseTypes": [
          "/organization/organization"
        ],
        "confidenceScore": 0.5,
        "wikiLink": "",
        "matchedText": "PSQ",
        "relevanceScore": 0,
        "entityEnglishId": "",
        "startingPos": 589,
        "endingPos": 592
      },
      {
        "id": 1,
        "type": [
          "Agent",
          "Organisation",
          "Company"
        ],
        "matchingTokens": [
          26
        ],
        "entityId": "NASDAQ",
        "freebaseTypes": [
          "/business/employer",
          "/business/brand",
          "/business/customer",
          "/book/author",
          "/business/business_operation",
          "/finance/stock_exchange",
          "/organization/organization"
        ],
        "confidenceScore": 9.962,
        "wikiLink": "http://en.wikipedia.org/wiki/NASDAQ",
        "matchedText": "NASDAQ",
        "freebaseId": "/m/05dq_",
        "relevanceScore": 0.2918,
        "entityEnglishId": "NASDAQ",
        "startingPos": 165,
        "endingPos": 171,
        "wikidataId": "Q82059",
        "crunchbaseId": "nasdaq",
        "lei": "549300L8X1Q78ERXFD06",
        "permid": "8589934167"
      },
      {
        "id": 2,
        "matchingTokens": [
          75
        ],
        "entityId": "Swap (finance)",
        "confidenceScore": 2.337,
        "wikiLink": "http://en.wikipedia.org/wiki/Swap_(finance)",
        "matchedText": "swaps",
        "freebaseId": "/m/02h_4x",
        "relevanceScore": 0.1952,
        "entityEnglishId": "Swap (finance)",
        "startingPos": 447,
        "endingPos": 452,
        "wikidataId": "Q1136583"
      },
      {
        "id": 3,
        "matchingTokens": [
          42
        ],
        "entityId": "Exchange-traded fund",
        "freebaseTypes": [
          "/book/book_subject"
        ],
        "confidenceScore": 7.111,
        "wikiLink": "http://en.wikipedia.org/wiki/Exchange-traded_fund",
        "matchedText": "ETF",
        "freebaseId": "/m/02mxjp",
        "relevanceScore": 0.7439,
        "entityEnglishId": "Exchange-traded fund",
        "startingPos": 259,
        "endingPos": 262,
        "wikidataId": "Q845477"
      },
      {
        "id": 4,
        "type": [
          "Number"
        ],
        "matchingTokens": [
          17
        ],
        "entityId": "100",
        "confidenceScore": 0.5,
        "wikiLink": "",
        "matchedText": "100",
        "relevanceScore": 0,
        "entityEnglishId": "",
        "startingPos": 115,
        "endingPos": 118
      },
      {
        "id": 5,
        "matchingTokens": [
          78
        ],
        "entityId": "NASDAQ-100",
        "freebaseTypes": [
          "/business/market_index"
        ],
        "confidenceScore": 7.503,
        "wikiLink": "http://en.wikipedia.org/wiki/NASDAQ-100",
        "matchedText": "Nasdaq-100",
        "freebaseId": "/m/02fhwv",
        "relevanceScore": 0.5797,
        "entityEnglishId": "NASDAQ-100",
        "startingPos": 460,
        "endingPos": 470,
        "wikidataId": "Q507306"
      },
      {
        "id": 6,
        "matchingTokens": [
          81
        ],
        "entityId": "Swap (finance)",
        "confidenceScore": 2.337,
        "wikiLink": "http://en.wikipedia.org/wiki/Swap_(finance)",
        "matchedText": "swaps",
        "freebaseId": "/m/02h_4x",
        "relevanceScore": 0.1952,
        "entityEnglishId": "Swap (finance)",
        "startingPos": 478,
        "endingPos": 483,
        "wikidataId": "Q1136583"
      },
      {
        "id": 7,
        "matchingTokens": [
          86
        ],
        "entityId": "NASDAQ-100",
        "freebaseTypes": [
          "/business/market_index"
        ],
        "confidenceScore": 7.503,
        "wikiLink": "http://en.wikipedia.org/wiki/NASDAQ-100",
        "matchedText": "Nasdaq-100",
        "freebaseId": "/m/02fhwv",
        "relevanceScore": 0.5797,
        "entityEnglishId": "NASDAQ-100",
        "startingPos": 497,
        "endingPos": 507,
        "wikidataId": "Q507306"
      },
      {
        "id": 8,
        "type": [
          "Company"
        ],
        "matchingTokens": [
          69
        ],
        "entityId": "PSQ",
        "freebaseTypes": [
          "/organization/organization"
        ],
        "confidenceScore": 0.5,
        "wikiLink": "",
        "matchedText": "PSQ",
        "relevanceScore": 0,
        "entityEnglishId": "",
        "startingPos": 420,
        "endingPos": 423
      },
      {
        "id": 9,
        "type": [
          "Company"
        ],
        "matchingTokens": [
          28,
          29,
          30
        ],
        "entityId": "PSQ Factset Analytics",
        "freebaseTypes": [
          "/organization/organization"
        ],
        "confidenceScore": 0.5,
        "wikiLink": "",
        "matchedText": "PSQ Factset Analytics",
        "relevanceScore": 0,
        "entityEnglishId": "",
        "startingPos": 173,
        "endingPos": 194
      },
      {
        "id": 10,
        "matchingTokens": [
          51
        ],
        "entityId": "NASDAQ-100",
        "freebaseTypes": [
          "/business/market_index"
        ],
        "confidenceScore": 7.503,
        "wikiLink": "http://en.wikipedia.org/wiki/NASDAQ-100",
        "matchedText": "Nasdaq-100",
        "freebaseId": "/m/02fhwv",
        "relevanceScore": 0.5797,
        "entityEnglishId": "NASDAQ-100",
        "startingPos": 305,
        "endingPos": 315,
        "wikidataId": "Q507306"
      },
      {
        "id": 11,
        "matchingTokens": [
          88
        ],
        "entityId": "Futures contract",
        "confidenceScore": 1.458,
        "wikiLink": "http://en.wikipedia.org/wiki/Futures_contract",
        "matchedText": "futures",
        "freebaseId": "/m/01jdtr",
        "relevanceScore": 0.3824,
        "entityEnglishId": "Futures contract",
        "startingPos": 509,
        "endingPos": 516,
        "wikidataId": "Q183984"
      },
      {
        "id": 12,
        "type": [
          "Company"
        ],
        "matchingTokens": [
          42,
          43
        ],
        "entityId": "ETF QQQ",
        "freebaseTypes": [
          "/organization/organization"
        ],
        "confidenceScore": 0.5,
        "wikiLink": "",
        "matchedText": "ETF QQQ",
        "relevanceScore": 0,
        "entityEnglishId": "",
        "startingPos": 259,
        "endingPos": 266
      },
      {
        "id": 13,
        "matchingTokens": [
          176
        ],
        "entityId": "Market liquidity",
        "freebaseTypes": [
          "/book/book_subject"
        ],
        "confidenceScore": 3.299,
        "wikiLink": "http://en.wikipedia.org/wiki/Market_liquidity",
        "matchedText": "liquidity",
        "freebaseId": "/m/0fk2d",
        "relevanceScore": 0.2295,
        "entityEnglishId": "Market liquidity",
        "startingPos": 947,
        "endingPos": 956,
        "wikidataId": "Q184783"
      },
      {
        "id": 14,
        "type": [
          "Company"
        ],
        "matchingTokens": [
          4,
          5,
          6
        ],
        "entityId": "ProShares Short QQQ",
        "freebaseTypes": [
          "/organization/organization"
        ],
        "confidenceScore": 0.5,
        "wikiLink": "",
        "matchedText": "ProShares Short QQQ",
        "relevanceScore": 0,
        "entityEnglishId": "",
        "startingPos": 25,
        "endingPos": 44,
        "figi": "BBG001SR6H58"
      }
    ]
  },
  "time": 0.09019,
  "ok": true
}