{
  "response": {
    "language": "eng",
    "languageIsReliable": true,
    "entities": [
      {
        "id": 0,
        "type": [
          "Distance"
        ],
        "matchingTokens": [
          0,
          1
        ],
        "entityId": "4",
        "confidenceScore": 0.5,
        "wikiLink": "",
        "matchedText": "4 feet",
        "relevanceScore": 0,
        "entityEnglishId": "",
        "startingPos": 0,
        "endingPos": 6,
        "unit": "foot"
      }
    ]
  },
  "time": 0.01052,
  "ok": true
}