{
  "response": {
    "language": "eng",
    "languageIsReliable": true,
    "entities": [
      {
        "id": 0,
        "type": [
          "Place",
          "PopulatedPlace",
          "Settlement",
          "City"
        ],
        "matchingTokens": [
          7
        ],
        "entityId": "Denver",
        "freebaseTypes": [
          "/business/employer",
          "/education/school",
          "/business/business_operation",
          "/organization/organization",
          "/organization/non_profit_organization",
          "/education/educational_institution",
          "/organization/organization",
          "/education/school",
          "/business/employer",
          "/education/educational_institution",
          "/location/statistical_region",
          "/location/dated_location",
          "/location/administrative_division",
          "/book/book_subject",
          "/location/capital_of_administrative_division",
          "/location/hud_foreclosure_area",
          "/business/employer",
          "/location/hud_county_place",
          "/government/governmental_jurisdiction",
          "/fictional_universe/fictional_setting",
          "/organization/organization_scope",
          "/sports/sports_team_location",
          "/film/film_location",
          "/periodicals/newspaper_circulation_area",
          "/location/place_with_neighborhoods",
          "/location/us_county",
          "/location/location",
          "/travel/travel_destination",
          "/location/citytown",
          "/business/business_location"
        ],
        "confidenceScore": 2.35,
        "wikiLink": "http://en.wikipedia.org/wiki/Denver",
        "matchedText": "Denver",
        "freebaseId": "/m/02cl1",
        "relevanceScore": 0.1936,
        "entityEnglishId": "Denver",
        "startingPos": 31,
        "endingPos": 37,
        "wikidataId": "Q16554"
      },
      {
        "id": 1,
        "type": [
          "Place",
          "PopulatedPlace",
          "Settlement",
          "City"
        ],
        "matchingTokens": [
          16
        ],
        "entityId": "Boulder, Colorado",
        "freebaseTypes": [
          "/sports/sports_team_location",
          "/location/citytown",
          "/business/employer",
          "/location/hud_county_place",
          "/periodicals/newspaper_circulation_area",
          "/travel/travel_destination",
          "/location/location",
          "/organization/organization_scope",
          "/film/film_location",
          "/tv/tv_location",
          "/government/governmental_jurisdiction",
          "/location/capital_of_administrative_division",
          "/location/dated_location",
          "/location/hud_foreclosure_area",
          "/location/statistical_region"
        ],
        "confidenceScore": 1.609,
        "wikiLink": "http://en.wikipedia.org/wiki/Boulder,_Colorado",
        "matchedText": "Boulder",
        "freebaseId": "/m/0ncj8",
        "relevanceScore": 0.252,
        "entityEnglishId": "Boulder, Colorado",
        "startingPos": 73,
        "endingPos": 80,
        "wikidataId": "Q192517"
      },
      {
        "id": 2,
        "type": [
          "Place",
          "PopulatedPlace",
          "Settlement",
          "City"
        ],
        "matchingTokens": [
          22,
          23
        ],
        "entityId": "Mountain View, California",
        "freebaseTypes": [
          "/location/hud_county_place",
          "/location/hud_foreclosure_area",
          "/periodicals/newspaper_circulation_area",
          "/location/citytown",
          "/location/administrative_division",
          "/location/dated_location",
          "/location/statistical_region",
          "/book/book_subject",
          "/travel/travel_destination",
          "/organization/organization_scope",
          "/government/governmental_jurisdiction",
          "/location/location"
        ],
        "confidenceScore": 1.002,
        "wikiLink": "http://en.wikipedia.org/wiki/Mountain_View,_California",
        "matchedText": "Mountain View",
        "freebaseId": "/m/0r6c4",
        "relevanceScore": 0.07896,
        "entityEnglishId": "Mountain View, California",
        "startingPos": 103,
        "endingPos": 116,
        "wikidataId": "Q486860"
      },
      {
        "id": 3,
        "matchingTokens": [
          1
        ],
        "entityId": "Road",
        "freebaseTypes": [
          "/book/book_subject"
        ],
        "confidenceScore": 1.086,
        "wikiLink": "http://en.wikipedia.org/wiki/Road",
        "matchedText": "road",
        "freebaseId": "/m/06gfj",
        "relevanceScore": 0.07231,
        "entityEnglishId": "Road",
        "startingPos": 3,
        "endingPos": 7,
        "wikidataId": "Q34442"
      }
    ]
  },
  "time": 0.02663,
  "ok": true
}