{
  "response": {
    "language": "eng",
    "languageIsReliable": true,
    "entities": [
      {
        "id": 0,
        "matchingTokens": [
          100
        ],
        "entityId": "MacBook",
        "freebaseTypes": [
          "/computer/computer",
          "/business/product_line",
          "/cvg/cvg_platform",
          "/computer/computer",
          "/business/consumer_product"
        ],
        "confidenceScore": 5.342,
        "wikiLink": "http://en.wikipedia.org/wiki/MacBook",
        "matchedText": "MacBook",
        "freebaseId": "/m/09tzjm",
        "relevanceScore": 0.3168,
        "entityEnglishId": "MacBook",
        "startingPos": 511,
        "endingPos": 518,
        "wikidataId": "Q3065317"
      },
      {
        "id": 1,
        "type": [
          "Device",
          "InformationAppliance"
        ],
        "matchingTokens": [
          100,
          101
        ],
        "entityId": "MacBook Pro",
        "freebaseTypes": [
          "/computer/computer",
          "/business/consumer_product",
          "/business/product_line"
        ],
        "confidenceScore": 11.74,
        "wikiLink": "http://en.wikipedia.org/wiki/MacBook_Pro",
        "matchedText": "MacBook Pro",
        "freebaseId": "/m/09tzfp",
        "relevanceScore": 0.4687,
        "entityEnglishId": "MacBook Pro",
        "startingPos": 511,
        "endingPos": 522,
        "wikidataId": "Q214276"
      },
      {
        "id": 2,
        "matchingTokens": [
          79
        ],
        "entityId": "Warranty",
        "freebaseTypes": [
          "/organization/organization_sector",
          "/organization/organization_type"
        ],
        "confidenceScore": 1.653,
        "wikiLink": "http://en.wikipedia.org/wiki/Warranty",
        "matchedText": "warranty",
        "freebaseId": "/m/03gg0l",
        "relevanceScore": 0.1901,
        "entityEnglishId": "Warranty",
        "startingPos": 395,
        "endingPos": 403,
        "wikidataId": "Q329717"
      },
      {
        "id": 3,
        "matchingTokens": [
          40
        ],
        "entityId": "Macintosh",
        "freebaseTypes": [
          "/book/book_subject",
          "/business/consumer_product",
          "/internet/website_category",
          "/cvg/cvg_platform",
          "/computer/computing_platform",
          "/computer/computer",
          "/business/brand",
          "/computer/software_genre",
          "/business/product_line",
          "/business/industry",
          "/law/invention"
        ],
        "confidenceScore": 1.104,
        "wikiLink": "http://en.wikipedia.org/wiki/Macintosh",
        "matchedText": "Mac",
        "freebaseId": "/m/0zd6",
        "relevanceScore": 0.4179,
        "entityEnglishId": "Macintosh",
        "startingPos": 202,
        "endingPos": 205,
        "wikidataId": "Q75687"
      },
      {
        "id": 4,
        "matchingTokens": [
          57
        ],
        "entityId": "Warranty",
        "freebaseTypes": [
          "/organization/organization_sector",
          "/organization/organization_type"
        ],
        "confidenceScore": 1.653,
        "wikiLink": "http://en.wikipedia.org/wiki/Warranty",
        "matchedText": "warranty",
        "freebaseId": "/m/03gg0l",
        "relevanceScore": 0.1901,
        "entityEnglishId": "Warranty",
        "startingPos": 273,
        "endingPos": 281,
        "wikidataId": "Q329717"
      },
      {
        "id": 5,
        "matchingTokens": [
          8
        ],
        "entityId": "Laptop",
        "freebaseTypes": [
          "/business/consumer_product",
          "/award/ranked_item",
          "/business/product_category",
          "/music/instrument",
          "/business/product_line",
          "/music/performance_role"
        ],
        "confidenceScore": 4.657,
        "wikiLink": "http://en.wikipedia.org/wiki/Laptop",
        "matchedText": "laptop",
        "freebaseId": "/m/01c648",
        "relevanceScore": 0.3901,
        "entityEnglishId": "Laptop",
        "startingPos": 35,
        "endingPos": 41,
        "wikidataId": "Q3962"
      },
      {
        "id": 6,
        "matchingTokens": [
          23
        ],
        "entityId": "Macintosh",
        "freebaseTypes": [
          "/book/book_subject",
          "/business/consumer_product",
          "/internet/website_category",
          "/cvg/cvg_platform",
          "/computer/computing_platform",
          "/computer/computer",
          "/business/brand",
          "/computer/software_genre",
          "/business/product_line",
          "/business/industry",
          "/law/invention"
        ],
        "confidenceScore": 1.104,
        "wikiLink": "http://en.wikipedia.org/wiki/Macintosh",
        "matchedText": "Mac",
        "freebaseId": "/m/0zd6",
        "relevanceScore": 0.4179,
        "entityEnglishId": "Macintosh",
        "startingPos": 125,
        "endingPos": 128,
        "wikidataId": "Q75687"
      },
      {
        "id": 7,
        "matchingTokens": [
          69
        ],
        "entityId": "Warranty",
        "freebaseTypes": [
          "/organization/organization_sector",
          "/organization/organization_type"
        ],
        "confidenceScore": 1.653,
        "wikiLink": "http://en.wikipedia.org/wiki/Warranty",
        "matchedText": "warranty",
        "freebaseId": "/m/03gg0l",
        "relevanceScore": 0.1901,
        "entityEnglishId": "Warranty",
        "startingPos": 343,
        "endingPos": 351,
        "wikidataId": "Q329717"
      },
      {
        "id": 8,
        "matchingTokens": [
          68,
          69
        ],
        "entityId": "Extended warranty",
        "freebaseTypes": [
          "/organization/organization_sector",
          "/organization/organization_type"
        ],
        "confidenceScore": 2.7,
        "wikiLink": "http://en.wikipedia.org/wiki/Extended_warranty",
        "matchedText": "extended warranty",
        "freebaseId": "/m/03f19y",
        "relevanceScore": 0.2227,
        "entityEnglishId": "Extended warranty",
        "startingPos": 334,
        "endingPos": 351,
        "wikidataId": "Q4379942"
      },
      {
        "id": 9,
        "matchingTokens": [
          109
        ],
        "entityId": "Tank",
        "freebaseTypes": [
          "/book/book_subject",
          "/interests/collection_category",
          "/business/product_category",
          "/military/military_resource",
          "/law/invention"
        ],
        "confidenceScore": 0.9994,
        "wikiLink": "http://en.wikipedia.org/wiki/Tank",
        "matchedText": "tank",
        "freebaseId": "/m/07cmd",
        "relevanceScore": 0.09758,
        "entityEnglishId": "Tank",
        "startingPos": 545,
        "endingPos": 549,
        "wikidataId": "Q12876"
      },
      {
        "id": 10,
        "type": [
          "Number"
        ],
        "matchingTokens": [
          152
        ],
        "entityId": "4.5",
        "confidenceScore": 0.5,
        "wikiLink": "",
        "matchedText": "4.5",
        "relevanceScore": 0,
        "entityEnglishId": "",
        "startingPos": 731,
        "endingPos": 734,
        "unit": "Number"
      },
      {
        "id": 11,
        "type": [
          "Duration"
        ],
        "matchingTokens": [
          31
        ],
        "entityId": "15",
        "confidenceScore": 0.5,
        "wikiLink": "",
        "matchedText": "15years",
        "relevanceScore": 0,
        "entityEnglishId": "",
        "startingPos": 157,
        "endingPos": 164,
        "unit": "year"
      },
      {
        "id": 12,
        "type": [
          "Quantity"
        ],
        "matchingTokens": [
          139,
          140
        ],
        "entityId": "4",
        "confidenceScore": 0.5,
        "wikiLink": "",
        "matchedText": "4 pounds",
        "relevanceScore": 0,
        "entityEnglishId": "",
        "startingPos": 676,
        "endingPos": 684,
        "unit": "pound"
      }
    ]
  },
  "time": 0.08143,
  "ok": true
}