{
  "response": {
    "language": "eng",
    "languageIsReliable": true,
    "entities": [
      {
        "id": 0,
        "type": [
          "Work",
          "Software",
          "ProgrammingLanguage"
        ],
        "matchingTokens": [
          13
        ],
        "entityId": "C (programming language)",
        "freebaseTypes": [
          "/media_common/quotation_subject",
          "/computer/programming_language",
          "/book/book_subject"
        ],
        "confidenceScore": 3.642,
        "wikiLink": "http://en.wikipedia.org/wiki/C_(programming_language)",
        "matchedText": "C",
        "freebaseId": "/m/01t6b",
        "relevanceScore": 0.3556,
        "entityEnglishId": "C (programming language)",
        "startingPos": 54,
        "endingPos": 55,
        "wikidataId": "Q15777"
      },
      {
        "id": 1,
        "type": [
          "Work",
          "Software",
          "ProgrammingLanguage"
        ],
        "matchingTokens": [
          25
        ],
        "entityId": "Python (programming language)",
        "freebaseTypes": [
          "/interests/hobbyist",
          "/conferences/conference_subject",
          "/people/person",
          "/symbols/namesake",
          "/business/brand",
          "/internet/api",
          "/computer/programming_language",
          "/book/book_subject"
        ],
        "confidenceScore": 20.03,
        "wikiLink": "http://en.wikipedia.org/wiki/Python_(programming_language)",
        "matchedText": "Python",
        "freebaseId": "/m/05z1_",
        "relevanceScore": 0.2664,
        "entityEnglishId": "Python (programming language)",
        "startingPos": 78,
        "endingPos": 84,
        "wikidataId": "Q28865"
      },
      {
        "id": 2,
        "type": [
          "Number"
        ],
        "matchingTokens": [
          8
        ],
        "entityId": "1",
        "confidenceScore": 0.5,
        "wikiLink": "",
        "matchedText": "1",
        "relevanceScore": 0,
        "entityEnglishId": "",
        "startingPos": 35,
        "endingPos": 36,
        "unit": "Number"
      },
      {
        "id": 3,
        "type": [
          "Work",
          "Software",
          "ProgrammingLanguage"
        ],
        "matchingTokens": [
          17,
          18
        ],
        "entityId": "C Sharp (programming language)",
        "freebaseTypes": [
          "/computer/programming_language",
          "/computer/programming_language"
        ],
        "confidenceScore": 7.784,
        "wikiLink": "http://en.wikipedia.org/wiki/C_Sharp_(programming_language)",
        "matchedText": "C#",
        "freebaseId": "/m/0dw0c9",
        "relevanceScore": 0.3158,
        "entityEnglishId": "C Sharp (programming language)",
        "startingPos": 62,
        "endingPos": 64,
        "wikidataId": "Q2370"
      },
      {
        "id": 4,
        "type": [
          "Work",
          "Software",
          "ProgrammingLanguage"
        ],
        "matchingTokens": [
          21
        ],
        "entityId": "PHP",
        "freebaseTypes": [
          "/computer/programming_language",
          "/internet/api",
          "/language/human_language",
          "/education/school_category",
          "/language/languoid"
        ],
        "confidenceScore": 13.23,
        "wikiLink": "http://en.wikipedia.org/wiki/PHP",
        "matchedText": "PHP",
        "freebaseId": "/m/060kv",
        "relevanceScore": 0.2463,
        "entityEnglishId": "PHP",
        "startingPos": 67,
        "endingPos": 70,
        "wikidataId": "Q59"
      },
      {
        "id": 5,
        "type": [
          "Work",
          "Software",
          "ProgrammingLanguage"
        ],
        "matchingTokens": [
          23
        ],
        "entityId": "Java (programming language)",
        "freebaseTypes": [
          "/education/school_category",
          "/computer/programming_language",
          "/event/speech_topic",
          "/law/invention",
          "/interests/interest",
          "/interests/hobby",
          "/book/book_subject",
          "/computer/programming_language"
        ],
        "confidenceScore": 21.8,
        "wikiLink": "http://en.wikipedia.org/wiki/Java_(programming_language)",
        "matchedText": "Java",
        "freebaseId": "/m/026_3pk",
        "relevanceScore": 0.1981,
        "entityEnglishId": "Java (programming language)",
        "startingPos": 72,
        "endingPos": 76,
        "wikidataId": "Q251"
      },
      {
        "id": 6,
        "type": [
          "Work",
          "Software",
          "ProgrammingLanguage"
        ],
        "matchingTokens": [
          15
        ],
        "entityId": "C++",
        "freebaseTypes": [
          "/media_common/quotation_subject",
          "/computer/programming_language",
          "/education/field_of_study",
          "/book/book_subject"
        ],
        "confidenceScore": 24.1,
        "wikiLink": "http://en.wikipedia.org/wiki/C++",
        "matchedText": "C++",
        "freebaseId": "/m/042tkd",
        "relevanceScore": 0.2746,
        "entityEnglishId": "C++",
        "startingPos": 57,
        "endingPos": 60,
        "wikidataId": "Q2407"
      },
      {
        "id": 7,
        "type": [
          "Work",
          "Software",
          "ProgrammingLanguage"
        ],
        "matchingTokens": [
          17
        ],
        "entityId": "C (programming language)",
        "freebaseTypes": [
          "/media_common/quotation_subject",
          "/computer/programming_language",
          "/book/book_subject"
        ],
        "confidenceScore": 3.642,
        "wikiLink": "http://en.wikipedia.org/wiki/C_(programming_language)",
        "matchedText": "C",
        "freebaseId": "/m/01t6b",
        "relevanceScore": 0.3556,
        "entityEnglishId": "C (programming language)",
        "startingPos": 62,
        "endingPos": 63,
        "wikidataId": "Q15777"
      }
    ]
  },
  "time": 0.06226,
  "ok": true
}