{
  "response": {
    "language": "eng",
    "languageIsReliable": true,
    "entities": [
      {
        "id": 0,
        "matchingTokens": [
          710
        ],
        "entityId": "Bleacher",
        "confidenceScore": 1.538,
        "wikiLink": "http://en.wikipedia.org/wiki/Bleacher",
        "matchedText": "Bleacher",
        "freebaseId": "/m/03pfs3",
        "relevanceScore": 0.2423,
        "entityEnglishId": "Bleacher",
        "startingPos": 3501,
        "endingPos": 3509,
        "wikidataId": "Q2067349"
      },
      {
        "id": 1,
        "type": [
          "Work",
          "Agent",
          "Website",
          "Organisation",
          "Company"
        ],
        "matchingTokens": [
          710,
          711
        ],
        "entityId": "Bleacher Report",
        "freebaseTypes": [
          "/venture_capital/venture_funded_company",
          "/business/business_operation",
          "/organization/organization",
          "/business/employer",
          "/business/customer",
          "/internet/website_owner"
        ],
        "confidenceScore": 5.327,
        "wikiLink": "http://en.wikipedia.org/wiki/Bleacher_Report",
        "matchedText": "Bleacher Report",
        "freebaseId": "/m/05f9v3m",
        "relevanceScore": 0.1371,
        "entityEnglishId": "Bleacher Report",
        "startingPos": 3501,
        "endingPos": 3516,
        "wikidataId": "Q2906353",
        "crunchbaseId": "bleacher-report",
        "permid": "4297906589"
      },
      {
        "id": 2,
        "type": [
          "Place",
          "PopulatedPlace",
          "Country"
        ],
        "matchingTokens": [
          134,
          135,
          136
        ],
        "entityId": "United States",
        "freebaseTypes": [
          "/location/location",
          "/tv/tv_location",
          "/sports/sports_team_location",
          "/event/speech_topic",
          "/organization/organization_sector",
          "/government/governmental_jurisdiction",
          "/olympics/olympic_participating_country",
          "/location/administrative_division",
          "/location/country",
          "/sports/sport_country",
          "/periodicals/newspaper_circulation_area",
          "/location/location",
          "/travel/travel_destination",
          "/media_common/quotation_subject",
          "/meteorology/cyclone_affected_area",
          "/biology/breed_origin",
          "/exhibitions/exhibition_subject",
          "/religion/religious_leadership_jurisdiction",
          "/radio/radio_subject",
          "/location/dated_location",
          "/organization/contact_category",
          "/organization/organization_founder",
          "/film/film_location",
          "/location/statistical_region",
          "/business/business_location",
          "/media_common/quotation_addressee",
          "/government/government",
          "/military/military_unit_place_of_origin",
          "/fictional_universe/fictional_setting",
          "/symbols/flag_referent",
          "/symbols/name_source",
          "/book/book_subject",
          "/business/employer",
          "/organization/organization_member",
          "/business/asset_owner",
          "/film/film_subject",
          "/food/beer_country_region",
          "/organization/organization_scope",
          "/cvg/computer_game_region",
          "/military/military_combatant",
          "/law/court_jurisdiction_area"
        ],
        "confidenceScore": 32.95,
        "wikiLink": "http://en.wikipedia.org/wiki/United_States",
        "matchedText": "the United States",
        "freebaseId": "/m/09c7w0",
        "relevanceScore": 0.1389,
        "entityEnglishId": "United States",
        "startingPos": 650,
        "endingPos": 667,
        "wikidataId": "Q30"
      },
      {
        "id": 3,
        "matchingTokens": [
          179
        ],
        "entityId": "Galaxy",
        "freebaseTypes": [
          "/book/book_subject",
          "/astronomy/celestial_object_category"
        ],
        "confidenceScore": 1.034,
        "wikiLink": "http://en.wikipedia.org/wiki/Galaxy",
        "matchedText": "Galaxy",
        "freebaseId": "/m/039b5",
        "relevanceScore": 0.09586,
        "entityEnglishId": "Galaxy",
        "startingPos": 871,
        "endingPos": 877,
        "wikidataId": "Q318"
      },
      {
        "id": 4,
        "type": [
          "Number"
        ],
        "matchingTokens": [
          411
        ],
        "entityId": "10",
        "confidenceScore": 0.5,
        "wikiLink": "",
        "matchedText": "10",
        "relevanceScore": 0,
        "entityEnglishId": "",
        "startingPos": 1997,
        "endingPos": 1999,
        "unit": "Number"
      },
      {
        "id": 5,
        "type": [
          "Number"
        ],
        "matchingTokens": [
          445
        ],
        "entityId": "8",
        "confidenceScore": 0.5,
        "wikiLink": "",
        "matchedText": "8",
        "relevanceScore": 0,
        "entityEnglishId": "",
        "startingPos": 2175,
        "endingPos": 2176,
        "unit": "Number"
      },
      {
        "id": 6,
        "type": [
          "Number"
        ],
        "matchingTokens": [
          447
        ],
        "entityId": "10",
        "confidenceScore": 0.5,
        "wikiLink": "",
        "matchedText": "10",
        "relevanceScore": 0,
        "entityEnglishId": "",
        "startingPos": 2180,
        "endingPos": 2182,
        "unit": "Number"
      },
      {
        "id": 7,
        "matchingTokens": [
          219,
          220
        ],
        "entityId": "Luck",
        "freebaseTypes": [
          "/film/film_subject",
          "/media_common/quotation_subject"
        ],
        "confidenceScore": 1.381,
        "wikiLink": "http://en.wikipedia.org/wiki/Luck",
        "matchedText": "good luck",
        "freebaseId": "/m/01bchv",
        "relevanceScore": 0.2919,
        "entityEnglishId": "Luck",
        "startingPos": 1064,
        "endingPos": 1073,
        "wikidataId": "Q1970348"
      },
      {
        "id": 8,
        "type": [
          "Number"
        ],
        "matchingTokens": [
          211
        ],
        "entityId": "10",
        "confidenceScore": 0.5,
        "wikiLink": "",
        "matchedText": "10",
        "relevanceScore": 0,
        "entityEnglishId": "",
        "startingPos": 1021,
        "endingPos": 1023,
        "unit": "Number"
      },
      {
        "id": 9,
        "type": [
          "Number"
        ],
        "matchingTokens": [
          209
        ],
        "entityId": "4",
        "confidenceScore": 0.5,
        "wikiLink": "",
        "matchedText": "4",
        "relevanceScore": 0,
        "entityEnglishId": "",
        "startingPos": 1016,
        "endingPos": 1017,
        "unit": "Number"
      },
      {
        "id": 10,
        "type": [
          "Number"
        ],
        "matchingTokens": [
          131
        ],
        "entityId": "10",
        "confidenceScore": 0.5,
        "wikiLink": "",
        "matchedText": "10",
        "relevanceScore": 0,
        "entityEnglishId": "",
        "startingPos": 643,
        "endingPos": 645,
        "unit": "Number"
      },
      {
        "id": 11,
        "matchingTokens": [
          494
        ],
        "entityId": "Hairstyle",
        "freebaseTypes": [
          "/award/award_discipline",
          "/film/film_job",
          "/people/profession"
        ],
        "confidenceScore": 2.139,
        "wikiLink": "http://en.wikipedia.org/wiki/Hairstyle",
        "matchedText": "Haircut",
        "freebaseId": "/m/0ds4x",
        "relevanceScore": 0.2758,
        "entityEnglishId": "Hairstyle",
        "startingPos": 2410,
        "endingPos": 2417,
        "wikidataId": "Q327496"
      },
      {
        "id": 12,
        "matchingTokens": [
          270,
          271
        ],
        "entityId": "Luck",
        "freebaseTypes": [
          "/film/film_subject",
          "/media_common/quotation_subject"
        ],
        "confidenceScore": 1.381,
        "wikiLink": "http://en.wikipedia.org/wiki/Luck",
        "matchedText": "good luck",
        "freebaseId": "/m/01bchv",
        "relevanceScore": 0.2919,
        "entityEnglishId": "Luck",
        "startingPos": 1322,
        "endingPos": 1331,
        "wikidataId": "Q1970348"
      },
      {
        "id": 13,
        "matchingTokens": [
          386,
          387
        ],
        "entityId": "Changing room",
        "confidenceScore": 1.703,
        "wikiLink": "http://en.wikipedia.org/wiki/Changing_room",
        "matchedText": "locker room",
        "freebaseId": "/m/03yfyt",
        "relevanceScore": 0.3413,
        "entityEnglishId": "Changing room",
        "startingPos": 1868,
        "endingPos": 1879,
        "wikidataId": "Q1070054"
      },
      {
        "id": 14,
        "type": [
          "AnatomicalStructure"
        ],
        "matchingTokens": [
          201
        ],
        "entityId": "Beard",
        "freebaseTypes": [
          "/media_common/quotation_subject"
        ],
        "confidenceScore": 1.928,
        "wikiLink": "http://en.wikipedia.org/wiki/Beard",
        "matchedText": "beard",
        "freebaseId": "/m/015h_t",
        "relevanceScore": 0.3615,
        "entityEnglishId": "Beard",
        "startingPos": 980,
        "endingPos": 985,
        "wikidataId": "Q42804"
      },
      {
        "id": 15,
        "matchingTokens": [
          310
        ],
        "entityId": "Sock",
        "freebaseTypes": [
          "/business/product_category",
          "/fashion/garment",
          "/book/book_subject",
          "/business/industry",
          "/business/product_category",
          "/business/product_category"
        ],
        "confidenceScore": 0.9803,
        "wikiLink": "http://en.wikipedia.org/wiki/Sock",
        "matchedText": "socks",
        "freebaseId": "/m/0jwvhxv",
        "relevanceScore": 0.2066,
        "entityEnglishId": "Sock",
        "startingPos": 1521,
        "endingPos": 1526,
        "wikidataId": "Q43663"
      },
      {
        "id": 16,
        "type": [
          "Number"
        ],
        "matchingTokens": [
          604
        ],
        "entityId": "10",
        "confidenceScore": 0.5,
        "wikiLink": "",
        "matchedText": "10",
        "relevanceScore": 0,
        "entityEnglishId": "",
        "startingPos": 2964,
        "endingPos": 2966
      },
      {
        "id": 17,
        "type": [
          "Number"
        ],
        "matchingTokens": [
          607
        ],
        "entityId": "0",
        "confidenceScore": 0.5,
        "wikiLink": "",
        "matchedText": "0",
        "relevanceScore": 0,
        "entityEnglishId": "",
        "startingPos": 2988,
        "endingPos": 2989
      },
      {
        "id": 18,
        "type": [
          "Number"
        ],
        "matchingTokens": [
          700
        ],
        "entityId": "10",
        "confidenceScore": 0.5,
        "wikiLink": "",
        "matchedText": "10",
        "relevanceScore": 0,
        "entityEnglishId": "",
        "startingPos": 3457,
        "endingPos": 3459
      },
      {
        "id": 19,
        "type": [
          "Time"
        ],
        "matchingTokens": [
          276
        ],
        "entityId": "1998-01-01T00:00:00.000+00:00",
        "confidenceScore": 0.5,
        "wikiLink": "",
        "matchedText": "1998",
        "relevanceScore": 0,
        "entityEnglishId": "",
        "startingPos": 1354,
        "endingPos": 1358
      },
      {
        "id": 20,
        "type": [
          "Number"
        ],
        "matchingTokens": [
          609
        ],
        "entityId": "10",
        "confidenceScore": 0.5,
        "wikiLink": "",
        "matchedText": "10",
        "relevanceScore": 0,
        "entityEnglishId": "",
        "startingPos": 2993,
        "endingPos": 2995
      },
      {
        "id": 21,
        "type": [
          "Number"
        ],
        "matchingTokens": [
          336
        ],
        "entityId": "10",
        "confidenceScore": 0.5,
        "wikiLink": "",
        "matchedText": "10",
        "relevanceScore": 0,
        "entityEnglishId": "",
        "startingPos": 1634,
        "endingPos": 1636,
        "unit": "Number"
      },
      {
        "id": 22,
        "type": [
          "Number"
        ],
        "matchingTokens": [
          409
        ],
        "entityId": "7",
        "confidenceScore": 0.5,
        "wikiLink": "",
        "matchedText": "7",
        "relevanceScore": 0,
        "entityEnglishId": "",
        "startingPos": 1992,
        "endingPos": 1993,
        "unit": "Number"
      },
      {
        "id": 23,
        "type": [
          "Number"
        ],
        "matchingTokens": [
          334
        ],
        "entityId": "6",
        "confidenceScore": 0.5,
        "wikiLink": "",
        "matchedText": "6",
        "relevanceScore": 0,
        "entityEnglishId": "",
        "startingPos": 1629,
        "endingPos": 1630,
        "unit": "Number"
      },
      {
        "id": 24,
        "type": [
          "Number"
        ],
        "matchingTokens": [
          284
        ],
        "entityId": "10",
        "confidenceScore": 0.5,
        "wikiLink": "",
        "matchedText": "10",
        "relevanceScore": 0,
        "entityEnglishId": "",
        "startingPos": 1390,
        "endingPos": 1392,
        "unit": "Number"
      },
      {
        "id": 25,
        "type": [
          "Number"
        ],
        "matchingTokens": [
          282
        ],
        "entityId": "5",
        "confidenceScore": 0.5,
        "wikiLink": "",
        "matchedText": "5",
        "relevanceScore": 0,
        "entityEnglishId": "",
        "startingPos": 1385,
        "endingPos": 1386,
        "unit": "Number"
      },
      {
        "id": 26,
        "matchingTokens": [
          606
        ],
        "entityId": "Superstition",
        "freebaseTypes": [
          "/book/book_subject",
          "/media_common/quotation_subject"
        ],
        "confidenceScore": 3.014,
        "wikiLink": "http://en.wikipedia.org/wiki/Superstition",
        "matchedText": "Superstitions",
        "freebaseId": "/m/0bn3l",
        "relevanceScore": 0.2384,
        "entityEnglishId": "Superstition",
        "startingPos": 2974,
        "endingPos": 2987,
        "wikidataId": "Q133182"
      },
      {
        "id": 27,
        "type": [
          "AnatomicalStructure"
        ],
        "matchingTokens": [
          146
        ],
        "entityId": "Beard",
        "freebaseTypes": [
          "/media_common/quotation_subject"
        ],
        "confidenceScore": 2.44,
        "wikiLink": "http://en.wikipedia.org/wiki/Beard",
        "matchedText": "beard",
        "freebaseId": "/m/015h_t",
        "relevanceScore": 0.3615,
        "entityEnglishId": "Beard",
        "startingPos": 701,
        "endingPos": 706,
        "wikidataId": "Q42804"
      },
      {
        "id": 28,
        "matchingTokens": [
          145
        ],
        "entityId": "Playoffs",
        "confidenceScore": 1.008,
        "wikiLink": "http://en.wikipedia.org/wiki/Playoffs",
        "matchedText": "playoff",
        "freebaseId": "/m/0jxrg",
        "relevanceScore": 0.2373,
        "entityEnglishId": "Playoffs",
        "startingPos": 693,
        "endingPos": 700,
        "wikidataId": "Q868291"
      },
      {
        "id": 29,
        "matchingTokens": [
          0
        ],
        "entityId": "Public toilet",
        "confidenceScore": 1.909,
        "wikiLink": "http://en.wikipedia.org/wiki/Public_toilet",
        "matchedText": "Washroom",
        "freebaseId": "/m/041x_j",
        "relevanceScore": 0.3938,
        "entityEnglishId": "Public toilet",
        "startingPos": 0,
        "endingPos": 8,
        "wikidataId": "Q813966"
      },
      {
        "id": 30,
        "type": [
          "Number"
        ],
        "matchingTokens": [
          497
        ],
        "entityId": "10",
        "confidenceScore": 0.5,
        "wikiLink": "",
        "matchedText": "10",
        "relevanceScore": 0,
        "entityEnglishId": "",
        "startingPos": 2423,
        "endingPos": 2425,
        "unit": "Number"
      },
      {
        "id": 31,
        "type": [
          "Number"
        ],
        "matchingTokens": [
          560
        ],
        "entityId": "10",
        "confidenceScore": 0.5,
        "wikiLink": "",
        "matchedText": "10",
        "relevanceScore": 0,
        "entityEnglishId": "",
        "startingPos": 2732,
        "endingPos": 2734,
        "unit": "Number"
      },
      {
        "id": 32,
        "type": [
          "Number"
        ],
        "matchingTokens": [
          495
        ],
        "entityId": "9",
        "confidenceScore": 0.5,
        "wikiLink": "",
        "matchedText": "9",
        "relevanceScore": 0,
        "entityEnglishId": "",
        "startingPos": 2418,
        "endingPos": 2419,
        "unit": "Number"
      },
      {
        "id": 33,
        "type": [
          "Number"
        ],
        "matchingTokens": [
          562
        ],
        "entityId": "10",
        "confidenceScore": 0.5,
        "wikiLink": "",
        "matchedText": "10",
        "relevanceScore": 0,
        "entityEnglishId": "",
        "startingPos": 2738,
        "endingPos": 2740,
        "unit": "Number"
      },
      {
        "id": 34,
        "type": [
          "Time"
        ],
        "matchingTokens": [
          203,
          204
        ],
        "entityId": "1993-01-01T00:00:00.000+00:00",
        "confidenceScore": 0.5,
        "wikiLink": "",
        "matchedText": "in 1993",
        "relevanceScore": 0,
        "entityEnglishId": "",
        "startingPos": 990,
        "endingPos": 997
      },
      {
        "id": 35,
        "type": [
          "Number"
        ],
        "matchingTokens": [
          4
        ],
        "entityId": "10",
        "confidenceScore": 0.5,
        "wikiLink": "",
        "matchedText": "10",
        "relevanceScore": 0,
        "entityEnglishId": "",
        "startingPos": 22,
        "endingPos": 24,
        "unit": "Number"
      },
      {
        "id": 36,
        "type": [
          "Number"
        ],
        "matchingTokens": [
          2
        ],
        "entityId": "1",
        "confidenceScore": 0.5,
        "wikiLink": "",
        "matchedText": "1",
        "relevanceScore": 0,
        "entityEnglishId": "",
        "startingPos": 17,
        "endingPos": 18,
        "unit": "Number"
      },
      {
        "id": 37,
        "matchingTokens": [
          612
        ],
        "entityId": "Sport",
        "freebaseTypes": [
          "/comic_books/comic_book_genre",
          "/tv/tv_genre",
          "/book/periodical_subject",
          "/media_common/media_genre_equivalent_topic",
          "/book/magazine_genre",
          "/internet/website_category",
          "/broadcast/content",
          "/broadcast/radio_format",
          "/broadcast/genre",
          "/tv/tv_subject",
          "/exhibitions/exhibition_subject",
          "/education/field_of_study",
          "/medicine/risk_factor",
          "/business/industry",
          "/tv/tv_series_season",
          "/media_common/quotation_subject",
          "/computer/software_genre",
          "/book/book_subject",
          "/organization/organization_sector",
          "/award/hall_of_fame_discipline",
          "/award/award_discipline",
          "/film/film_subject",
          "/radio/radio_subject",
          "/business/consumer_product",
          "/media_common/media_genre",
          "/film/film_genre",
          "/cvg/cvg_genre"
        ],
        "confidenceScore": 1.267,
        "wikiLink": "http://en.wikipedia.org/wiki/Sport",
        "matchedText": "sport",
        "freebaseId": "/m/06ntj",
        "relevanceScore": 0.1978,
        "entityEnglishId": "Sport",
        "startingPos": 3003,
        "endingPos": 3008,
        "wikidataId": "Q349"
      },
      {
        "id": 38,
        "type": [
          "Event",
          "SocietalEvent",
          "SportsEvent"
        ],
        "matchingTokens": [
          277,
          278
        ],
        "entityId": "FIFA World Cup",
        "freebaseTypes": [
          "/soccer/football_award",
          "/time/recurring_event",
          "/sports/sports_championship",
          "/film/film_subject"
        ],
        "confidenceScore": 3.926,
        "wikiLink": "http://en.wikipedia.org/wiki/FIFA_World_Cup",
        "matchedText": "World Cup",
        "freebaseId": "/m/030q7",
        "relevanceScore": 0.1972,
        "entityEnglishId": "FIFA World Cup",
        "startingPos": 1359,
        "endingPos": 1368,
        "wikidataId": "Q19317"
      },
      {
        "id": 39,
        "type": [
          "Event",
          "SocietalEvent",
          "SportsEvent",
          "Tournament",
          "SoccerTournament"
        ],
        "matchingTokens": [
          276,
          277,
          278
        ],
        "entityId": "1998 FIFA World Cup",
        "freebaseTypes": [
          "/sports/multi_event_tournament",
          "/book/book_subject",
          "/sports/sports_championship_event",
          "/soccer/football_award",
          "/time/event",
          "/sports/sports_award_type",
          "/soccer/football_world_cup",
          "/sports/tournament_event_competition",
          "/film/film_subject",
          "/organization/organization"
        ],
        "confidenceScore": 1.542,
        "wikiLink": "http://en.wikipedia.org/wiki/1998_FIFA_World_Cup",
        "matchedText": "1998 World Cup",
        "freebaseId": "/m/064r745",
        "relevanceScore": 0.2733,
        "entityEnglishId": "1998 FIFA World Cup",
        "startingPos": 1354,
        "endingPos": 1368,
        "wikidataId": "Q101730"
      },
      {
        "id": 40,
        "matchingTokens": [
          415
        ],
        "entityId": "Ritual",
        "freebaseTypes": [
          "/religion/religious_practice"
        ],
        "confidenceScore": 1.117,
        "wikiLink": "http://en.wikipedia.org/wiki/Ritual",
        "matchedText": "ritual",
        "freebaseId": "/m/0p_66",
        "relevanceScore": 0.1339,
        "entityEnglishId": "Ritual",
        "startingPos": 2016,
        "endingPos": 2022,
        "wikidataId": "Q189819"
      },
      {
        "id": 41,
        "type": [
          "Person"
        ],
        "matchingTokens": [
          267,
          268
        ],
        "entityId": "Fabian Barthez",
        "freebaseTypes": [
          "/people/person"
        ],
        "confidenceScore": 0.5,
        "wikiLink": "",
        "matchedText": "Fabian Barthez",
        "relevanceScore": 0,
        "entityEnglishId": "",
        "startingPos": 1303,
        "endingPos": 1317
      },
      {
        "id": 42,
        "type": [
          "Activity",
          "Sport"
        ],
        "matchingTokens": [
          302
        ],
        "entityId": "Association football",
        "freebaseTypes": [
          "/olympics/olympic_participating_country",
          "/interests/hobby",
          "/book/book_subject",
          "/olympics/olympic_sport",
          "/media_common/media_genre",
          "/organization/club_interest",
          "/interests/hobbyist",
          "/internet/website_category",
          "/sports/sport",
          "/award/competition_type",
          "/award/award_discipline",
          "/cvg/computer_game_subject",
          "/film/film_subject",
          "/interests/interest",
          "/cvg/cvg_genre",
          "/organization/organization_sector",
          "/award/hall_of_fame_induction_category",
          "/broadcast/genre",
          "/media_common/netflix_genre",
          "/book/periodical_subject",
          "/tv/tv_subject",
          "/exhibitions/exhibition_subject",
          "/comic_books/comic_book_genre",
          "/sports/school_sports_team",
          "/award/hall_of_fame_discipline",
          "/sports/sports_team"
        ],
        "confidenceScore": 76.21,
        "wikiLink": "http://en.wikipedia.org/wiki/Association_football",
        "matchedText": "football",
        "freebaseId": "/m/0fxc1s",
        "relevanceScore": 0.3945,
        "entityEnglishId": "Association football",
        "startingPos": 1471,
        "endingPos": 1479,
        "wikidataId": "Q2736"
      },
      {
        "id": 43,
        "matchingTokens": [
          127,
          128
        ],
        "entityId": "Playoff beard",
        "confidenceScore": 3.762,
        "wikiLink": "http://en.wikipedia.org/wiki/Playoff_beard",
        "matchedText": "Playoff Beard",
        "freebaseId": "/m/04k_11",
        "relevanceScore": 0.1418,
        "entityEnglishId": "Playoff beard",
        "startingPos": 624,
        "endingPos": 637,
        "wikidataId": "Q2398442"
      },
      {
        "id": 44,
        "type": [
          "AnatomicalStructure"
        ],
        "matchingTokens": [
          128
        ],
        "entityId": "Beard",
        "freebaseTypes": [
          "/media_common/quotation_subject"
        ],
        "confidenceScore": 1.808,
        "wikiLink": "http://en.wikipedia.org/wiki/Beard",
        "matchedText": "Beard",
        "freebaseId": "/m/015h_t",
        "relevanceScore": 0.3615,
        "entityEnglishId": "Beard",
        "startingPos": 632,
        "endingPos": 637,
        "wikidataId": "Q42804"
      },
      {
        "id": 45,
        "type": [
          "Event",
          "SocietalEvent",
          "SportsEvent",
          "Tournament",
          "SoccerTournament"
        ],
        "matchingTokens": [
          198,
          199
        ],
        "entityId": "FA Cup",
        "freebaseTypes": [
          "/sports/sports_championship",
          "/sports/sports_award_type",
          "/soccer/football_award",
          "/time/recurring_event"
        ],
        "confidenceScore": 24.53,
        "wikiLink": "http://en.wikipedia.org/wiki/FA_Cup",
        "matchedText": "FA Cup",
        "freebaseId": "/m/011vlyzv",
        "relevanceScore": 0.2874,
        "entityEnglishId": "FA Cup",
        "startingPos": 965,
        "endingPos": 971,
        "wikidataId": "Q11151"
      },
      {
        "id": 46,
        "type": [
          "Number"
        ],
        "matchingTokens": [
          60
        ],
        "entityId": "10",
        "confidenceScore": 0.5,
        "wikiLink": "",
        "matchedText": "10",
        "relevanceScore": 0,
        "entityEnglishId": "",
        "startingPos": 307,
        "endingPos": 309,
        "unit": "Number"
      },
      {
        "id": 47,
        "type": [
          "Number"
        ],
        "matchingTokens": [
          58
        ],
        "entityId": "2",
        "confidenceScore": 0.5,
        "wikiLink": "",
        "matchedText": "2",
        "relevanceScore": 0,
        "entityEnglishId": "",
        "startingPos": 302,
        "endingPos": 303,
        "unit": "Number"
      },
      {
        "id": 48,
        "type": [
          "Number"
        ],
        "matchingTokens": [
          129
        ],
        "entityId": "3",
        "confidenceScore": 0.5,
        "wikiLink": "",
        "matchedText": "3",
        "relevanceScore": 0,
        "entityEnglishId": "",
        "startingPos": 638,
        "endingPos": 639,
        "unit": "Number"
      },
      {
        "id": 49,
        "type": [
          "Agent",
          "Organisation",
          "SportsTeam",
          "SoccerClub"
        ],
        "matchingTokens": [
          41,
          42
        ],
        "entityId": "Chelsea F.C.",
        "freebaseTypes": [
          "/business/employer",
          "/sports/professional_sports_team",
          "/sports/sports_award_winner",
          "/business/business_operation",
          "/sports/sports_team",
          "/organization/organization",
          "/soccer/football_team"
        ],
        "confidenceScore": 11.06,
        "wikiLink": "http://en.wikipedia.org/wiki/Chelsea_F.C.",
        "matchedText": "Chelsea's",
        "freebaseId": "/m/023fb",
        "relevanceScore": 0.4219,
        "entityEnglishId": "Chelsea F.C.",
        "startingPos": 211,
        "endingPos": 220,
        "wikidataId": "Q9616",
        "crunchbaseId": "chelsea-football-club",
        "lei": "213800I8KN4D7H4WBK36",
        "permid": "4298156724"
      },
      {
        "id": 50,
        "type": [
          "Agent",
          "Person",
          "Athlete",
          "SoccerPlayer"
        ],
        "matchingTokens": [
          43,
          44
        ],
        "entityId": "John Terry",
        "freebaseTypes": [
          "/soccer/football_player",
          "/film/person_or_entity_appearing_in_film",
          "/sports/pro_athlete",
          "/people/person",
          "/tv/tv_actor",
          "/people/measured_person"
        ],
        "confidenceScore": 6.026,
        "wikiLink": "http://en.wikipedia.org/wiki/John_Terry",
        "matchedText": "John Terry",
        "freebaseId": "/m/029f79",
        "relevanceScore": 0.4597,
        "entityEnglishId": "John Terry",
        "startingPos": 221,
        "endingPos": 231,
        "wikidataId": "Q83456"
      },
      {
        "id": 51,
        "type": [
          "Activity",
          "Sport"
        ],
        "matchingTokens": [
          173
        ],
        "entityId": "Association football",
        "freebaseTypes": [
          "/olympics/olympic_participating_country",
          "/interests/hobby",
          "/book/book_subject",
          "/olympics/olympic_sport",
          "/media_common/media_genre",
          "/organization/club_interest",
          "/interests/hobbyist",
          "/internet/website_category",
          "/sports/sport",
          "/award/competition_type",
          "/award/award_discipline",
          "/cvg/computer_game_subject",
          "/film/film_subject",
          "/interests/interest",
          "/cvg/cvg_genre",
          "/organization/organization_sector",
          "/award/hall_of_fame_induction_category",
          "/broadcast/genre",
          "/media_common/netflix_genre",
          "/book/periodical_subject",
          "/tv/tv_subject",
          "/exhibitions/exhibition_subject",
          "/comic_books/comic_book_genre",
          "/sports/school_sports_team",
          "/award/hall_of_fame_discipline",
          "/sports/sports_team"
        ],
        "confidenceScore": 76.21,
        "wikiLink": "http://en.wikipedia.org/wiki/Association_football",
        "matchedText": "Soccer",
        "freebaseId": "/m/0fxc1s",
        "relevanceScore": 0.365,
        "entityEnglishId": "Association football",
        "startingPos": 840,
        "endingPos": 846,
        "wikidataId": "Q2736"
      },
      {
        "id": 52,
        "type": [
          "Agent",
          "Event",
          "Organisation",
          "SocietalEvent",
          "SportsLeague",
          "SportsEvent",
          "SoccerLeague"
        ],
        "matchingTokens": [
          171,
          172,
          173
        ],
        "entityId": "Major League Soccer",
        "freebaseTypes": [
          "/soccer/football_league",
          "/book/book_subject",
          "/organization/organization",
          "/sports/sports_league",
          "/business/employer",
          "/business/consumer_company",
          "/time/recurring_event",
          "/business/business_operation"
        ],
        "confidenceScore": 21,
        "wikiLink": "http://en.wikipedia.org/wiki/Major_League_Soccer",
        "matchedText": "Major League Soccer",
        "freebaseId": "/m/0jfpf",
        "relevanceScore": 0.2461,
        "entityEnglishId": "Major League Soccer",
        "startingPos": 827,
        "endingPos": 846,
        "wikidataId": "Q18543",
        "crunchbaseId": "major-league-soccer",
        "permid": "4297912088"
      },
      {
        "id": 53,
        "type": [
          "Agent",
          "Organisation",
          "SportsTeam",
          "SoccerClub"
        ],
        "matchingTokens": [
          257,
          258,
          259
        ],
        "entityId": "France national football team",
        "freebaseTypes": [
          "/soccer/football_team",
          "/award/award_nominee",
          "/award/award_winner",
          "/sports/sports_team"
        ],
        "confidenceScore": 2.333,
        "wikiLink": "http://en.wikipedia.org/wiki/France_national_football_team",
        "matchedText": "French National team",
        "freebaseId": "/m/01l3vx",
        "relevanceScore": 0.3152,
        "entityEnglishId": "France national football team",
        "startingPos": 1244,
        "endingPos": 1264,
        "wikidataId": "Q47774"
      },
      {
        "id": 54,
        "type": [
          "Agent",
          "Organisation",
          "SportsTeam",
          "SoccerClub"
        ],
        "matchingTokens": [
          192,
          193
        ],
        "entityId": "Sheffield United F.C.",
        "freebaseTypes": [
          "/sports/sports_team",
          "/award/award_nominee",
          "/soccer/football_team"
        ],
        "confidenceScore": 10.9,
        "wikiLink": "http://en.wikipedia.org/wiki/Sheffield_United_F.C.",
        "matchedText": "Sheffield United",
        "freebaseId": "/m/01tqfs",
        "relevanceScore": 0.3076,
        "entityEnglishId": "Sheffield United F.C.",
        "startingPos": 932,
        "endingPos": 948,
        "wikidataId": "Q19607",
        "lei": "2138001SP1NOPK4QWY14",
        "permid": "4295898178"
      },
      {
        "id": 55,
        "type": [
          "Activity",
          "Sport"
        ],
        "matchingTokens": [
          632
        ],
        "entityId": "Baseball",
        "freebaseTypes": [
          "/media_common/quotation_subject",
          "/film/film_subject",
          "/cvg/computer_game_subject",
          "/sports/sport",
          "/broadcast/genre",
          "/media_common/media_genre",
          "/tv/tv_subject",
          "/media_common/netflix_genre",
          "/interests/interest",
          "/cvg/cvg_genre",
          "/interests/hobby",
          "/sports/sports_team",
          "/book/book_subject",
          "/olympics/olympic_sport",
          "/organization/organization_sector",
          "/visual_art/art_subject",
          "/sports/school_sports_team"
        ],
        "confidenceScore": 9.307,
        "wikiLink": "http://en.wikipedia.org/wiki/Baseball",
        "matchedText": "Baseball",
        "freebaseId": "/m/018jz",
        "relevanceScore": 0.2193,
        "entityEnglishId": "Baseball",
        "startingPos": 3106,
        "endingPos": 3114,
        "wikidataId": "Q5369"
      },
      {
        "id": 56,
        "type": [
          "Agent",
          "Event",
          "Organisation",
          "SocietalEvent",
          "SportsLeague",
          "SportsEvent",
          "BaseballLeague"
        ],
        "matchingTokens": [
          630,
          631,
          632
        ],
        "entityId": "Major League Baseball",
        "freebaseTypes": [
          "/business/employer",
          "/business/business_operation",
          "/business/sponsored_recipient",
          "/award/award_presenting_organization",
          "/award/award_nominee",
          "/internet/website_owner",
          "/baseball/baseball_league",
          "/award/award_winner",
          "/organization/organization",
          "/sports/sport",
          "/sports/sports_league"
        ],
        "confidenceScore": 16.21,
        "wikiLink": "http://en.wikipedia.org/wiki/Major_League_Baseball",
        "matchedText": "Major League Baseball",
        "freebaseId": "/m/09p14",
        "relevanceScore": 0.2003,
        "entityEnglishId": "Major League Baseball",
        "startingPos": 3093,
        "endingPos": 3114,
        "wikidataId": "Q1163715",
        "crunchbaseId": "major-league-baseball"
      },
      {
        "id": 57,
        "type": [
          "Agent",
          "Organisation",
          "SportsTeam",
          "SoccerClub"
        ],
        "matchingTokens": [
          178,
          179
        ],
        "entityId": "LA Galaxy",
        "freebaseTypes": [
          "/book/book_subject",
          "/soccer/football_team",
          "/sports/sports_team",
          "/organization/organization",
          "/business/employer"
        ],
        "confidenceScore": 7.768,
        "wikiLink": "http://en.wikipedia.org/wiki/LA_Galaxy",
        "matchedText": "LA Galaxy",
        "freebaseId": "/m/01k2yr",
        "relevanceScore": 0.3652,
        "entityEnglishId": "LA Galaxy",
        "startingPos": 868,
        "endingPos": 877,
        "wikidataId": "Q204357"
      },
      {
        "id": 58,
        "matchingTokens": [
          408
        ],
        "entityId": "Knickerbockers (clothing)",
        "freebaseTypes": [
          "/fashion/garment",
          "/business/product_category"
        ],
        "confidenceScore": 1.317,
        "wikiLink": "http://en.wikipedia.org/wiki/Knickerbockers_(clothing)",
        "matchedText": "Knickers",
        "freebaseId": "/m/0dmnzf",
        "relevanceScore": 0.3287,
        "entityEnglishId": "Knickerbockers (clothing)",
        "startingPos": 1983,
        "endingPos": 1991,
        "wikidataId": "Q365132"
      },
      {
        "id": 59,
        "matchingTokens": [
          452
        ],
        "entityId": "Superstition",
        "freebaseTypes": [
          "/book/book_subject",
          "/media_common/quotation_subject"
        ],
        "confidenceScore": 3.014,
        "wikiLink": "http://en.wikipedia.org/wiki/Superstition",
        "matchedText": "superstition",
        "freebaseId": "/m/0bn3l",
        "relevanceScore": 0.2384,
        "entityEnglishId": "Superstition",
        "startingPos": 2204,
        "endingPos": 2216,
        "wikidataId": "Q133182"
      },
      {
        "id": 60,
        "matchingTokens": [
          281
        ],
        "entityId": "Sock",
        "freebaseTypes": [
          "/business/product_category",
          "/fashion/garment",
          "/book/book_subject",
          "/business/industry",
          "/business/product_category",
          "/business/product_category"
        ],
        "confidenceScore": 0.9803,
        "wikiLink": "http://en.wikipedia.org/wiki/Sock",
        "matchedText": "Socks",
        "freebaseId": "/m/0jwvhxv",
        "relevanceScore": 0.2066,
        "entityEnglishId": "Sock",
        "startingPos": 1379,
        "endingPos": 1384,
        "wikidataId": "Q43663"
      },
      {
        "id": 61,
        "matchingTokens": [
          280,
          281
        ],
        "entityId": "Smelly socks",
        "confidenceScore": 2.381,
        "wikiLink": "http://en.wikipedia.org/wiki/Smelly_socks",
        "matchedText": "Smelly Socks",
        "freebaseId": "/m/05f6rxy",
        "relevanceScore": 0.2944,
        "entityEnglishId": "Smelly socks",
        "startingPos": 1372,
        "endingPos": 1384,
        "wikidataId": "Q7544406"
      },
      {
        "id": 62,
        "type": [
          "AnatomicalStructure"
        ],
        "matchingTokens": [
          156
        ],
        "entityId": "Beard",
        "freebaseTypes": [
          "/media_common/quotation_subject"
        ],
        "confidenceScore": 2.44,
        "wikiLink": "http://en.wikipedia.org/wiki/Beard",
        "matchedText": "beard",
        "freebaseId": "/m/015h_t",
        "relevanceScore": 0.3615,
        "entityEnglishId": "Beard",
        "startingPos": 743,
        "endingPos": 748,
        "wikidataId": "Q42804"
      },
      {
        "id": 63,
        "matchingTokens": [
          219,
          220,
          221
        ],
        "entityId": "Good luck charm",
        "confidenceScore": 1.499,
        "wikiLink": "http://en.wikipedia.org/wiki/Good_luck_charm",
        "matchedText": "good luck charms",
        "freebaseId": "/m/0l8pwb9",
        "relevanceScore": 0.1375,
        "entityEnglishId": "Good luck charm",
        "startingPos": 1064,
        "endingPos": 1080,
        "wikidataId": "Q5583126"
      },
      {
        "id": 64,
        "matchingTokens": [
          678
        ],
        "entityId": "Sport",
        "freebaseTypes": [
          "/comic_books/comic_book_genre",
          "/tv/tv_genre",
          "/book/periodical_subject",
          "/media_common/media_genre_equivalent_topic",
          "/book/magazine_genre",
          "/internet/website_category",
          "/broadcast/content",
          "/broadcast/radio_format",
          "/broadcast/genre",
          "/tv/tv_subject",
          "/exhibitions/exhibition_subject",
          "/education/field_of_study",
          "/medicine/risk_factor",
          "/business/industry",
          "/tv/tv_series_season",
          "/media_common/quotation_subject",
          "/computer/software_genre",
          "/book/book_subject",
          "/organization/organization_sector",
          "/award/hall_of_fame_discipline",
          "/award/award_discipline",
          "/film/film_subject",
          "/radio/radio_subject",
          "/business/consumer_product",
          "/media_common/media_genre",
          "/film/film_genre",
          "/cvg/cvg_genre"
        ],
        "confidenceScore": 5.834,
        "wikiLink": "http://en.wikipedia.org/wiki/Sport",
        "matchedText": "sport",
        "freebaseId": "/m/06ntj",
        "relevanceScore": 0.1978,
        "entityEnglishId": "Sport",
        "startingPos": 3348,
        "endingPos": 3353,
        "wikidataId": "Q349"
      },
      {
        "id": 65,
        "type": [
          "Place",
          "PopulatedPlace",
          "Country"
        ],
        "matchingTokens": [
          365
        ],
        "entityId": "England",
        "freebaseTypes": [
          "/fictional_universe/fictional_setting",
          "/sports/sport_country",
          "/location/location",
          "/government/governmental_jurisdiction",
          "/organization/organization_scope",
          "/location/country",
          "/sports/sports_team_location",
          "/olympics/olympic_participating_country",
          "/biology/breed_origin",
          "/book/book_subject",
          "/symbols/name_source",
          "/religion/religious_leadership_jurisdiction",
          "/film/film_subject",
          "/military/military_combatant",
          "/periodicals/newspaper_circulation_area",
          "/location/administrative_division",
          "/location/uk_constituent_country",
          "/military/military_post",
          "/food/beer_country_region",
          "/event/speech_topic",
          "/location/statistical_region",
          "/tv/tv_location",
          "/film/film_location",
          "/location/uk_statistical_location",
          "/symbols/flag_referent",
          "/travel/travel_destination",
          "/location/dated_location",
          "/law/court_jurisdiction_area"
        ],
        "confidenceScore": 6.986,
        "wikiLink": "http://en.wikipedia.org/wiki/England",
        "matchedText": "England",
        "freebaseId": "/m/02jx1",
        "relevanceScore": 0.1365,
        "entityEnglishId": "England",
        "startingPos": 1768,
        "endingPos": 1775,
        "wikidataId": "Q21"
      },
      {
        "id": 66,
        "type": [
          "Activity",
          "Sport"
        ],
        "matchingTokens": [
          645
        ],
        "entityId": "Association football",
        "freebaseTypes": [
          "/olympics/olympic_participating_country",
          "/interests/hobby",
          "/book/book_subject",
          "/olympics/olympic_sport",
          "/media_common/media_genre",
          "/organization/club_interest",
          "/interests/hobbyist",
          "/internet/website_category",
          "/sports/sport",
          "/award/competition_type",
          "/award/award_discipline",
          "/cvg/computer_game_subject",
          "/film/film_subject",
          "/interests/interest",
          "/cvg/cvg_genre",
          "/organization/organization_sector",
          "/award/hall_of_fame_induction_category",
          "/broadcast/genre",
          "/media_common/netflix_genre",
          "/book/periodical_subject",
          "/tv/tv_subject",
          "/exhibitions/exhibition_subject",
          "/comic_books/comic_book_genre",
          "/sports/school_sports_team",
          "/award/hall_of_fame_discipline",
          "/sports/sports_team"
        ],
        "confidenceScore": 76.21,
        "wikiLink": "http://en.wikipedia.org/wiki/Association_football",
        "matchedText": "Football",
        "freebaseId": "/m/0fxc1s",
        "relevanceScore": 0.3263,
        "entityEnglishId": "Association football",
        "startingPos": 3170,
        "endingPos": 3178,
        "wikidataId": "Q2736"
      },
      {
        "id": 67,
        "type": [
          "Agent",
          "Event",
          "Organisation",
          "SocietalEvent",
          "SportsLeague",
          "SportsEvent",
          "AmericanFootballLeague"
        ],
        "matchingTokens": [
          644,
          645,
          646
        ],
        "entityId": "National Football League",
        "freebaseTypes": [
          "/film/film_subject",
          "/business/employer",
          "/award/award_presenting_organization",
          "/book/author",
          "/organization/organization",
          "/book/periodical_subject",
          "/sports/sports_league",
          "/book/book_subject"
        ],
        "confidenceScore": 19.34,
        "wikiLink": "http://en.wikipedia.org/wiki/National_Football_League",
        "matchedText": "National Football League",
        "freebaseId": "/m/059yj",
        "relevanceScore": 0.1856,
        "entityEnglishId": "National Football League",
        "startingPos": 3161,
        "endingPos": 3185,
        "wikidataId": "Q1215884",
        "crunchbaseId": "nfl",
        "permid": "4296844260"
      },
      {
        "id": 68,
        "matchingTokens": [
          349,
          350
        ],
        "entityId": "Changing room",
        "confidenceScore": 1.703,
        "wikiLink": "http://en.wikipedia.org/wiki/Changing_room",
        "matchedText": "locker room",
        "freebaseId": "/m/03yfyt",
        "relevanceScore": 0.3413,
        "entityEnglishId": "Changing room",
        "startingPos": 1689,
        "endingPos": 1700,
        "wikidataId": "Q1070054"
      },
      {
        "id": 69,
        "type": [
          "Agent",
          "Person",
          "Athlete",
          "SoccerPlayer"
        ],
        "matchingTokens": [
          367,
          368
        ],
        "entityId": "Bobby Moore",
        "freebaseTypes": [
          "/medicine/notable_person_with_medical_condition",
          "/soccer/football_player",
          "/people/deceased_person",
          "/award/award_nominee",
          "/people/person",
          "/film/person_or_entity_appearing_in_film",
          "/film/actor",
          "/people/measured_person",
          "/music/artist",
          "/award/award_winner",
          "/sports/pro_athlete",
          "/tv/tv_actor"
        ],
        "confidenceScore": 3.335,
        "wikiLink": "http://en.wikipedia.org/wiki/Bobby_Moore",
        "matchedText": "Bobby Moore",
        "freebaseId": "/m/01c8f",
        "relevanceScore": 0.255,
        "entityEnglishId": "Bobby Moore",
        "startingPos": 1778,
        "endingPos": 1789,
        "wikidataId": "Q191492"
      },
      {
        "id": 70,
        "type": [
          "Agent",
          "Organisation",
          "SportsTeam",
          "SoccerClub"
        ],
        "matchingTokens": [
          582
        ],
        "entityId": "Tottenham Hotspur F.C.",
        "freebaseTypes": [
          "/sports/sports_award_winner",
          "/business/issuer",
          "/award/award_winner",
          "/soccer/football_team",
          "/sports/sports_team",
          "/business/employer",
          "/organization/organization"
        ],
        "confidenceScore": 3.123,
        "wikiLink": "http://en.wikipedia.org/wiki/Tottenham_Hotspur_F.C.",
        "matchedText": "Tottenham",
        "freebaseId": "/m/0hvjr",
        "relevanceScore": 0.1958,
        "entityEnglishId": "Tottenham Hotspur F.C.",
        "startingPos": 2841,
        "endingPos": 2850,
        "wikidataId": "Q18741",
        "crunchbaseId": "tottenham-hotspur",
        "lei": "213800Q2NBFKAB9VJ615",
        "permid": "4295898821"
      },
      {
        "id": 71,
        "matchingTokens": [
          585
        ],
        "entityId": "Forward (association football)",
        "freebaseTypes": [
          "/soccer/football_position",
          "/sports/sports_position",
          "/sports/sports_position",
          "/sports/sport",
          "/soccer/football_position"
        ],
        "confidenceScore": 11.54,
        "wikiLink": "http://en.wikipedia.org/wiki/Forward_(association_football)",
        "matchedText": "striker",
        "freebaseId": "/m/02sdk9v",
        "relevanceScore": 0.1371,
        "entityEnglishId": "Forward (association football)",
        "startingPos": 2863,
        "endingPos": 2870,
        "wikidataId": "Q280658"
      },
      {
        "id": 72,
        "matchingTokens": [
          690
        ],
        "entityId": "Sport",
        "freebaseTypes": [
          "/comic_books/comic_book_genre",
          "/tv/tv_genre",
          "/book/periodical_subject",
          "/media_common/media_genre_equivalent_topic",
          "/book/magazine_genre",
          "/internet/website_category",
          "/broadcast/content",
          "/broadcast/radio_format",
          "/broadcast/genre",
          "/tv/tv_subject",
          "/exhibitions/exhibition_subject",
          "/education/field_of_study",
          "/medicine/risk_factor",
          "/business/industry",
          "/tv/tv_series_season",
          "/media_common/quotation_subject",
          "/computer/software_genre",
          "/book/book_subject",
          "/organization/organization_sector",
          "/award/hall_of_fame_discipline",
          "/award/award_discipline",
          "/film/film_subject",
          "/radio/radio_subject",
          "/business/consumer_product",
          "/media_common/media_genre",
          "/film/film_genre",
          "/cvg/cvg_genre"
        ],
        "confidenceScore": 5.834,
        "wikiLink": "http://en.wikipedia.org/wiki/Sport",
        "matchedText": "sport",
        "freebaseId": "/m/06ntj",
        "relevanceScore": 0.1978,
        "entityEnglishId": "Sport",
        "startingPos": 3421,
        "endingPos": 3426,
        "wikidataId": "Q349"
      },
      {
        "id": 73,
        "matchingTokens": [
          122
        ],
        "entityId": "Luck",
        "freebaseTypes": [
          "/film/film_subject",
          "/media_common/quotation_subject"
        ],
        "confidenceScore": 2.144,
        "wikiLink": "http://en.wikipedia.org/wiki/Luck",
        "matchedText": "luck",
        "freebaseId": "/m/01bchv",
        "relevanceScore": 0.2919,
        "entityEnglishId": "Luck",
        "startingPos": 603,
        "endingPos": 607,
        "wikidataId": "Q1970348"
      },
      {
        "id": 74,
        "matchingTokens": [
          521
        ],
        "entityId": "Sport",
        "freebaseTypes": [
          "/comic_books/comic_book_genre",
          "/tv/tv_genre",
          "/book/periodical_subject",
          "/media_common/media_genre_equivalent_topic",
          "/book/magazine_genre",
          "/internet/website_category",
          "/broadcast/content",
          "/broadcast/radio_format",
          "/broadcast/genre",
          "/tv/tv_subject",
          "/exhibitions/exhibition_subject",
          "/education/field_of_study",
          "/medicine/risk_factor",
          "/business/industry",
          "/tv/tv_series_season",
          "/media_common/quotation_subject",
          "/computer/software_genre",
          "/book/book_subject",
          "/organization/organization_sector",
          "/award/hall_of_fame_discipline",
          "/award/award_discipline",
          "/film/film_subject",
          "/radio/radio_subject",
          "/business/consumer_product",
          "/media_common/media_genre",
          "/film/film_genre",
          "/cvg/cvg_genre"
        ],
        "confidenceScore": 5.834,
        "wikiLink": "http://en.wikipedia.org/wiki/Sport",
        "matchedText": "events",
        "freebaseId": "/m/06ntj",
        "relevanceScore": 0.2764,
        "entityEnglishId": "Sport",
        "startingPos": 2550,
        "endingPos": 2556,
        "wikidataId": "Q349"
      },
      {
        "id": 75,
        "type": [
          "Agent",
          "Person",
          "Athlete",
          "SoccerPlayer"
        ],
        "matchingTokens": [
          586,
          587
        ],
        "entityId": "Gary Lineker",
        "freebaseTypes": [
          "/sports/pro_athlete",
          "/film/actor",
          "/film/person_or_entity_appearing_in_film",
          "/people/measured_person",
          "/soccer/football_player",
          "/people/person",
          "/award/award_nominee",
          "/tv/tv_personality",
          "/tv/tv_program_guest",
          "/tv/tv_actor"
        ],
        "confidenceScore": 12.06,
        "wikiLink": "http://en.wikipedia.org/wiki/Gary_Lineker",
        "matchedText": "Gary Lineker",
        "freebaseId": "/m/039kn",
        "relevanceScore": 0.3129,
        "entityEnglishId": "Gary Lineker",
        "startingPos": 2871,
        "endingPos": 2883,
        "wikidataId": "Q47778"
      },
      {
        "id": 76,
        "matchingTokens": [
          291
        ],
        "entityId": "Superstition",
        "freebaseTypes": [
          "/book/book_subject",
          "/media_common/quotation_subject"
        ],
        "confidenceScore": 3.014,
        "wikiLink": "http://en.wikipedia.org/wiki/Superstition",
        "matchedText": "superstitions",
        "freebaseId": "/m/0bn3l",
        "relevanceScore": 0.2384,
        "entityEnglishId": "Superstition",
        "startingPos": 1418,
        "endingPos": 1431,
        "wikidataId": "Q133182"
      },
      {
        "id": 77,
        "type": [
          "Place",
          "PopulatedPlace",
          "Country"
        ],
        "matchingTokens": [
          187,
          188,
          189
        ],
        "entityId": "United States",
        "freebaseTypes": [
          "/location/location",
          "/tv/tv_location",
          "/sports/sports_team_location",
          "/event/speech_topic",
          "/organization/organization_sector",
          "/government/governmental_jurisdiction",
          "/olympics/olympic_participating_country",
          "/location/administrative_division",
          "/location/country",
          "/sports/sport_country",
          "/periodicals/newspaper_circulation_area",
          "/location/location",
          "/travel/travel_destination",
          "/media_common/quotation_subject",
          "/meteorology/cyclone_affected_area",
          "/biology/breed_origin",
          "/exhibitions/exhibition_subject",
          "/religion/religious_leadership_jurisdiction",
          "/radio/radio_subject",
          "/location/dated_location",
          "/organization/contact_category",
          "/organization/organization_founder",
          "/film/film_location",
          "/location/statistical_region",
          "/business/business_location",
          "/media_common/quotation_addressee",
          "/government/government",
          "/military/military_unit_place_of_origin",
          "/fictional_universe/fictional_setting",
          "/symbols/flag_referent",
          "/symbols/name_source",
          "/book/book_subject",
          "/business/employer",
          "/organization/organization_member",
          "/business/asset_owner",
          "/film/film_subject",
          "/food/beer_country_region",
          "/organization/organization_scope",
          "/cvg/computer_game_region",
          "/military/military_combatant",
          "/law/court_jurisdiction_area"
        ],
        "confidenceScore": 32.95,
        "wikiLink": "http://en.wikipedia.org/wiki/United_States",
        "matchedText": "the United States",
        "freebaseId": "/m/09c7w0",
        "relevanceScore": 0.1389,
        "entityEnglishId": "United States",
        "startingPos": 907,
        "endingPos": 924,
        "wikidataId": "Q30"
      },
      {
        "id": 78,
        "type": [
          "Place",
          "PopulatedPlace",
          "Country"
        ],
        "matchingTokens": [
          584
        ],
        "entityId": "England",
        "freebaseTypes": [
          "/fictional_universe/fictional_setting",
          "/sports/sport_country",
          "/location/location",
          "/government/governmental_jurisdiction",
          "/organization/organization_scope",
          "/location/country",
          "/sports/sports_team_location",
          "/olympics/olympic_participating_country",
          "/biology/breed_origin",
          "/book/book_subject",
          "/symbols/name_source",
          "/religion/religious_leadership_jurisdiction",
          "/film/film_subject",
          "/military/military_combatant",
          "/periodicals/newspaper_circulation_area",
          "/location/administrative_division",
          "/location/uk_constituent_country",
          "/military/military_post",
          "/food/beer_country_region",
          "/event/speech_topic",
          "/location/statistical_region",
          "/tv/tv_location",
          "/film/film_location",
          "/location/uk_statistical_location",
          "/symbols/flag_referent",
          "/travel/travel_destination",
          "/location/dated_location",
          "/law/court_jurisdiction_area"
        ],
        "confidenceScore": 6.986,
        "wikiLink": "http://en.wikipedia.org/wiki/England",
        "matchedText": "England",
        "freebaseId": "/m/02jx1",
        "relevanceScore": 0.1365,
        "entityEnglishId": "England",
        "startingPos": 2855,
        "endingPos": 2862,
        "wikidataId": "Q21"
      },
      {
        "id": 79,
        "matchingTokens": [
          547
        ],
        "entityId": "Superstition",
        "freebaseTypes": [
          "/book/book_subject",
          "/media_common/quotation_subject"
        ],
        "confidenceScore": 3.014,
        "wikiLink": "http://en.wikipedia.org/wiki/Superstition",
        "matchedText": "superstitions",
        "freebaseId": "/m/0bn3l",
        "relevanceScore": 0.2384,
        "entityEnglishId": "Superstition",
        "startingPos": 2665,
        "endingPos": 2678,
        "wikidataId": "Q133182"
      },
      {
        "id": 80,
        "type": [
          "Activity",
          "Sport"
        ],
        "matchingTokens": [
          663
        ],
        "entityId": "Association football",
        "freebaseTypes": [
          "/olympics/olympic_participating_country",
          "/interests/hobby",
          "/book/book_subject",
          "/olympics/olympic_sport",
          "/media_common/media_genre",
          "/organization/club_interest",
          "/interests/hobbyist",
          "/internet/website_category",
          "/sports/sport",
          "/award/competition_type",
          "/award/award_discipline",
          "/cvg/computer_game_subject",
          "/film/film_subject",
          "/interests/interest",
          "/cvg/cvg_genre",
          "/organization/organization_sector",
          "/award/hall_of_fame_induction_category",
          "/broadcast/genre",
          "/media_common/netflix_genre",
          "/book/periodical_subject",
          "/tv/tv_subject",
          "/exhibitions/exhibition_subject",
          "/comic_books/comic_book_genre",
          "/sports/school_sports_team",
          "/award/hall_of_fame_discipline",
          "/sports/sports_team"
        ],
        "confidenceScore": 76.21,
        "wikiLink": "http://en.wikipedia.org/wiki/Association_football",
        "matchedText": "Football",
        "freebaseId": "/m/0fxc1s",
        "relevanceScore": 0.3263,
        "entityEnglishId": "Association football",
        "startingPos": 3277,
        "endingPos": 3285,
        "wikidataId": "Q2736"
      },
      {
        "id": 81,
        "matchingTokens": [
          231,
          232
        ],
        "entityId": "Head shaving",
        "confidenceScore": 1.349,
        "wikiLink": "http://en.wikipedia.org/wiki/Head_shaving",
        "matchedText": "shaved head",
        "freebaseId": "/m/03tfk4",
        "relevanceScore": 0.2504,
        "entityEnglishId": "Head shaving",
        "startingPos": 1122,
        "endingPos": 1133,
        "wikidataId": "Q2660870"
      },
      {
        "id": 82,
        "matchingTokens": [
          428
        ],
        "entityId": "Undergarment",
        "freebaseTypes": [
          "/business/consumer_product",
          "/fashion/garment",
          "/business/product_category"
        ],
        "confidenceScore": 2.746,
        "wikiLink": "http://en.wikipedia.org/wiki/Undergarment",
        "matchedText": "undergarments",
        "freebaseId": "/m/04gthg",
        "relevanceScore": 0.121,
        "entityEnglishId": "Undergarment",
        "startingPos": 2090,
        "endingPos": 2103,
        "wikidataId": "Q198763"
      },
      {
        "id": 83,
        "matchingTokens": [
          237,
          238
        ],
        "entityId": "Luck",
        "freebaseTypes": [
          "/film/film_subject",
          "/media_common/quotation_subject"
        ],
        "confidenceScore": 1.381,
        "wikiLink": "http://en.wikipedia.org/wiki/Luck",
        "matchedText": "good luck",
        "freebaseId": "/m/01bchv",
        "relevanceScore": 0.2919,
        "entityEnglishId": "Luck",
        "startingPos": 1152,
        "endingPos": 1161,
        "wikidataId": "Q1970348"
      },
      {
        "id": 84,
        "matchingTokens": [
          568
        ],
        "entityId": "Forward (association football)",
        "freebaseTypes": [
          "/soccer/football_position",
          "/sports/sports_position",
          "/sports/sports_position",
          "/sports/sport",
          "/soccer/football_position"
        ],
        "confidenceScore": 11.79,
        "wikiLink": "http://en.wikipedia.org/wiki/Forward_(association_football)",
        "matchedText": "strikers",
        "freebaseId": "/m/02sdk9v",
        "relevanceScore": 0.1371,
        "entityEnglishId": "Forward (association football)",
        "startingPos": 2769,
        "endingPos": 2777,
        "wikidataId": "Q280658"
      },
      {
        "id": 85,
        "type": [
          "Place",
          "PopulatedPlace",
          "Country"
        ],
        "matchingTokens": [
          257
        ],
        "entityId": "France",
        "freebaseTypes": [
          "/sports/sports_team_location",
          "/location/dated_location",
          "/travel/travel_destination",
          "/periodicals/newspaper_circulation_area",
          "/olympics/olympic_participating_country",
          "/media_common/netflix_genre",
          "/law/court_jurisdiction_area",
          "/organization/organization_founder",
          "/kp_lw/common/topic",
          "/film/film_location",
          "/fictional_universe/fictional_setting",
          "/location/country",
          "/symbols/name_source",
          "/military/military_unit_place_of_origin",
          "/organization/organization_scope",
          "/symbols/flag_referent",
          "/government/governmental_jurisdiction",
          "/military/military_combatant",
          "/location/location",
          "/location/statistical_region",
          "/sports/sport_country",
          "/visual_art/art_subject",
          "/organization/organization_member",
          "/book/book_subject",
          "/food/beer_country_region",
          "/biology/breed_origin"
        ],
        "confidenceScore": 3.638,
        "wikiLink": "http://en.wikipedia.org/wiki/France",
        "matchedText": "French",
        "freebaseId": "/m/0f8l9c",
        "relevanceScore": 0.144,
        "entityEnglishId": "France",
        "startingPos": 1244,
        "endingPos": 1250,
        "wikidataId": "Q142"
      },
      {
        "id": 86,
        "type": [
          "Activity",
          "Sport"
        ],
        "matchingTokens": [
          686
        ],
        "entityId": "Association football",
        "freebaseTypes": [
          "/olympics/olympic_participating_country",
          "/interests/hobby",
          "/book/book_subject",
          "/olympics/olympic_sport",
          "/media_common/media_genre",
          "/organization/club_interest",
          "/interests/hobbyist",
          "/internet/website_category",
          "/sports/sport",
          "/award/competition_type",
          "/award/award_discipline",
          "/cvg/computer_game_subject",
          "/film/film_subject",
          "/interests/interest",
          "/cvg/cvg_genre",
          "/organization/organization_sector",
          "/award/hall_of_fame_induction_category",
          "/broadcast/genre",
          "/media_common/netflix_genre",
          "/book/periodical_subject",
          "/tv/tv_subject",
          "/exhibitions/exhibition_subject",
          "/comic_books/comic_book_genre",
          "/sports/school_sports_team",
          "/award/hall_of_fame_discipline",
          "/sports/sports_team"
        ],
        "confidenceScore": 76.21,
        "wikiLink": "http://en.wikipedia.org/wiki/Association_football",
        "matchedText": "soccer",
        "freebaseId": "/m/0fxc1s",
        "relevanceScore": 0.365,
        "entityEnglishId": "Association football",
        "startingPos": 3399,
        "endingPos": 3405,
        "wikidataId": "Q2736"
      },
      {
        "id": 87,
        "type": [
          "Activity",
          "Sport"
        ],
        "matchingTokens": [
          605
        ],
        "entityId": "Association football",
        "freebaseTypes": [
          "/olympics/olympic_participating_country",
          "/interests/hobby",
          "/book/book_subject",
          "/olympics/olympic_sport",
          "/media_common/media_genre",
          "/organization/club_interest",
          "/interests/hobbyist",
          "/internet/website_category",
          "/sports/sport",
          "/award/competition_type",
          "/award/award_discipline",
          "/cvg/computer_game_subject",
          "/film/film_subject",
          "/interests/interest",
          "/cvg/cvg_genre",
          "/organization/organization_sector",
          "/award/hall_of_fame_induction_category",
          "/broadcast/genre",
          "/media_common/netflix_genre",
          "/book/periodical_subject",
          "/tv/tv_subject",
          "/exhibitions/exhibition_subject",
          "/comic_books/comic_book_genre",
          "/sports/school_sports_team",
          "/award/hall_of_fame_discipline",
          "/sports/sports_team"
        ],
        "confidenceScore": 76.21,
        "wikiLink": "http://en.wikipedia.org/wiki/Association_football",
        "matchedText": "Soccer",
        "freebaseId": "/m/0fxc1s",
        "relevanceScore": 0.365,
        "entityEnglishId": "Association football",
        "startingPos": 2967,
        "endingPos": 2973,
        "wikidataId": "Q2736"
      },
      {
        "id": 88,
        "matchingTokens": [
          6
        ],
        "entityId": "Public toilet",
        "confidenceScore": 1.909,
        "wikiLink": "http://en.wikipedia.org/wiki/Public_toilet",
        "matchedText": "Washroom",
        "freebaseId": "/m/041x_j",
        "relevanceScore": 0.3938,
        "entityEnglishId": "Public toilet",
        "startingPos": 26,
        "endingPos": 34,
        "wikidataId": "Q813966"
      },
      {
        "id": 89,
        "matchingTokens": [
          200,
          201
        ],
        "entityId": "Playoff beard",
        "confidenceScore": 3.762,
        "wikiLink": "http://en.wikipedia.org/wiki/Playoff_beard",
        "matchedText": "playoff beard",
        "freebaseId": "/m/04k_11",
        "relevanceScore": 0.1418,
        "entityEnglishId": "Playoff beard",
        "startingPos": 972,
        "endingPos": 985,
        "wikidataId": "Q2398442"
      },
      {
        "id": 90,
        "matchingTokens": [
          636
        ],
        "entityId": "Cap (sport)",
        "confidenceScore": 1.621,
        "wikiLink": "http://en.wikipedia.org/wiki/Cap_(sport)",
        "matchedText": "caps",
        "freebaseId": "/m/08y75m",
        "relevanceScore": 0.1195,
        "entityEnglishId": "Cap (sport)",
        "startingPos": 3124,
        "endingPos": 3128,
        "wikidataId": "Q179304"
      },
      {
        "id": 91,
        "type": [
          "Agent",
          "Organisation",
          "SportsTeam",
          "SoccerClub"
        ],
        "matchingTokens": [
          175,
          176
        ],
        "entityId": "Houston Dynamo",
        "freebaseTypes": [
          "/sports/sports_team",
          "/soccer/football_team",
          "/organization/organization"
        ],
        "confidenceScore": 18.1,
        "wikiLink": "http://en.wikipedia.org/wiki/Houston_Dynamo",
        "matchedText": "Houston Dynamo",
        "freebaseId": "/m/09cl0w",
        "relevanceScore": 0.3866,
        "entityEnglishId": "Houston Dynamo",
        "startingPos": 849,
        "endingPos": 863,
        "wikidataId": "Q328313",
        "crunchbaseId": "houston-dynamo"
      },
      {
        "id": 92,
        "matchingTokens": [
          622
        ],
        "entityId": "Superstition",
        "freebaseTypes": [
          "/book/book_subject",
          "/media_common/quotation_subject"
        ],
        "confidenceScore": 3.014,
        "wikiLink": "http://en.wikipedia.org/wiki/Superstition",
        "matchedText": "superstitions",
        "freebaseId": "/m/0bn3l",
        "relevanceScore": 0.2384,
        "entityEnglishId": "Superstition",
        "startingPos": 3050,
        "endingPos": 3063,
        "wikidataId": "Q133182"
      },
      {
        "id": 93,
        "matchingTokens": [
          32
        ],
        "entityId": "Superstition",
        "freebaseTypes": [
          "/book/book_subject",
          "/media_common/quotation_subject"
        ],
        "confidenceScore": 3.014,
        "wikiLink": "http://en.wikipedia.org/wiki/Superstition",
        "matchedText": "superstitions",
        "freebaseId": "/m/0bn3l",
        "relevanceScore": 0.2384,
        "entityEnglishId": "Superstition",
        "startingPos": 159,
        "endingPos": 172,
        "wikidataId": "Q133182"
      },
      {
        "id": 94,
        "matchingTokens": [
          684
        ],
        "entityId": "Superstition",
        "freebaseTypes": [
          "/book/book_subject",
          "/media_common/quotation_subject"
        ],
        "confidenceScore": 3.014,
        "wikiLink": "http://en.wikipedia.org/wiki/Superstition",
        "matchedText": "superstitions",
        "freebaseId": "/m/0bn3l",
        "relevanceScore": 0.2384,
        "entityEnglishId": "Superstition",
        "startingPos": 3382,
        "endingPos": 3395,
        "wikidataId": "Q133182"
      },
      {
        "id": 95,
        "matchingTokens": [
          717
        ],
        "entityId": "Superstition",
        "freebaseTypes": [
          "/book/book_subject",
          "/media_common/quotation_subject"
        ],
        "confidenceScore": 3.014,
        "wikiLink": "http://en.wikipedia.org/wiki/Superstition",
        "matchedText": "superstitions",
        "freebaseId": "/m/0bn3l",
        "relevanceScore": 0.2384,
        "entityEnglishId": "Superstition",
        "startingPos": 3540,
        "endingPos": 3553,
        "wikidataId": "Q133182"
      },
      {
        "id": 96,
        "matchingTokens": [
          145,
          146
        ],
        "entityId": "Playoff beard",
        "confidenceScore": 3.762,
        "wikiLink": "http://en.wikipedia.org/wiki/Playoff_beard",
        "matchedText": "playoff beard",
        "freebaseId": "/m/04k_11",
        "relevanceScore": 0.1418,
        "entityEnglishId": "Playoff beard",
        "startingPos": 693,
        "endingPos": 706,
        "wikidataId": "Q2398442"
      }
    ]
  },
  "time": 0.4392,
  "ok": true
}