{
  "response": {
    "language": "eng",
    "languageIsReliable": true,
    "entities": [
      {
        "id": 0,
        "type": [
          "Company"
        ],
        "matchingTokens": [
          0
        ],
        "entityId": "Google",
        "freebaseTypes": [
          "/organization/organization"
        ],
        "confidenceScore": 0.5,
        "wikiLink": "",
        "matchedText": "Google",
        "relevanceScore": 0,
        "entityEnglishId": "",
        "startingPos": 0,
        "endingPos": 6
      },
      {
        "id": 1,
        "type": [
          "Company"
        ],
        "matchingTokens": [
          8
        ],
        "entityId": "Google",
        "freebaseTypes": [
          "/organization/organization"
        ],
        "confidenceScore": 0.5,
        "wikiLink": "",
        "matchedText": "Google",
        "relevanceScore": 0,
        "entityEnglishId": "",
        "startingPos": 38,
        "endingPos": 44
      },
      {
        "id": 2,
        "type": [
          "Place",
          "PopulatedPlace",
          "Settlement",
          "City"
        ],
        "matchingTokens": [
          5,
          6
        ],
        "entityId": "Mountain View, California",
        "freebaseTypes": [
          "/location/hud_county_place",
          "/location/hud_foreclosure_area",
          "/periodicals/newspaper_circulation_area",
          "/location/citytown",
          "/location/administrative_division",
          "/location/dated_location",
          "/location/statistical_region",
          "/book/book_subject",
          "/travel/travel_destination",
          "/organization/organization_scope",
          "/government/governmental_jurisdiction",
          "/location/location"
        ],
        "confidenceScore": 1.067,
        "wikiLink": "http://en.wikipedia.org/wiki/Mountain_View,_California",
        "matchedText": "Mountain View",
        "freebaseId": "/m/0r6c4",
        "relevanceScore": 0.1005,
        "entityEnglishId": "Mountain View, California",
        "startingPos": 23,
        "endingPos": 36,
        "wikidataId": "Q486860"
      }
    ]
  },
  "time": 0.0213,
  "ok": true
}