{
  "response": {
    "language": "eng",
    "languageIsReliable": false,
    "entities": [
      {
        "id": 0,
        "type": [
          "Holiday"
        ],
        "matchingTokens": [
          1
        ],
        "entityId": "Christmas",
        "freebaseTypes": [
          "/broadcast/genre",
          "/media_common/quotation_subject",
          "/film/film_genre",
          "/media_common/media_genre",
          "/time/holiday",
          "/book/book_subject",
          "/tv/tv_subject",
          "/music/music_video_subject",
          "/film/film_subject",
          "/business/industry"
        ],
        "confidenceScore": 1.904,
        "wikiLink": "http://en.wikipedia.org/wiki/Christmas",
        "matchedText": "Christmas",
        "freebaseId": "/m/01vq3",
        "relevanceScore": 0.05682,
        "entityEnglishId": "Christmas",
        "startingPos": 6,
        "endingPos": 15,
        "wikidataId": "Q19809"
      }
    ]
  },
  "time": 0.009482,
  "ok": true
}