{
  "time": 0,
  "error": "TextRazor cannot analyze documents of language: kor . If you know the language of your documents beforehand, consider setting the 'languageOverride' paramater. ",
  "ok": false
}