{
  "response": {
    "language": "eng",
    "languageIsReliable": true,
    "entities": [
      {
        "id": 0,
        "matchingTokens": [
          6
        ],
        "entityId": "Image",
        "freebaseTypes": [
          "/book/book_subject"
        ],
        "confidenceScore": 0.9873,
        "wikiLink": "http://en.wikipedia.org/wiki/Image",
        "matchedText": "image",
        "freebaseId": "/m/0jg24",
        "relevanceScore": 0,
        "entityEnglishId": "Image",
        "startingPos": 43,
        "endingPos": 48,
        "wikidataId": "Q478798"
      },
      {
        "id": 1,
        "matchingTokens": [
          13
        ],
        "entityId": "Image",
        "freebaseTypes": [
          "/book/book_subject"
        ],
        "confidenceScore": 0.9873,
        "wikiLink": "http://en.wikipedia.org/wiki/Image",
        "matchedText": "image",
        "freebaseId": "/m/0jg24",
        "relevanceScore": 0,
        "entityEnglishId": "Image",
        "startingPos": 80,
        "endingPos": 85,
        "wikidataId": "Q478798"
      },
      {
        "id": 2,
        "matchingTokens": [
          2
        ],
        "entityId": "Image",
        "freebaseTypes": [
          "/book/book_subject"
        ],
        "confidenceScore": 0.9873,
        "wikiLink": "http://en.wikipedia.org/wiki/Image",
        "matchedText": "image",
        "freebaseId": "/m/0jg24",
        "relevanceScore": 0,
        "entityEnglishId": "Image",
        "startingPos": 13,
        "endingPos": 18,
        "wikidataId": "Q478798"
      }
    ]
  },
  "time": 0.01309,
  "ok": true
}