{
  "response": {
    "language": "eng",
    "languageIsReliable": true,
    "entities": [
      {
        "id": 0,
        "type": [
          "Agent",
          "Organisation",
          "SportsTeam",
          "SoccerClub"
        ],
        "matchingTokens": [
          6
        ],
        "entityId": "Arsenal F.C.",
        "freebaseTypes": [
          "/sports/professional_sports_team",
          "/sports/sports_team",
          "/award/award_winner",
          "/organization/organization",
          "/book/book_subject",
          "/soccer/football_team",
          "/sports/sports_award_winner",
          "/business/employer",
          "/business/business_operation"
        ],
        "confidenceScore": 37.15,
        "wikiLink": "http://en.wikipedia.org/wiki/Arsenal_F.C.",
        "matchedText": "Arsenal",
        "freebaseId": "/m/0xbm",
        "relevanceScore": 0.2407,
        "entityEnglishId": "Arsenal F.C.",
        "startingPos": 39,
        "endingPos": 46,
        "wikidataId": "Q9617",
        "crunchbaseId": "arsenal",
        "lei": "213800M5PDIESHN4W786",
        "permid": "4296370189"
      },
      {
        "id": 1,
        "type": [
          "Agent",
          "Person",
          "Athlete",
          "SoccerPlayer"
        ],
        "matchingTokens": [
          3,
          4
        ],
        "entityId": "Arsène Wenger",
        "freebaseTypes": [
          "/award/award_winner",
          "/royalty/chivalric_order_member",
          "/people/person",
          "/sports/pro_athlete",
          "/people/measured_person",
          "/soccer/football_player",
          "/film/actor",
          "/tv/tv_personality",
          "/soccer/football_team_manager",
          "/film/person_or_entity_appearing_in_film",
          "/sports/sports_team_coach"
        ],
        "confidenceScore": 17.07,
        "wikiLink": "http://en.wikipedia.org/wiki/Arsène_Wenger",
        "matchedText": "Arsene Wenger",
        "freebaseId": "/m/01gjbw",
        "relevanceScore": 0.3111,
        "entityEnglishId": "Arsène Wenger",
        "startingPos": 17,
        "endingPos": 30,
        "wikidataId": "Q47576"
      },
      {
        "id": 2,
        "type": [
          "Place",
          "PopulatedPlace",
          "Settlement",
          "City"
        ],
        "matchingTokens": [
          18
        ],
        "entityId": "Manchester",
        "freebaseTypes": [
          "/location/dated_location",
          "/location/administrative_division",
          "/location/uk_metropolitan_borough",
          "/book/book_subject",
          "/business/business_location",
          "/olympics/olympic_bidding_city",
          "/organization/organization_scope",
          "/symbols/name_source",
          "/location/statistical_region",
          "/protected_sites/listed_site",
          "/periodicals/newspaper_circulation_area",
          "/fictional_universe/fictional_setting",
          "/government/governmental_jurisdiction",
          "/olympics/olympic_torch_relay_location",
          "/travel/travel_destination",
          "/sports/sports_team_location",
          "/business/employer",
          "/location/citytown",
          "/location/location",
          "/location/uk_statistical_location",
          "/location/capital_of_administrative_division"
        ],
        "confidenceScore": 7.852,
        "wikiLink": "http://en.wikipedia.org/wiki/Manchester",
        "matchedText": "Manchester",
        "freebaseId": "/m/052bw",
        "relevanceScore": 0.03983,
        "entityEnglishId": "Manchester",
        "startingPos": 94,
        "endingPos": 104,
        "wikidataId": "Q18125"
      },
      {
        "id": 3,
        "type": [
          "Agent",
          "Person",
          "Athlete",
          "SoccerPlayer"
        ],
        "matchingTokens": [
          0,
          1
        ],
        "entityId": "Anthony Martial",
        "freebaseTypes": [
          "/people/measured_person",
          "/sports/pro_athlete",
          "/people/person",
          "/soccer/football_player"
        ],
        "confidenceScore": 2.619,
        "wikiLink": "http://en.wikipedia.org/wiki/Anthony_Martial",
        "matchedText": "Anthony Martial",
        "freebaseId": "/m/0pcgn36",
        "relevanceScore": 0.1927,
        "entityEnglishId": "Anthony Martial",
        "startingPos": 0,
        "endingPos": 15,
        "wikidataId": "Q2091463"
      },
      {
        "id": 4,
        "type": [
          "Agent",
          "Organisation",
          "SportsTeam",
          "SoccerClub"
        ],
        "matchingTokens": [
          18,
          19
        ],
        "entityId": "Manchester United F.C.",
        "freebaseTypes": [
          "/soccer/football_team",
          "/business/sponsored_recipient",
          "/sports/professional_sports_team",
          "/business/employer",
          "/sports/sports_award_winner",
          "/organization/organization",
          "/award/award_winner",
          "/sports/sports_team",
          "/award/award_nominee"
        ],
        "confidenceScore": 34.58,
        "wikiLink": "http://en.wikipedia.org/wiki/Manchester_United_F.C.",
        "matchedText": "Manchester United",
        "freebaseId": "/m/050fh",
        "relevanceScore": 0.1264,
        "entityEnglishId": "Manchester United F.C.",
        "startingPos": 94,
        "endingPos": 111,
        "wikidataId": "Q18656",
        "crunchbaseId": "manchester-united-football-club-limited",
        "permid": "4295896579"
      }
    ]
  },
  "time": 0.0255,
  "ok": true
}