{
  "response": {
    "language": "eng",
    "languageIsReliable": true,
    "entities": [
      {
        "id": 0,
        "type": [
          "Agent",
          "Organisation",
          "Company"
        ],
        "matchingTokens": [
          10
        ],
        "entityId": "Amazon (company)",
        "freebaseTypes": [
          "/organization/organization",
          "/award/ranked_item",
          "/organization/organization_founder",
          "/venture_capital/venture_investor",
          "/business/employer",
          "/music/record_label",
          "/computer/computer_manufacturer_brand",
          "/conferences/conference_sponsor",
          "/organization/organization_member",
          "/award/award_winner",
          "/venture_capital/venture_funded_company",
          "/tv/tv_network",
          "/organization/organization_partnership",
          "/film/film_distributor",
          "/book/book_subject",
          "/computer/software_developer",
          "/law/patent_assignee",
          "/award/award_nominee",
          "/internet/website_owner",
          "/book/publishing_company",
          "/location/location",
          "/business/business_operation",
          "/business/consumer_company",
          "/organization/organization",
          "/business/customer",
          "/business/issuer"
        ],
        "confidenceScore": 2.238,
        "wikiLink": "http://en.wikipedia.org/wiki/Amazon_(company)",
        "matchedText": "Amazon",
        "freebaseId": "/m/0mgkg",
        "relevanceScore": 0.04417,
        "entityEnglishId": "Amazon (company)",
        "startingPos": 57,
        "endingPos": 63,
        "wikidataId": "Q3884",
        "crunchbaseId": "amazon",
        "lei": "ZXTILKJKG63JELOEG630",
        "figi": "BBG001S5PQL7",
        "permid": "4295905494"
      },
      {
        "id": 1,
        "type": [
          "Agent",
          "Person",
          "Scientist"
        ],
        "matchingTokens": [
          1,
          2
        ],
        "entityId": "Atul Gawande",
        "freebaseTypes": [
          "/book/author",
          "/medicine/physician",
          "/people/person",
          "/award/award_winner",
          "/award/award_nominee"
        ],
        "confidenceScore": 2.123,
        "wikiLink": "http://en.wikipedia.org/wiki/Atul_Gawande",
        "matchedText": "Atul Gawande",
        "freebaseId": "/m/076fn0",
        "relevanceScore": 0.3531,
        "entityEnglishId": "Atul Gawande",
        "startingPos": 8,
        "endingPos": 20,
        "wikidataId": "Q2751383"
      }
    ]
  },
  "time": 0.01336,
  "ok": true
}