{
  "response": {
    "language": "eng",
    "languageIsReliable": true,
    "entities": [
      {
        "id": 0,
        "type": [
          "Company"
        ],
        "matchingTokens": [
          4
        ],
        "entityId": "Facebook",
        "freebaseTypes": [
          "/organization/organization"
        ],
        "confidenceScore": 0.5,
        "wikiLink": "",
        "matchedText": "Facebook",
        "relevanceScore": 0,
        "entityEnglishId": "",
        "startingPos": 14,
        "endingPos": 22
      }
    ]
  },
  "time": 0.01198,
  "ok": true
}