{
  "response": {
    "language": "eng",
    "languageIsReliable": true,
    "entities": [
      {
        "id": 0,
        "type": [
          "Work",
          "Software",
          "ProgrammingLanguage"
        ],
        "matchingTokens": [
          2
        ],
        "entityId": "JavaScript",
        "freebaseTypes": [
          "/internet/api",
          "/visual_art/visual_art_medium",
          "/book/book_subject",
          "/education/school_category",
          "/computer/programming_language"
        ],
        "confidenceScore": 12.78,
        "wikiLink": "http://en.wikipedia.org/wiki/JavaScript",
        "matchedText": "JavaScript",
        "freebaseId": "/m/02p97",
        "relevanceScore": 0.1304,
        "entityEnglishId": "JavaScript",
        "startingPos": 11,
        "endingPos": 21,
        "wikidataId": "Q2005"
      },
      {
        "id": 1,
        "type": [
          "Work",
          "Software",
          "ProgrammingLanguage"
        ],
        "matchingTokens": [
          0
        ],
        "entityId": "Python (programming language)",
        "freebaseTypes": [
          "/interests/hobbyist",
          "/conferences/conference_subject",
          "/people/person",
          "/symbols/namesake",
          "/business/brand",
          "/internet/api",
          "/computer/programming_language",
          "/book/book_subject"
        ],
        "confidenceScore": 16.82,
        "wikiLink": "http://en.wikipedia.org/wiki/Python_(programming_language)",
        "matchedText": "Python",
        "freebaseId": "/m/05z1_",
        "relevanceScore": 0.1189,
        "entityEnglishId": "Python (programming language)",
        "startingPos": 0,
        "endingPos": 6,
        "wikidataId": "Q28865"
      },
      {
        "id": 2,
        "matchingTokens": [
          5,
          6
        ],
        "entityId": "Programming language",
        "freebaseTypes": [
          "/media_common/media_genre",
          "/media_common/literary_genre",
          "/book/book_subject",
          "/computer/software_genre",
          "/education/field_of_study"
        ],
        "confidenceScore": 19.56,
        "wikiLink": "http://en.wikipedia.org/wiki/Programming_language",
        "matchedText": "programming languages",
        "freebaseId": "/m/05r20",
        "relevanceScore": 0.1758,
        "entityEnglishId": "Programming language",
        "startingPos": 32,
        "endingPos": 53,
        "wikidataId": "Q9143"
      }
    ]
  },
  "time": 0.009746,
  "ok": true
}