{
  "response": {
    "language": "eng",
    "languageIsReliable": true,
    "entities": [
      {
        "id": 0,
        "type": [
          "Work",
          "Software"
        ],
        "matchingTokens": [
          0
        ],
        "entityId": "Linux",
        "freebaseTypes": [
          "/computer/operating_system",
          "/cvg/cvg_platform",
          "/internet/website_category",
          "/symbols/name_source",
          "/symbols/namesake",
          "/book/book_subject",
          "/conferences/conference_subject",
          "/computer/software"
        ],
        "confidenceScore": 4.161,
        "wikiLink": "http://en.wikipedia.org/wiki/Linux",
        "matchedText": "Linux",
        "freebaseId": "/m/0fpzzp",
        "relevanceScore": 0.01156,
        "entityEnglishId": "Linux",
        "startingPos": 0,
        "endingPos": 5,
        "wikidataId": "Q388"
      },
      {
        "id": 1,
        "matchingTokens": [
          1
        ],
        "entityId": "Touchpad",
        "confidenceScore": 4.634,
        "wikiLink": "http://en.wikipedia.org/wiki/Touchpad",
        "matchedText": "touchpad",
        "freebaseId": "/m/01q3m6",
        "relevanceScore": 0.2535,
        "entityEnglishId": "Touchpad",
        "startingPos": 6,
        "endingPos": 14,
        "wikidataId": "Q20137"
      },
      {
        "id": 2,
        "matchingTokens": [
          4
        ],
        "entityId": "MacBook",
        "freebaseTypes": [
          "/computer/computer",
          "/business/product_line",
          "/cvg/cvg_platform",
          "/computer/computer",
          "/business/consumer_product"
        ],
        "confidenceScore": 3.725,
        "wikiLink": "http://en.wikipedia.org/wiki/MacBook",
        "matchedText": "Macbook",
        "freebaseId": "/m/09tzjm",
        "relevanceScore": 0,
        "entityEnglishId": "MacBook",
        "startingPos": 22,
        "endingPos": 29,
        "wikidataId": "Q3065317"
      },
      {
        "id": 3,
        "type": [
          "URL"
        ],
        "matchingTokens": [
          10
        ],
        "entityId": "https://t.co/vFTP68HVs8",
        "freebaseTypes": [
          ""
        ],
        "confidenceScore": 0.5,
        "wikiLink": "",
        "matchedText": "https://t.co/vFTP68HVs8",
        "relevanceScore": 0,
        "entityEnglishId": "",
        "startingPos": 52,
        "endingPos": 75
      }
    ]
  },
  "time": 0.02377,
  "ok": true
}