{
  "response": {
    "language": "eng",
    "languageIsReliable": true,
    "entities": [
      {
        "id": 0,
        "type": [
          "Place",
          "ArchitecturalStructure",
          "Building",
          "Venue",
          "Theatre"
        ],
        "matchingTokens": [
          7
        ],
        "entityId": "Copacabana (nightclub)",
        "freebaseTypes": [
          "/business/employer",
          "/business/business_operation",
          "/location/location",
          "/food/drinking_establishment",
          "/organization/organization",
          "/business/business_location"
        ],
        "confidenceScore": 1.934,
        "wikiLink": "http://en.wikipedia.org/wiki/Copacabana_(nightclub)",
        "matchedText": "Copacabana",
        "freebaseId": "/m/04r_2d",
        "relevanceScore": 0.0303,
        "entityEnglishId": "Copacabana (nightclub)",
        "startingPos": 39,
        "endingPos": 49,
        "wikidataId": "Q1130938"
      }
    ]
  },
  "time": 0.01458,
  "ok": true
}