{
  "response": {
    "language": "eng",
    "languageIsReliable": true,
    "entities": [
      {
        "id": 0,
        "type": [
          "Agent",
          "Organisation",
          "Company"
        ],
        "matchingTokens": [
          0
        ],
        "entityId": "Amazon (company)",
        "freebaseTypes": [
          "/organization/organization",
          "/award/ranked_item",
          "/organization/organization_founder",
          "/venture_capital/venture_investor",
          "/business/employer",
          "/music/record_label",
          "/computer/computer_manufacturer_brand",
          "/conferences/conference_sponsor",
          "/organization/organization_member",
          "/award/award_winner",
          "/venture_capital/venture_funded_company",
          "/tv/tv_network",
          "/organization/organization_partnership",
          "/film/film_distributor",
          "/book/book_subject",
          "/computer/software_developer",
          "/law/patent_assignee",
          "/award/award_nominee",
          "/internet/website_owner",
          "/book/publishing_company",
          "/location/location",
          "/business/business_operation",
          "/business/consumer_company",
          "/organization/organization",
          "/business/customer",
          "/business/issuer"
        ],
        "confidenceScore": 7.424,
        "wikiLink": "http://en.wikipedia.org/wiki/Amazon_(company)",
        "matchedText": "Amazon",
        "freebaseId": "/m/0mgkg",
        "relevanceScore": 0.05241,
        "entityEnglishId": "Amazon (company)",
        "startingPos": 0,
        "endingPos": 6,
        "wikidataId": "Q3884",
        "crunchbaseId": "amazon",
        "lei": "ZXTILKJKG63JELOEG630",
        "figi": "BBG001S5PQL7",
        "permid": "4295905494"
      },
      {
        "id": 1,
        "type": [
          "Work",
          "Software"
        ],
        "matchingTokens": [
          2
        ],
        "entityId": "Amazon Alexa",
        "freebaseTypes": [
          "/computer/software"
        ],
        "confidenceScore": 3.627,
        "wikiLink": "http://en.wikipedia.org/wiki/Amazon_Alexa",
        "matchedText": "Alexa",
        "freebaseId": "",
        "relevanceScore": 0.4381,
        "entityEnglishId": "Amazon Alexa",
        "startingPos": 9,
        "endingPos": 14,
        "wikidataId": "Q28022144"
      },
      {
        "id": 2,
        "matchingTokens": [
          8,
          9
        ],
        "entityId": "Virtual assistant",
        "freebaseTypes": [
          "/business/job_title",
          "/computer/software_genre"
        ],
        "confidenceScore": 4.007,
        "wikiLink": "http://en.wikipedia.org/wiki/Virtual_assistant",
        "matchedText": "virtual assistants",
        "freebaseId": "/m/0j3gkrx",
        "relevanceScore": 0.447,
        "entityEnglishId": "Virtual assistant",
        "startingPos": 42,
        "endingPos": 60,
        "wikidataId": "Q3467906"
      }
    ]
  },
  "time": 0.01722,
  "ok": true
}