{
  "response": {
    "language": "eng",
    "languageIsReliable": true,
    "entities": [
      {
        "id": 0,
        "type": [
          "Place",
          "PopulatedPlace",
          "Country"
        ],
        "matchingTokens": [
          6
        ],
        "entityId": "United States",
        "freebaseTypes": [
          "/location/location",
          "/tv/tv_location",
          "/sports/sports_team_location",
          "/event/speech_topic",
          "/organization/organization_sector",
          "/government/governmental_jurisdiction",
          "/olympics/olympic_participating_country",
          "/location/administrative_division",
          "/location/country",
          "/sports/sport_country",
          "/periodicals/newspaper_circulation_area",
          "/location/location",
          "/travel/travel_destination",
          "/media_common/quotation_subject",
          "/meteorology/cyclone_affected_area",
          "/biology/breed_origin",
          "/exhibitions/exhibition_subject",
          "/religion/religious_leadership_jurisdiction",
          "/radio/radio_subject",
          "/location/dated_location",
          "/organization/contact_category",
          "/organization/organization_founder",
          "/film/film_location",
          "/location/statistical_region",
          "/business/business_location",
          "/media_common/quotation_addressee",
          "/government/government",
          "/military/military_unit_place_of_origin",
          "/fictional_universe/fictional_setting",
          "/symbols/flag_referent",
          "/symbols/name_source",
          "/book/book_subject",
          "/business/employer",
          "/organization/organization_member",
          "/business/asset_owner",
          "/film/film_subject",
          "/food/beer_country_region",
          "/organization/organization_scope",
          "/cvg/computer_game_region",
          "/military/military_combatant",
          "/law/court_jurisdiction_area"
        ],
        "confidenceScore": 3.701,
        "wikiLink": "http://en.wikipedia.org/wiki/United_States",
        "matchedText": "US",
        "freebaseId": "/m/09c7w0",
        "relevanceScore": 0,
        "entityEnglishId": "United States",
        "startingPos": 26,
        "endingPos": 28,
        "wikidataId": "Q30"
      },
      {
        "id": 1,
        "type": [
          "Agent",
          "Organisation",
          "Company"
        ],
        "matchingTokens": [
          0
        ],
        "entityId": "Verizon Communications",
        "freebaseTypes": [
          "/business/consumer_company",
          "/business/business_operation",
          "/business/customer",
          "/award/ranked_item",
          "/business/employer",
          "/venture_capital/venture_investor",
          "/organization/organization",
          "/award/award_winner",
          "/business/sponsor",
          "/business/issuer",
          "/organization/organization"
        ],
        "confidenceScore": 1.65,
        "wikiLink": "http://en.wikipedia.org/wiki/Verizon_Communications",
        "matchedText": "Verizon",
        "freebaseId": "/m/0fpgc48",
        "relevanceScore": 0,
        "entityEnglishId": "Verizon Communications",
        "startingPos": 0,
        "endingPos": 7,
        "wikidataId": "Q467752",
        "crunchbaseId": "verizon",
        "lei": "2S72QS2UO2OESLG6Y829",
        "figi": "BBG001S67QY1",
        "permid": "4295911976"
      },
      {
        "id": 2,
        "matchingTokens": [
          3
        ],
        "entityId": "Telephone company",
        "confidenceScore": 1.978,
        "wikiLink": "http://en.wikipedia.org/wiki/Telephone_company",
        "matchedText": "telco",
        "freebaseId": "/m/0cnwl",
        "relevanceScore": 0,
        "entityEnglishId": "Telephone company",
        "startingPos": 13,
        "endingPos": 18,
        "wikidataId": "Q1266169"
      }
    ]
  },
  "time": 0.00955,
  "ok": true
}