{
  "response": {
    "language": "eng",
    "languageIsReliable": false,
    "entities": [
      {
        "id": 0,
        "type": [
          "Money"
        ],
        "matchingTokens": [
          2,
          3
        ],
        "entityId": "50",
        "confidenceScore": 0.5,
        "wikiLink": "",
        "matchedText": "$50",
        "relevanceScore": 0,
        "entityEnglishId": "",
        "startingPos": 6,
        "endingPos": 9,
        "unit": "$"
      }
    ]
  },
  "time": 0.007336,
  "ok": true
}