{
  "response": {
    "language": "eng",
    "languageIsReliable": true,
    "entities": [
      {
        "id": 0,
        "type": [
          "Money"
        ],
        "matchingTokens": [
          0,
          1,
          2
        ],
        "entityId": "500000000",
        "confidenceScore": 0.5,
        "wikiLink": "",
        "matchedText": "$500 million",
        "relevanceScore": 0,
        "entityEnglishId": "",
        "startingPos": 0,
        "endingPos": 12,
        "unit": "$"
      }
    ]
  },
  "time": 0.01526,
  "ok": true
}