{
  "response": {
    "language": "jpn",
    "languageIsReliable": false,
    "entities": [
      {
        "id": 0,
        "type": [
          "Number"
        ],
        "matchingTokens": [
          9
        ],
        "entityId": "11",
        "confidenceScore": 0.5,
        "wikiLink": "",
        "matchedText": "11",
        "relevanceScore": 0,
        "entityEnglishId": "",
        "startingPos": 15,
        "endingPos": 17,
        "unit": "Number"
      },
      {
        "id": 1,
        "type": [
          "Place",
          "PopulatedPlace",
          "Settlement",
          "City"
        ],
        "matchingTokens": [
          5
        ],
        "entityId": "シカゴ",
        "freebaseTypes": [
          "/book/book_subject",
          "/periodicals/newspaper_circulation_area",
          "/symbols/name_source",
          "/location/dated_location",
          "/location/hud_county_place",
          "/location/place_with_neighborhoods",
          "/location/capital_of_administrative_division",
          "/travel/travel_destination",
          "/fictional_universe/fictional_setting",
          "/film/film_location",
          "/government/governmental_jurisdiction",
          "/organization/organization_scope",
          "/exhibitions/exhibition_sponsor",
          "/business/business_location",
          "/award/award_discipline",
          "/location/citytown",
          "/sports/sports_team_location",
          "/tv/tv_location",
          "/location/administrative_division",
          "/business/employer",
          "/location/statistical_region",
          "/location/location",
          "/olympics/olympic_bidding_city"
        ],
        "confidenceScore": 15.04,
        "wikiLink": "http://ja.wikipedia.org/wiki/シカゴ",
        "matchedText": "シカゴ",
        "freebaseId": "/m/01_d4",
        "relevanceScore": 0.02951,
        "entityEnglishId": "Chicago",
        "startingPos": 8,
        "endingPos": 11,
        "wikidataId": "Q1297"
      },
      {
        "id": 2,
        "type": [
          "Agent",
          "Person"
        ],
        "matchingTokens": [
          0,
          1,
          2,
          3
        ],
        "entityId": "バラク・オバマ",
        "freebaseTypes": [
          "/people/measured_person",
          "/organization/organization_founder",
          "/business/board_member",
          "/biology/animal_owner",
          "/government/u_s_congressperson",
          "/business/employer",
          "/government/political_appointer",
          "/internet/social_network_user",
          "/music/composer",
          "/visual_art/art_subject",
          "/award/award_winner",
          "/organization/organization_member",
          "/event/public_speaker",
          "/internet/blogger",
          "/music/group_member",
          "/architecture/building_occupant",
          "/influence/influence_node",
          "/people/family_member",
          "/film/person_or_entity_appearing_in_film",
          "/award/ranked_item",
          "/book/book_subject",
          "/medicine/diagnostic_test",
          "/people/appointer",
          "/music/artist",
          "/royalty/chivalric_order_officer",
          "/symbols/name_source",
          "/celebrities/celebrity",
          "/fictional_universe/fictional_character",
          "/government/us_president",
          "/music/featured_artist",
          "/government/polled_entity",
          "/media_common/quotation_subject",
          "/award/award_nominee",
          "/tv/tv_personality",
          "/fictional_universe/person_in_fiction",
          "/film/film_subject",
          "/government/politician",
          "/education/honorary_degree_recipient",
          "/tv/tv_program_guest",
          "/book/author",
          "/book/poem_character",
          "/broadcast/producer",
          "/people/person"
        ],
        "confidenceScore": 3.398,
        "wikiLink": "http://ja.wikipedia.org/wiki/バラク・オバマ",
        "matchedText": "バラク・オバマ",
        "freebaseId": "/m/02mjmr",
        "relevanceScore": 0.08655,
        "entityEnglishId": "Barack Obama",
        "startingPos": 0,
        "endingPos": 7,
        "wikidataId": "Q76"
      }
    ]
  },
  "time": 0.01373,
  "ok": true
}