{
  "response": {
    "language": "eng",
    "languageIsReliable": true,
    "entities": [
      {
        "id": 0,
        "matchingTokens": [
          12
        ],
        "entityId": "Rapid transit",
        "freebaseTypes": [
          "/metropolitan_transit/transit_service_type",
          "/travel/transportation_mode"
        ],
        "confidenceScore": 6.641,
        "wikiLink": "http://en.wikipedia.org/wiki/Rapid_transit",
        "matchedText": "subway",
        "freebaseId": "/m/0195fx",
        "relevanceScore": 0.5807,
        "entityEnglishId": "Rapid transit",
        "startingPos": 75,
        "endingPos": 81,
        "wikidataId": "Q5503"
      },
      {
        "id": 1,
        "type": [
          "Person"
        ],
        "matchingTokens": [
          133,
          134,
          135
        ],
        "entityId": "Andrew Francis Wallace",
        "freebaseTypes": [
          "/people/person"
        ],
        "confidenceScore": 0.5,
        "wikiLink": "",
        "matchedText": "Andrew Francis Wallace",
        "relevanceScore": 0,
        "entityEnglishId": "",
        "startingPos": 732,
        "endingPos": 754
      },
      {
        "id": 2,
        "matchingTokens": [
          111
        ],
        "entityId": "Metro station",
        "freebaseTypes": [
          "/travel/transport_terminus",
          "/architecture/building_function"
        ],
        "confidenceScore": 2.179,
        "wikiLink": "http://en.wikipedia.org/wiki/Metro_station",
        "matchedText": "station",
        "freebaseId": "/m/01p3xl",
        "relevanceScore": 0.6833,
        "entityEnglishId": "Metro station",
        "startingPos": 635,
        "endingPos": 642,
        "wikidataId": "Q928830"
      },
      {
        "id": 3,
        "type": [
          "Number"
        ],
        "matchingTokens": [
          39
        ],
        "entityId": "75",
        "confidenceScore": 0.5,
        "wikiLink": "",
        "matchedText": "75",
        "relevanceScore": 0,
        "entityEnglishId": "",
        "startingPos": 228,
        "endingPos": 230
      },
      {
        "id": 4,
        "type": [
          "Number"
        ],
        "matchingTokens": [
          45
        ],
        "entityId": "200000",
        "confidenceScore": 0.5,
        "wikiLink": "",
        "matchedText": "200,000",
        "relevanceScore": 0,
        "entityEnglishId": "",
        "startingPos": 262,
        "endingPos": 269
      },
      {
        "id": 5,
        "type": [
          "Money"
        ],
        "matchingTokens": [
          65,
          66,
          67
        ],
        "entityId": "500000000",
        "confidenceScore": 0.5,
        "wikiLink": "",
        "matchedText": "$500 million",
        "relevanceScore": 0,
        "entityEnglishId": "",
        "startingPos": 384,
        "endingPos": 396,
        "unit": "$"
      },
      {
        "id": 6,
        "type": [
          "Place",
          "PopulatedPlace",
          "Settlement",
          "City"
        ],
        "matchingTokens": [
          9
        ],
        "entityId": "Toronto",
        "freebaseTypes": [
          "/organization/organization_scope",
          "/periodicals/newspaper_circulation_area",
          "/film/film_screening_venue",
          "/travel/travel_destination",
          "/location/dated_location",
          "/location/location",
          "/film/film_location",
          "/government/governmental_jurisdiction",
          "/olympics/olympic_bidding_city",
          "/location/statistical_region",
          "/fictional_universe/fictional_setting",
          "/location/administrative_division",
          "/location/place_with_neighborhoods",
          "/location/ca_census_division",
          "/location/citytown",
          "/radio/radio_subject",
          "/location/capital_of_administrative_division",
          "/tv/tv_location",
          "/business/employer",
          "/sports/sports_team_location"
        ],
        "confidenceScore": 17.08,
        "wikiLink": "http://en.wikipedia.org/wiki/Toronto",
        "matchedText": "Toronto",
        "freebaseId": "/m/0h7h6",
        "relevanceScore": 0.3767,
        "entityEnglishId": "Toronto",
        "startingPos": 60,
        "endingPos": 67,
        "wikidataId": "Q172"
      },
      {
        "id": 7,
        "matchingTokens": [
          5
        ],
        "entityId": "Commuting",
        "confidenceScore": 0.9743,
        "wikiLink": "http://en.wikipedia.org/wiki/Commuting",
        "matchedText": "commuters",
        "freebaseId": "/m/01lvp1",
        "relevanceScore": 0.2478,
        "entityEnglishId": "Commuting",
        "startingPos": 34,
        "endingPos": 43,
        "wikidataId": "Q48442"
      },
      {
        "id": 8,
        "matchingTokens": [
          71
        ],
        "entityId": "Public transport",
        "freebaseTypes": [
          "/aviation/airport_type",
          "/business/industry",
          "/metropolitan_transit/transit_service_type",
          "/organization/organization_sector"
        ],
        "confidenceScore": 1.087,
        "wikiLink": "http://en.wikipedia.org/wiki/Public_transport",
        "matchedText": "transit",
        "freebaseId": "/m/05zdp",
        "relevanceScore": 0.4931,
        "entityEnglishId": "Public transport",
        "startingPos": 417,
        "endingPos": 424,
        "wikidataId": "Q178512"
      },
      {
        "id": 9,
        "matchingTokens": [
          201
        ],
        "entityId": "Stairs",
        "freebaseTypes": [
          "/book/book_subject",
          "/visual_art/art_subject",
          "/people/cause_of_death"
        ],
        "confidenceScore": 3.773,
        "wikiLink": "http://en.wikipedia.org/wiki/Stairs",
        "matchedText": "stairs",
        "freebaseId": "/m/01lynh",
        "relevanceScore": 0.22,
        "entityEnglishId": "Stairs",
        "startingPos": 1077,
        "endingPos": 1083,
        "wikidataId": "Q12511"
      },
      {
        "id": 10,
        "type": [
          "Place"
        ],
        "matchingTokens": [
          203
        ],
        "entityId": "Escalator",
        "freebaseTypes": [
          "/law/invention",
          "/business/product_category"
        ],
        "confidenceScore": 5.228,
        "wikiLink": "http://en.wikipedia.org/wiki/Escalator",
        "matchedText": "escalators",
        "freebaseId": "/m/02r1p",
        "relevanceScore": 0.5357,
        "entityEnglishId": "Escalator",
        "startingPos": 1085,
        "endingPos": 1095,
        "wikidataId": "Q15003"
      },
      {
        "id": 11,
        "type": [
          "Money"
        ],
        "matchingTokens": [
          153,
          154,
          155
        ],
        "entityId": "1100000000",
        "confidenceScore": 0.5,
        "wikiLink": "",
        "matchedText": "$1.1 billion",
        "relevanceScore": 0,
        "entityEnglishId": "",
        "startingPos": 836,
        "endingPos": 848,
        "unit": "$"
      },
      {
        "id": 12,
        "type": [
          "Agent",
          "Organisation",
          "PublicTransitSystem",
          "Company"
        ],
        "matchingTokens": [
          37,
          38
        ],
        "entityId": "Toronto Transit Commission",
        "freebaseTypes": [
          "/organization/organization",
          "/metropolitan_transit/transit_agency",
          "/metropolitan_transit/transit_system"
        ],
        "confidenceScore": 3.154,
        "wikiLink": "http://en.wikipedia.org/wiki/Toronto_Transit_Commission",
        "matchedText": "TTC’s",
        "freebaseId": "/m/07m8y",
        "relevanceScore": 0.6612,
        "entityEnglishId": "Toronto Transit Commission",
        "startingPos": 222,
        "endingPos": 227,
        "wikidataId": "Q17978",
        "crunchbaseId": "toronto-transit-commission",
        "permid": "4295948050"
      },
      {
        "id": 13,
        "type": [
          "Place",
          "ArchitecturalStructure",
          "Infrastructure",
          "Station"
        ],
        "matchingTokens": [
          51
        ],
        "entityId": "Bloor–Yonge station",
        "freebaseTypes": [
          "/metropolitan_transit/transit_stop",
          "/location/location"
        ],
        "confidenceScore": 4.481,
        "wikiLink": "http://en.wikipedia.org/wiki/Bloor–Yonge_station",
        "matchedText": "Bloor-Yonge",
        "freebaseId": "/m/04rdqv",
        "relevanceScore": 1,
        "entityEnglishId": "Bloor–Yonge station",
        "startingPos": 304,
        "endingPos": 315,
        "wikidataId": "Q885413"
      },
      {
        "id": 14,
        "matchingTokens": [
          268
        ],
        "entityId": "Construction",
        "freebaseTypes": [
          "/visual_art/art_subject",
          "/organization/organization_type",
          "/people/professional_field",
          "/book/book_subject",
          "/education/field_of_study",
          "/fashion/garment",
          "/internet/website_category",
          "/organization/contact_category",
          "/visual_art/visual_art_medium",
          "/people/profession",
          "/organization/organization_sector",
          "/government/government_service",
          "/business/industry",
          "/fictional_universe/fictional_organization_type"
        ],
        "confidenceScore": 4.327,
        "wikiLink": "http://en.wikipedia.org/wiki/Construction",
        "matchedText": "construction",
        "freebaseId": "/m/01jnzj",
        "relevanceScore": 0.2552,
        "entityEnglishId": "Construction",
        "startingPos": 1464,
        "endingPos": 1476,
        "wikidataId": "Q385378"
      },
      {
        "id": 15,
        "type": [
          "Place",
          "ArchitecturalStructure",
          "Infrastructure",
          "RouteOfTransportation",
          "Road"
        ],
        "matchingTokens": [
          255
        ],
        "entityId": "Yonge Street",
        "freebaseTypes": [
          "/symbols/namesake",
          "/travel/tourist_attraction",
          "/location/location",
          "/transportation/road"
        ],
        "confidenceScore": 1.171,
        "wikiLink": "http://en.wikipedia.org/wiki/Yonge_Street",
        "matchedText": "Yonge",
        "freebaseId": "/m/01pycc",
        "relevanceScore": 0.4358,
        "entityEnglishId": "Yonge Street",
        "startingPos": 1385,
        "endingPos": 1390,
        "wikidataId": "Q20725"
      },
      {
        "id": 16,
        "type": [
          "Place",
          "ArchitecturalStructure",
          "Infrastructure",
          "RouteOfTransportation",
          "RailwayLine"
        ],
        "matchingTokens": [
          255,
          256
        ],
        "entityId": "Line 1 Yonge–University",
        "freebaseTypes": [
          "/location/location",
          "/metropolitan_transit/transit_line"
        ],
        "confidenceScore": 3.421,
        "wikiLink": "http://en.wikipedia.org/wiki/Line_1_Yonge–University",
        "matchedText": "Yonge line",
        "freebaseId": "/m/02w_5g",
        "relevanceScore": 0.9439,
        "entityEnglishId": "Line 1 Yonge–University",
        "startingPos": 1385,
        "endingPos": 1395,
        "wikidataId": "Q54369"
      },
      {
        "id": 17,
        "type": [
          "Place",
          "PopulatedPlace",
          "Settlement",
          "City"
        ],
        "matchingTokens": [
          137
        ],
        "entityId": "Toronto",
        "freebaseTypes": [
          "/organization/organization_scope",
          "/periodicals/newspaper_circulation_area",
          "/film/film_screening_venue",
          "/travel/travel_destination",
          "/location/dated_location",
          "/location/location",
          "/film/film_location",
          "/government/governmental_jurisdiction",
          "/olympics/olympic_bidding_city",
          "/location/statistical_region",
          "/fictional_universe/fictional_setting",
          "/location/administrative_division",
          "/location/place_with_neighborhoods",
          "/location/ca_census_division",
          "/location/citytown",
          "/radio/radio_subject",
          "/location/capital_of_administrative_division",
          "/tv/tv_location",
          "/business/employer",
          "/sports/sports_team_location"
        ],
        "confidenceScore": 17.08,
        "wikiLink": "http://en.wikipedia.org/wiki/Toronto",
        "matchedText": "Toronto",
        "freebaseId": "/m/0h7h6",
        "relevanceScore": 0.3767,
        "entityEnglishId": "Toronto",
        "startingPos": 757,
        "endingPos": 764,
        "wikidataId": "Q172"
      },
      {
        "id": 18,
        "matchingTokens": [
          90,
          91
        ],
        "entityId": "Critical point (thermodynamics)",
        "confidenceScore": 1.242,
        "wikiLink": "http://en.wikipedia.org/wiki/Critical_point_(thermodynamics)",
        "matchedText": "critical point",
        "freebaseId": "/m/068fgj",
        "relevanceScore": 0.2139,
        "entityEnglishId": "Critical point (thermodynamics)",
        "startingPos": 520,
        "endingPos": 534,
        "wikidataId": "Q111059"
      },
      {
        "id": 19,
        "type": [
          "Place",
          "ArchitecturalStructure",
          "Infrastructure",
          "Station"
        ],
        "matchingTokens": [
          84,
          85
        ],
        "entityId": "Bloor–Yonge station",
        "freebaseTypes": [
          "/metropolitan_transit/transit_stop",
          "/location/location"
        ],
        "confidenceScore": 1.583,
        "wikiLink": "http://en.wikipedia.org/wiki/Bloor–Yonge_station",
        "matchedText": "Bloor-Yonge station",
        "freebaseId": "/m/04rdqv",
        "relevanceScore": 1,
        "entityEnglishId": "Bloor–Yonge station",
        "startingPos": 491,
        "endingPos": 510,
        "wikidataId": "Q885413"
      },
      {
        "id": 20,
        "matchingTokens": [
          40
        ],
        "entityId": "Rapid transit",
        "freebaseTypes": [
          "/metropolitan_transit/transit_service_type",
          "/travel/transportation_mode"
        ],
        "confidenceScore": 6.641,
        "wikiLink": "http://en.wikipedia.org/wiki/Rapid_transit",
        "matchedText": "subway",
        "freebaseId": "/m/0195fx",
        "relevanceScore": 0.5807,
        "entityEnglishId": "Rapid transit",
        "startingPos": 231,
        "endingPos": 237,
        "wikidataId": "Q5503"
      },
      {
        "id": 21,
        "matchingTokens": [
          1
        ],
        "entityId": "Metro station",
        "freebaseTypes": [
          "/travel/transport_terminus",
          "/architecture/building_function"
        ],
        "confidenceScore": 2.179,
        "wikiLink": "http://en.wikipedia.org/wiki/Metro_station",
        "matchedText": "station",
        "freebaseId": "/m/01p3xl",
        "relevanceScore": 0.6833,
        "entityEnglishId": "Metro station",
        "startingPos": 12,
        "endingPos": 19,
        "wikidataId": "Q928830"
      },
      {
        "id": 22,
        "type": [
          "Place",
          "ArchitecturalStructure",
          "Infrastructure",
          "Station"
        ],
        "matchingTokens": [
          0,
          1
        ],
        "entityId": "Bloor–Yonge station",
        "freebaseTypes": [
          "/metropolitan_transit/transit_stop",
          "/location/location"
        ],
        "confidenceScore": 1.583,
        "wikiLink": "http://en.wikipedia.org/wiki/Bloor–Yonge_station",
        "matchedText": "Bloor-Yonge station",
        "freebaseId": "/m/04rdqv",
        "relevanceScore": 1,
        "entityEnglishId": "Bloor–Yonge station",
        "startingPos": 0,
        "endingPos": 19,
        "wikidataId": "Q885413"
      },
      {
        "id": 23,
        "type": [
          "Place",
          "ArchitecturalStructure",
          "Infrastructure",
          "Station"
        ],
        "matchingTokens": [
          110,
          111
        ],
        "entityId": "Bloor–Yonge station",
        "freebaseTypes": [
          "/metropolitan_transit/transit_stop",
          "/location/location"
        ],
        "confidenceScore": 1.583,
        "wikiLink": "http://en.wikipedia.org/wiki/Bloor–Yonge_station",
        "matchedText": "Bloor-Yonge station",
        "freebaseId": "/m/04rdqv",
        "relevanceScore": 1,
        "entityEnglishId": "Bloor–Yonge station",
        "startingPos": 623,
        "endingPos": 642,
        "wikidataId": "Q885413"
      },
      {
        "id": 24,
        "matchingTokens": [
          116,
          117
        ],
        "entityId": "Critical point (thermodynamics)",
        "confidenceScore": 1.242,
        "wikiLink": "http://en.wikipedia.org/wiki/Critical_point_(thermodynamics)",
        "matchedText": "critical point",
        "freebaseId": "/m/068fgj",
        "relevanceScore": 0.2139,
        "entityEnglishId": "Critical point (thermodynamics)",
        "startingPos": 652,
        "endingPos": 666,
        "wikidataId": "Q111059"
      },
      {
        "id": 25,
        "type": [
          "Time"
        ],
        "matchingTokens": [
          264
        ],
        "entityId": "2019-10-30T00:00:00.000+00:00",
        "confidenceScore": 0.5,
        "wikiLink": "",
        "matchedText": "Wednesday",
        "relevanceScore": 0,
        "entityEnglishId": "",
        "startingPos": 1436,
        "endingPos": 1445
      },
      {
        "id": 26,
        "type": [
          "Number"
        ],
        "matchingTokens": [
          254
        ],
        "entityId": "1",
        "confidenceScore": 0.5,
        "wikiLink": "",
        "matchedText": "1",
        "relevanceScore": 0,
        "entityEnglishId": "",
        "startingPos": 1383,
        "endingPos": 1384
      },
      {
        "id": 27,
        "type": [
          "Number"
        ],
        "matchingTokens": [
          189
        ],
        "entityId": "2",
        "confidenceScore": 0.5,
        "wikiLink": "",
        "matchedText": "2",
        "relevanceScore": 0,
        "entityEnglishId": "",
        "startingPos": 1015,
        "endingPos": 1016
      },
      {
        "id": 28,
        "matchingTokens": [
          205
        ],
        "entityId": "Elevator",
        "freebaseTypes": [
          "/book/book_subject",
          "/business/product_category",
          "/business/industry",
          "/film/film_subject"
        ],
        "confidenceScore": 5.069,
        "wikiLink": "http://en.wikipedia.org/wiki/Elevator",
        "matchedText": "elevators",
        "freebaseId": "/m/02r60",
        "relevanceScore": 0.3994,
        "entityEnglishId": "Elevator",
        "startingPos": 1100,
        "endingPos": 1109,
        "wikidataId": "Q132911"
      },
      {
        "id": 29,
        "type": [
          "Number"
        ],
        "matchingTokens": [
          287
        ],
        "entityId": "2028",
        "confidenceScore": 0.5,
        "wikiLink": "",
        "matchedText": "2028",
        "relevanceScore": 0,
        "entityEnglishId": "",
        "startingPos": 1596,
        "endingPos": 1600,
        "unit": "Number"
      },
      {
        "id": 30,
        "type": [
          "Time"
        ],
        "matchingTokens": [
          14,
          15
        ],
        "entityId": "1966-01-01T00:00:00.000+00:00",
        "confidenceScore": 0.5,
        "wikiLink": "",
        "matchedText": "in 1966",
        "relevanceScore": 0,
        "entityEnglishId": "",
        "startingPos": 95,
        "endingPos": 102
      },
      {
        "id": 31,
        "matchingTokens": [
          183
        ],
        "entityId": "Wall",
        "confidenceScore": 1.486,
        "wikiLink": "http://en.wikipedia.org/wiki/Wall",
        "matchedText": "wall",
        "freebaseId": "/m/09qqq",
        "relevanceScore": 0.1506,
        "entityEnglishId": "Wall",
        "startingPos": 990,
        "endingPos": 994,
        "wikidataId": "Q42948"
      },
      {
        "id": 32,
        "type": [
          "Work",
          "WrittenWork",
          "PeriodicalLiterature",
          "Newspaper"
        ],
        "matchingTokens": [
          137,
          138
        ],
        "entityId": "Toronto Star",
        "freebaseTypes": [
          "/book/periodical",
          "/book/newspaper"
        ],
        "confidenceScore": 3.923,
        "wikiLink": "http://en.wikipedia.org/wiki/Toronto_Star",
        "matchedText": "Toronto Star",
        "freebaseId": "/m/011m14",
        "relevanceScore": 0.145,
        "entityEnglishId": "Toronto Star",
        "startingPos": 757,
        "endingPos": 769,
        "wikidataId": "Q1067299"
      },
      {
        "id": 33,
        "matchingTokens": [
          40,
          41
        ],
        "entityId": "Metro station",
        "freebaseTypes": [
          "/travel/transport_terminus",
          "/architecture/building_function"
        ],
        "confidenceScore": 2.179,
        "wikiLink": "http://en.wikipedia.org/wiki/Metro_station",
        "matchedText": "subway stations",
        "freebaseId": "/m/01p3xl",
        "relevanceScore": 0.5933,
        "entityEnglishId": "Metro station",
        "startingPos": 231,
        "endingPos": 246,
        "wikidataId": "Q928830"
      },
      {
        "id": 34,
        "matchingTokens": [
          142
        ],
        "entityId": "Cost",
        "freebaseTypes": [
          "/book/book_subject",
          "/media_common/quotation_subject"
        ],
        "confidenceScore": 1.415,
        "wikiLink": "http://en.wikipedia.org/wiki/Cost",
        "matchedText": "cost",
        "freebaseId": "/m/0168hv",
        "relevanceScore": 0.0327,
        "entityEnglishId": "Cost",
        "startingPos": 778,
        "endingPos": 782,
        "wikidataId": "Q240673"
      },
      {
        "id": 35,
        "matchingTokens": [
          85
        ],
        "entityId": "Metro station",
        "freebaseTypes": [
          "/travel/transport_terminus",
          "/architecture/building_function"
        ],
        "confidenceScore": 2.179,
        "wikiLink": "http://en.wikipedia.org/wiki/Metro_station",
        "matchedText": "station",
        "freebaseId": "/m/01p3xl",
        "relevanceScore": 0.6833,
        "entityEnglishId": "Metro station",
        "startingPos": 503,
        "endingPos": 510,
        "wikidataId": "Q928830"
      },
      {
        "id": 36,
        "matchingTokens": [
          196
        ],
        "entityId": "Train",
        "freebaseTypes": [
          "/film/film_subject",
          "/metropolitan_transit/transit_vehicle",
          "/business/product_category",
          "/metropolitan_transit/transit_service_type",
          "/metropolitan_transit/transit_system",
          "/media_common/quotation_subject",
          "/travel/transportation_mode"
        ],
        "confidenceScore": 1.323,
        "wikiLink": "http://en.wikipedia.org/wiki/Train",
        "matchedText": "train",
        "freebaseId": "/m/07jdr",
        "relevanceScore": 0.4052,
        "entityEnglishId": "Train",
        "startingPos": 1050,
        "endingPos": 1055,
        "wikidataId": "Q870"
      },
      {
        "id": 37,
        "type": [
          "Place",
          "ArchitecturalStructure",
          "Infrastructure",
          "RouteOfTransportation",
          "Road"
        ],
        "matchingTokens": [
          195
        ],
        "entityId": "Yonge Street",
        "freebaseTypes": [
          "/symbols/namesake",
          "/travel/tourist_attraction",
          "/location/location",
          "/transportation/road"
        ],
        "confidenceScore": 1.171,
        "wikiLink": "http://en.wikipedia.org/wiki/Yonge_Street",
        "matchedText": "Yonge",
        "freebaseId": "/m/01pycc",
        "relevanceScore": 0.4358,
        "entityEnglishId": "Yonge Street",
        "startingPos": 1044,
        "endingPos": 1049,
        "wikidataId": "Q20725"
      }
    ]
  },
  "time": 0.1684,
  "ok": true
}