{
  "response": {
    "language": "eng",
    "languageIsReliable": true,
    "entities": [
      {
        "id": 0,
        "type": [
          "Place",
          "PopulatedPlace",
          "HistoricPlace",
          "Settlement"
        ],
        "matchingTokens": [
          5,
          6
        ],
        "entityId": "Jackson Heights, Queens",
        "freebaseTypes": [
          "/location/location",
          "/location/statistical_region",
          "/location/neighborhood"
        ],
        "confidenceScore": 2.17,
        "wikiLink": "http://en.wikipedia.org/wiki/Jackson_Heights,_Queens",
        "matchedText": "Jackson Heights",
        "freebaseId": "/m/01qcvw",
        "relevanceScore": 0.04145,
        "entityEnglishId": "Jackson Heights, Queens",
        "startingPos": 22,
        "endingPos": 37,
        "wikidataId": "Q1145574"
      },
      {
        "id": 1,
        "type": [
          "Place",
          "PopulatedPlace",
          "Settlement",
          "City"
        ],
        "matchingTokens": [
          8
        ],
        "entityId": "Brooklyn",
        "freebaseTypes": [
          "/sports/sports_team_location",
          "/location/hud_foreclosure_area",
          "/location/location",
          "/organization/organization_scope",
          "/travel/travel_destination",
          "/location/dated_location",
          "/location/administrative_division",
          "/location/statistical_region",
          "/book/book_subject",
          "/exhibitions/exhibition_subject",
          "/location/place_with_neighborhoods",
          "/location/us_county",
          "/periodicals/newspaper_circulation_area",
          "/business/employer",
          "/book/periodical_subject",
          "/film/film_location",
          "/government/governmental_jurisdiction",
          "/fictional_universe/fictional_setting"
        ],
        "confidenceScore": 1.997,
        "wikiLink": "http://en.wikipedia.org/wiki/Brooklyn",
        "matchedText": "Brooklyn",
        "freebaseId": "/m/0cr3d",
        "relevanceScore": 0.056,
        "entityEnglishId": "Brooklyn",
        "startingPos": 41,
        "endingPos": 49,
        "wikidataId": "Q18419"
      }
    ]
  },
  "time": 0.01079,
  "ok": true
}