{
  "response": {
    "language": "eng",
    "languageIsReliable": true,
    "entities": [
      {
        "id": 0,
        "type": [
          "Agent",
          "Organisation",
          "Company"
        ],
        "matchingTokens": [
          0
        ],
        "entityId": "Walmart",
        "freebaseTypes": [
          "/business/employer",
          "/business/business_operation",
          "/organization/organization",
          "/business/issuer",
          "/award/ranked_item",
          "/film/film_subject",
          "/organization/organization",
          "/business/business_operation",
          "/location/geocode",
          "/business/customer",
          "/organization/organization_partnership",
          "/award/award_winner",
          "/business/consumer_company",
          "/business/employer",
          "/book/book_subject",
          "/organization/organization",
          "/business/business_operation",
          "/business/issuer",
          "/business/employer"
        ],
        "confidenceScore": 2.737,
        "wikiLink": "http://en.wikipedia.org/wiki/Walmart",
        "matchedText": "Walmart",
        "freebaseId": "/m/01gmwt",
        "relevanceScore": 0.1685,
        "entityEnglishId": "Walmart",
        "startingPos": 0,
        "endingPos": 7,
        "wikidataId": "Q483551",
        "crunchbaseId": "walmart",
        "lei": "Y87794H0US1R65VBXU25",
        "figi": "BBG001S5XH92",
        "permid": "4295905298"
      }
    ]
  },
  "time": 0.01273,
  "ok": true
}