{
  "response": {
    "language": "eng",
    "languageIsReliable": true,
    "entities": [
      {
        "id": 0,
        "type": [
          "Place",
          "PopulatedPlace",
          "Country"
        ],
        "matchingTokens": [
          3
        ],
        "entityId": "Canada",
        "freebaseTypes": [
          "/law/court_jurisdiction_area",
          "/royalty/kingdom",
          "/biology/breed_origin",
          "/tv/tv_location",
          "/book/book_subject",
          "/film/film_location",
          "/military/military_combatant",
          "/government/governmental_jurisdiction",
          "/olympics/olympic_participating_country",
          "/periodicals/newspaper_circulation_area",
          "/sports/sport_country",
          "/film/film_subject",
          "/food/beer_country_region",
          "/location/statistical_region",
          "/sports/sports_team_location",
          "/location/country",
          "/location/dated_location",
          "/exhibitions/exhibition_sponsor",
          "/location/location",
          "/organization/organization_founder",
          "/symbols/flag_referent",
          "/symbols/coat_of_arms_bearer",
          "/fictional_universe/fictional_setting",
          "/cvg/computer_game_region",
          "/organization/contact_category",
          "/organization/organization_member",
          "/organization/organization_scope"
        ],
        "confidenceScore": 7.14,
        "wikiLink": "http://en.wikipedia.org/wiki/Canada",
        "matchedText": "Canada",
        "freebaseId": "/m/0d060g",
        "relevanceScore": 0.0309,
        "entityEnglishId": "Canada",
        "startingPos": 10,
        "endingPos": 16,
        "wikidataId": "Q16"
      },
      {
        "id": 1,
        "type": [
          "Species",
          "Eukaryote",
          "Animal",
          "Bird"
        ],
        "matchingTokens": [
          3,
          4
        ],
        "entityId": "Canada goose",
        "freebaseTypes": [
          "/biology/organism_classification"
        ],
        "confidenceScore": 4.976,
        "wikiLink": "http://en.wikipedia.org/wiki/Canada_goose",
        "matchedText": "Canada Goose",
        "freebaseId": "/m/01g0mh",
        "relevanceScore": 0,
        "entityEnglishId": "Canada goose",
        "startingPos": 10,
        "endingPos": 22,
        "wikidataId": "Q26733"
      }
    ]
  },
  "time": 0.00836,
  "ok": true
}