{
  "response": {
    "language": "eng",
    "languageIsReliable": true,
    "entities": [
      {
        "id": 0,
        "type": [
          "Place"
        ],
        "matchingTokens": [
          1,
          2
        ],
        "entityId": "Abbey Road",
        "freebaseTypes": [
          "/location/location"
        ],
        "confidenceScore": 0.5,
        "wikiLink": "",
        "matchedText": "Abbey Road",
        "relevanceScore": 0,
        "entityEnglishId": "",
        "startingPos": 1,
        "endingPos": 11
      }
    ]
  },
  "time": 0.007855,
  "ok": true
}