{
  "response": {
    "language": "eng",
    "languageIsReliable": true,
    "entities": [
      {
        "id": 0,
        "type": [
          "Place",
          "PopulatedPlace",
          "Settlement",
          "City"
        ],
        "matchingTokens": [
          65,
          66
        ],
        "entityId": "Tel Aviv",
        "freebaseTypes": [
          "/location/place_with_neighborhoods",
          "/location/location",
          "/protected_sites/listed_site",
          "/business/employer",
          "/periodicals/newspaper_circulation_area",
          "/sports/sports_team_location",
          "/business/business_location",
          "/government/governmental_jurisdiction",
          "/location/capital_of_administrative_division",
          "/film/film_location",
          "/book/book_subject",
          "/location/citytown",
          "/location/statistical_region",
          "/fictional_universe/fictional_setting",
          "/travel/travel_destination",
          "/location/dated_location"
        ],
        "confidenceScore": 6.652,
        "wikiLink": "http://en.wikipedia.org/wiki/Tel_Aviv",
        "matchedText": "Tel Aviv",
        "freebaseId": "/m/07qzv",
        "relevanceScore": 0.2368,
        "entityEnglishId": "Tel Aviv",
        "startingPos": 319,
        "endingPos": 327,
        "wikidataId": "Q33935"
      },
      {
        "id": 1,
        "matchingTokens": [
          69
        ],
        "entityId": "Retail",
        "freebaseTypes": [
          "/education/field_of_study",
          "/book/book_subject",
          "/organization/organization_type",
          "/architecture/building_function",
          "/business/customer",
          "/business/industry",
          "/organization/organization_sector",
          "/internet/website_category",
          "/business/competitive_space",
          "/organization/contact_category"
        ],
        "confidenceScore": 4.011,
        "wikiLink": "http://en.wikipedia.org/wiki/Retail",
        "matchedText": "retailers",
        "freebaseId": "/m/0191_7",
        "relevanceScore": 0.481,
        "entityEnglishId": "Retail",
        "startingPos": 342,
        "endingPos": 351,
        "wikidataId": "Q126793"
      },
      {
        "id": 2,
        "matchingTokens": [
          76
        ],
        "entityId": "Logic",
        "freebaseTypes": [
          "/kp_lw/philosophy_school",
          "/media_common/media_genre",
          "/award/award_discipline",
          "/media_common/quotation_subject",
          "/kp_lw/common/topic",
          "/media_common/literary_genre",
          "/education/field_of_study",
          "/book/book_subject"
        ],
        "confidenceScore": 1.231,
        "wikiLink": "http://en.wikipedia.org/wiki/Logic",
        "matchedText": "logic",
        "freebaseId": "/m/09xq9d",
        "relevanceScore": 0.1938,
        "entityEnglishId": "Logic",
        "startingPos": 390,
        "endingPos": 395,
        "wikidataId": "Q8078"
      },
      {
        "id": 3,
        "matchingTokens": [
          78
        ],
        "entityId": "Technology",
        "freebaseTypes": [
          "/organization/organization_sector",
          "/film/film_subject",
          "/interests/interest",
          "/media_common/netflix_genre",
          "/book/periodical_subject",
          "/exhibitions/exhibition_subject",
          "/conferences/conference_subject",
          "/media_common/media_genre",
          "/tv/tv_subject",
          "/people/profession",
          "/award/award_discipline",
          "/book/book_subject",
          "/people/professional_field",
          "/media_common/literary_genre",
          "/education/field_of_study",
          "/business/industry",
          "/business/competitive_space",
          "/interests/hobby",
          "/award/award_category",
          "/broadcast/genre",
          "/internet/website_category",
          "/media_common/quotation_subject"
        ],
        "confidenceScore": 1.285,
        "wikiLink": "http://en.wikipedia.org/wiki/Technology",
        "matchedText": "technology",
        "freebaseId": "/m/07c1v",
        "relevanceScore": 0.2176,
        "entityEnglishId": "Technology",
        "startingPos": 397,
        "endingPos": 407,
        "wikidataId": "Q11016"
      },
      {
        "id": 4,
        "type": [
          "Agent",
          "Organisation",
          "Company"
        ],
        "matchingTokens": [
          132,
          133
        ],
        "entityId": "McDonald's",
        "freebaseTypes": [
          "/business/industry",
          "/business/business_operation",
          "/law/litigant",
          "/business/consumer_company",
          "/law/legal_subject",
          "/architecture/architectural_structure_owner",
          "/business/issuer",
          "/book/book_subject",
          "/film/film_subject",
          "/award/ranked_item",
          "/organization/organization",
          "/business/business_location",
          "/business/customer",
          "/business/sponsor",
          "/business/employer",
          "/dining/restaurant"
        ],
        "confidenceScore": 8.804,
        "wikiLink": "http://en.wikipedia.org/wiki/McDonald's",
        "matchedText": "McDonald’s",
        "freebaseId": "/m/07gyp7",
        "relevanceScore": 0.5451,
        "entityEnglishId": "McDonald's",
        "startingPos": 661,
        "endingPos": 671,
        "wikidataId": "Q38076",
        "crunchbaseId": "mcdonalds",
        "lei": "UE2136O97NLB5BYP9H04",
        "figi": "BBG001S5T110",
        "permid": "4295904499"
      },
      {
        "id": 5,
        "type": [
          "Agent",
          "Organisation",
          "Company"
        ],
        "matchingTokens": [
          43,
          44
        ],
        "entityId": "McDonald's",
        "freebaseTypes": [
          "/business/industry",
          "/business/business_operation",
          "/law/litigant",
          "/business/consumer_company",
          "/law/legal_subject",
          "/architecture/architectural_structure_owner",
          "/business/issuer",
          "/book/book_subject",
          "/film/film_subject",
          "/award/ranked_item",
          "/organization/organization",
          "/business/business_location",
          "/business/customer",
          "/business/sponsor",
          "/business/employer",
          "/dining/restaurant"
        ],
        "confidenceScore": 8.804,
        "wikiLink": "http://en.wikipedia.org/wiki/McDonald's",
        "matchedText": "McDonald’s",
        "freebaseId": "/m/07gyp7",
        "relevanceScore": 0.5451,
        "entityEnglishId": "McDonald's",
        "startingPos": 211,
        "endingPos": 221,
        "wikidataId": "Q38076",
        "crunchbaseId": "mcdonalds",
        "lei": "UE2136O97NLB5BYP9H04",
        "figi": "BBG001S5T110",
        "permid": "4295904499"
      },
      {
        "id": 6,
        "type": [
          "Agent",
          "Organisation",
          "Company"
        ],
        "matchingTokens": [
          1,
          2
        ],
        "entityId": "McDonald's",
        "freebaseTypes": [
          "/business/industry",
          "/business/business_operation",
          "/law/litigant",
          "/business/consumer_company",
          "/law/legal_subject",
          "/architecture/architectural_structure_owner",
          "/business/issuer",
          "/book/book_subject",
          "/film/film_subject",
          "/award/ranked_item",
          "/organization/organization",
          "/business/business_location",
          "/business/customer",
          "/business/sponsor",
          "/business/employer",
          "/dining/restaurant"
        ],
        "confidenceScore": 8.804,
        "wikiLink": "http://en.wikipedia.org/wiki/McDonald's",
        "matchedText": "McDonald’s",
        "freebaseId": "/m/07gyp7",
        "relevanceScore": 0.5451,
        "entityEnglishId": "McDonald's",
        "startingPos": 8,
        "endingPos": 18,
        "wikidataId": "Q38076",
        "crunchbaseId": "mcdonalds",
        "lei": "UE2136O97NLB5BYP9H04",
        "figi": "BBG001S5T110",
        "permid": "4295904499"
      },
      {
        "id": 7,
        "type": [
          "Agent",
          "Organisation",
          "Company"
        ],
        "matchingTokens": [
          156,
          157
        ],
        "entityId": "Boston Market",
        "freebaseTypes": [
          "/organization/organization",
          "/business/business_location",
          "/business/employer",
          "/business/business_operation",
          "/dining/restaurant"
        ],
        "confidenceScore": 1.7,
        "wikiLink": "http://en.wikipedia.org/wiki/Boston_Market",
        "matchedText": "Boston Market",
        "freebaseId": "/m/02yxbr",
        "relevanceScore": 0.3821,
        "entityEnglishId": "Boston Market",
        "startingPos": 775,
        "endingPos": 788,
        "wikidataId": "Q603617",
        "crunchbaseId": "boston-market",
        "permid": "4296724389"
      },
      {
        "id": 8,
        "matchingTokens": [
          34
        ],
        "entityId": "Machine",
        "freebaseTypes": [
          "/visual_art/art_subject",
          "/business/product_category"
        ],
        "confidenceScore": 1.105,
        "wikiLink": "http://en.wikipedia.org/wiki/Machine",
        "matchedText": "machine",
        "freebaseId": "/m/0dkw5",
        "relevanceScore": 0.1748,
        "entityEnglishId": "Machine",
        "startingPos": 160,
        "endingPos": 167,
        "wikidataId": "Q11019"
      },
      {
        "id": 9,
        "matchingTokens": [
          34,
          35
        ],
        "entityId": "Machine learning",
        "freebaseTypes": [
          "/computer/software_genre",
          "/education/field_of_study",
          "/book/book_subject"
        ],
        "confidenceScore": 6.924,
        "wikiLink": "http://en.wikipedia.org/wiki/Machine_learning",
        "matchedText": "machine learning",
        "freebaseId": "/m/01hyh_",
        "relevanceScore": 0.546,
        "entityEnglishId": "Machine learning",
        "startingPos": 160,
        "endingPos": 176,
        "wikidataId": "Q2539"
      },
      {
        "id": 10,
        "matchingTokens": [
          88,
          89
        ],
        "entityId": "Online shopping",
        "freebaseTypes": [
          "/business/industry",
          "/book/book_subject",
          "/business/business_location",
          "/organization/organization_type",
          "/organization/contact_category",
          "/business/competitive_space",
          "/internet/website_category",
          "/business/employer",
          "/organization/organization_sector"
        ],
        "confidenceScore": 4.324,
        "wikiLink": "http://en.wikipedia.org/wiki/Online_shopping",
        "matchedText": "online shopping",
        "freebaseId": "/m/047m52",
        "relevanceScore": 0.5514,
        "entityEnglishId": "Online shopping",
        "startingPos": 436,
        "endingPos": 451,
        "wikidataId": "Q212930"
      },
      {
        "id": 11,
        "matchingTokens": [
          89
        ],
        "entityId": "Shopping",
        "freebaseTypes": [
          "/organization/organization_sector",
          "/internet/website_category",
          "/book/book_subject"
        ],
        "confidenceScore": 2.286,
        "wikiLink": "http://en.wikipedia.org/wiki/Shopping",
        "matchedText": "shopping",
        "freebaseId": "/m/0hhdb",
        "relevanceScore": 0.4029,
        "entityEnglishId": "Shopping",
        "startingPos": 443,
        "endingPos": 451,
        "wikidataId": "Q830036"
      },
      {
        "id": 12,
        "matchingTokens": [
          89,
          90
        ],
        "entityId": "Shopping cart",
        "freebaseTypes": [
          "/book/book_subject",
          "/law/invention"
        ],
        "confidenceScore": 3.066,
        "wikiLink": "http://en.wikipedia.org/wiki/Shopping_cart",
        "matchedText": "shopping cart",
        "freebaseId": "/m/019plg",
        "relevanceScore": 0.3427,
        "entityEnglishId": "Shopping cart",
        "startingPos": 443,
        "endingPos": 456,
        "wikidataId": "Q796894"
      },
      {
        "id": 13,
        "matchingTokens": [
          90
        ],
        "entityId": "Cart",
        "confidenceScore": 0.9541,
        "wikiLink": "http://en.wikipedia.org/wiki/Cart",
        "matchedText": "cart",
        "freebaseId": "/m/018p4k",
        "relevanceScore": 0.1402,
        "entityEnglishId": "Cart",
        "startingPos": 452,
        "endingPos": 456,
        "wikidataId": "Q234668"
      },
      {
        "id": 14,
        "matchingTokens": [
          62
        ],
        "entityId": "Startup company",
        "freebaseTypes": [
          "/cvg/computer_videogame",
          "/internet/website_category",
          "/organization/organization_sector",
          "/organization/organization_type",
          "/conferences/conference_subject",
          "/business/product_line",
          "/fictional_universe/fictional_organization_type"
        ],
        "confidenceScore": 2.405,
        "wikiLink": "http://en.wikipedia.org/wiki/Startup_company",
        "matchedText": "startup",
        "freebaseId": "/m/0h01f",
        "relevanceScore": 0.3346,
        "entityEnglishId": "Startup company",
        "startingPos": 302,
        "endingPos": 309,
        "wikidataId": "Q129238"
      },
      {
        "id": 15,
        "matchingTokens": [
          29
        ],
        "entityId": "Fast food",
        "freebaseTypes": [
          "/book/book_subject",
          "/organization/organization_sector",
          "/business/industry",
          "/film/film_subject",
          "/dining/cuisine"
        ],
        "confidenceScore": 5.016,
        "wikiLink": "http://en.wikipedia.org/wiki/Fast_food",
        "matchedText": "fast-food",
        "freebaseId": "/m/01_bhs",
        "relevanceScore": 0.3641,
        "entityEnglishId": "Fast food",
        "startingPos": 131,
        "endingPos": 140,
        "wikidataId": "Q81799"
      },
      {
        "id": 16,
        "matchingTokens": [
          19,
          20
        ],
        "entityId": "Big data",
        "freebaseTypes": [
          "/organization/organization_sector",
          "/business/industry",
          "/book/book_subject"
        ],
        "confidenceScore": 5.74,
        "wikiLink": "http://en.wikipedia.org/wiki/Big_data",
        "matchedText": "Big Data",
        "freebaseId": "/m/0bs2j8q",
        "relevanceScore": 0.3541,
        "entityEnglishId": "Big data",
        "startingPos": 89,
        "endingPos": 97,
        "wikidataId": "Q858810"
      },
      {
        "id": 17,
        "matchingTokens": [
          20
        ],
        "entityId": "Data",
        "freebaseTypes": [
          "/internet/website_category"
        ],
        "confidenceScore": 1.133,
        "wikiLink": "http://en.wikipedia.org/wiki/Data",
        "matchedText": "Data",
        "freebaseId": "/m/026sq",
        "relevanceScore": 0.1485,
        "entityEnglishId": "Data",
        "startingPos": 93,
        "endingPos": 97,
        "wikidataId": "Q42848"
      },
      {
        "id": 18,
        "type": [
          "Money"
        ],
        "matchingTokens": [
          139,
          140,
          141
        ],
        "entityId": "300000000",
        "confidenceScore": 0.5,
        "wikiLink": "",
        "matchedText": "$300 million",
        "relevanceScore": 0,
        "entityEnglishId": "",
        "startingPos": 693,
        "endingPos": 705,
        "unit": "$"
      },
      {
        "id": 19,
        "type": [
          "Time"
        ],
        "matchingTokens": [
          158,
          159
        ],
        "entityId": "1999-01-01T00:00:00.000+00:00",
        "confidenceScore": 0.5,
        "wikiLink": "",
        "matchedText": "in 1999",
        "relevanceScore": 0,
        "entityEnglishId": "",
        "startingPos": 789,
        "endingPos": 796
      }
    ]
  },
  "time": 0.108,
  "ok": true
}