{
  "response": {
    "language": "eng",
    "languageIsReliable": true,
    "entities": [
      {
        "id": 0,
        "matchingTokens": [
          46,
          47
        ],
        "entityId": "M.2",
        "confidenceScore": 4.104,
        "wikiLink": "http://en.wikipedia.org/wiki/M.2",
        "matchedText": "M.2",
        "freebaseId": "/m/0x0t_r_",
        "relevanceScore": 1,
        "entityEnglishId": "M.2",
        "startingPos": 242,
        "endingPos": 245,
        "wikidataId": "Q15528609"
      },
      {
        "id": 1,
        "matchingTokens": [
          18
        ],
        "entityId": "Solid-state drive",
        "freebaseTypes": [
          "/business/industry",
          "/organization/organization_sector"
        ],
        "confidenceScore": 11.17,
        "wikiLink": "http://en.wikipedia.org/wiki/Solid-state_drive",
        "matchedText": "SSD",
        "freebaseId": "/m/025_h00",
        "relevanceScore": 0.9898,
        "entityEnglishId": "Solid-state drive",
        "startingPos": 101,
        "endingPos": 104,
        "wikidataId": "Q487343"
      },
      {
        "id": 2,
        "type": [
          "Number"
        ],
        "matchingTokens": [
          30
        ],
        "entityId": "850",
        "confidenceScore": 0.5,
        "wikiLink": "",
        "matchedText": "850",
        "relevanceScore": 0,
        "entityEnglishId": "",
        "startingPos": 163,
        "endingPos": 166
      },
      {
        "id": 3,
        "type": [
          "Number"
        ],
        "matchingTokens": [
          228
        ],
        "entityId": "2",
        "confidenceScore": 0.5,
        "wikiLink": "",
        "matchedText": "2",
        "relevanceScore": 0,
        "entityEnglishId": "",
        "startingPos": 1059,
        "endingPos": 1060,
        "unit": "Number"
      },
      {
        "id": 4,
        "type": [
          "Person"
        ],
        "matchingTokens": [
          234
        ],
        "entityId": "Karln",
        "freebaseTypes": [
          "/people/person"
        ],
        "confidenceScore": 0.5,
        "wikiLink": "",
        "matchedText": "Karln",
        "relevanceScore": 0,
        "entityEnglishId": "",
        "startingPos": 1084,
        "endingPos": 1089
      },
      {
        "id": 5,
        "type": [
          "Date"
        ],
        "matchingTokens": [
          93
        ],
        "entityId": "2242/2260/2280",
        "freebaseTypes": [
          ""
        ],
        "confidenceScore": 0.5,
        "wikiLink": "",
        "matchedText": "2242/2260/2280",
        "relevanceScore": 0,
        "entityEnglishId": "",
        "startingPos": 489,
        "endingPos": 503
      },
      {
        "id": 6,
        "matchingTokens": [
          118
        ],
        "entityId": "NVM Express",
        "confidenceScore": 12.57,
        "wikiLink": "http://en.wikipedia.org/wiki/NVM_Express",
        "matchedText": "NVMe",
        "freebaseId": "/m/0gh81x3",
        "relevanceScore": 1,
        "entityEnglishId": "NVM Express",
        "startingPos": 609,
        "endingPos": 613,
        "wikidataId": "Q17157198",
        "crunchbaseId": "nvm-express"
      },
      {
        "id": 7,
        "matchingTokens": [
          145
        ],
        "entityId": "Solid-state drive",
        "freebaseTypes": [
          "/business/industry",
          "/organization/organization_sector"
        ],
        "confidenceScore": 11.17,
        "wikiLink": "http://en.wikipedia.org/wiki/Solid-state_drive",
        "matchedText": "SSD",
        "freebaseId": "/m/025_h00",
        "relevanceScore": 0.9898,
        "entityEnglishId": "Solid-state drive",
        "startingPos": 715,
        "endingPos": 718,
        "wikidataId": "Q487343"
      },
      {
        "id": 8,
        "matchingTokens": [
          119,
          120
        ],
        "entityId": "M.2",
        "confidenceScore": 4.104,
        "wikiLink": "http://en.wikipedia.org/wiki/M.2",
        "matchedText": "M.2",
        "freebaseId": "/m/0x0t_r_",
        "relevanceScore": 1,
        "entityEnglishId": "M.2",
        "startingPos": 614,
        "endingPos": 617,
        "wikidataId": "Q15528609"
      },
      {
        "id": 9,
        "matchingTokens": [
          81,
          82
        ],
        "entityId": "M.2",
        "confidenceScore": 4.104,
        "wikiLink": "http://en.wikipedia.org/wiki/M.2",
        "matchedText": "M.2",
        "freebaseId": "/m/0x0t_r_",
        "relevanceScore": 1,
        "entityEnglishId": "M.2",
        "startingPos": 454,
        "endingPos": 457,
        "wikidataId": "Q15528609"
      },
      {
        "id": 10,
        "type": [
          "Work"
        ],
        "matchingTokens": [
          116
        ],
        "entityId": "Serial ATA",
        "confidenceScore": 10.98,
        "wikiLink": "http://en.wikipedia.org/wiki/Serial_ATA",
        "matchedText": "SATA",
        "freebaseId": "/m/017hrc",
        "relevanceScore": 0.482,
        "entityEnglishId": "Serial ATA",
        "startingPos": 600,
        "endingPos": 604,
        "wikidataId": "Q188639"
      },
      {
        "id": 11,
        "type": [
          "Agent",
          "Organisation",
          "Company"
        ],
        "matchingTokens": [
          223
        ],
        "entityId": "Samsung",
        "freebaseTypes": [
          "/projects/project_participant",
          "/computer/computer_manufacturer_brand",
          "/business/customer",
          "/computer/software_developer",
          "/business/consumer_company",
          "/organization/organization_founder",
          "/business/business_operation",
          "/award/award_presenting_organization",
          "/organization/organization_member",
          "/business/employer",
          "/organization/organization"
        ],
        "confidenceScore": 4.724,
        "wikiLink": "http://en.wikipedia.org/wiki/Samsung",
        "matchedText": "Samsung",
        "freebaseId": "/m/0h1cp1c",
        "relevanceScore": 0.1084,
        "entityEnglishId": "Samsung",
        "startingPos": 1040,
        "endingPos": 1047,
        "wikidataId": "Q20716",
        "crunchbaseId": "samsung-electronics",
        "lei": "549300KYVNLA5XR0HT53",
        "permid": "4296743020"
      },
      {
        "id": 12,
        "type": [
          "Work"
        ],
        "matchingTokens": [
          105
        ],
        "entityId": "PCI Express",
        "confidenceScore": 9.672,
        "wikiLink": "http://en.wikipedia.org/wiki/PCI_Express",
        "matchedText": "PCIE",
        "freebaseId": "/m/012346",
        "relevanceScore": 0.4854,
        "entityEnglishId": "PCI Express",
        "startingPos": 556,
        "endingPos": 560,
        "wikidataId": "Q206924"
      },
      {
        "id": 13,
        "matchingTokens": [
          227,
          228
        ],
        "entityId": "M.2",
        "confidenceScore": 4.104,
        "wikiLink": "http://en.wikipedia.org/wiki/M.2",
        "matchedText": "M.2",
        "freebaseId": "/m/0x0t_r_",
        "relevanceScore": 1,
        "entityEnglishId": "M.2",
        "startingPos": 1057,
        "endingPos": 1060,
        "wikidataId": "Q15528609"
      },
      {
        "id": 14,
        "matchingTokens": [
          204,
          205
        ],
        "entityId": "M.2",
        "confidenceScore": 4.104,
        "wikiLink": "http://en.wikipedia.org/wiki/M.2",
        "matchedText": "M.2",
        "freebaseId": "/m/0x0t_r_",
        "relevanceScore": 1,
        "entityEnglishId": "M.2",
        "startingPos": 952,
        "endingPos": 955,
        "wikidataId": "Q15528609"
      },
      {
        "id": 15,
        "matchingTokens": [
          174,
          175
        ],
        "entityId": "M.2",
        "confidenceScore": 4.104,
        "wikiLink": "http://en.wikipedia.org/wiki/M.2",
        "matchedText": "M.2",
        "freebaseId": "/m/0x0t_r_",
        "relevanceScore": 1,
        "entityEnglishId": "M.2",
        "startingPos": 817,
        "endingPos": 820,
        "wikidataId": "Q15528609"
      },
      {
        "id": 16,
        "matchingTokens": [
          96,
          97
        ],
        "entityId": "Computer data storage",
        "freebaseTypes": [
          "/organization/organization_sector",
          "/business/industry"
        ],
        "confidenceScore": 3.66,
        "wikiLink": "http://en.wikipedia.org/wiki/Computer_data_storage",
        "matchedText": "storage devices",
        "freebaseId": "/m/0gysb7z",
        "relevanceScore": 0.2052,
        "entityEnglishId": "Computer data storage",
        "startingPos": 510,
        "endingPos": 525,
        "wikidataId": "Q66221"
      },
      {
        "id": 17,
        "type": [
          "Work"
        ],
        "matchingTokens": [
          101
        ],
        "entityId": "Serial ATA",
        "confidenceScore": 10.98,
        "wikiLink": "http://en.wikipedia.org/wiki/Serial_ATA",
        "matchedText": "SATA",
        "freebaseId": "/m/017hrc",
        "relevanceScore": 0.482,
        "entityEnglishId": "Serial ATA",
        "startingPos": 540,
        "endingPos": 544,
        "wikidataId": "Q188639"
      },
      {
        "id": 18,
        "type": [
          "Number"
        ],
        "matchingTokens": [
          225
        ],
        "entityId": "850",
        "confidenceScore": 0.5,
        "wikiLink": "",
        "matchedText": "850",
        "relevanceScore": 0,
        "entityEnglishId": "",
        "startingPos": 1049,
        "endingPos": 1052
      },
      {
        "id": 19,
        "type": [
          "Number"
        ],
        "matchingTokens": [
          202
        ],
        "entityId": "850",
        "confidenceScore": 0.5,
        "wikiLink": "",
        "matchedText": "850",
        "relevanceScore": 0,
        "entityEnglishId": "",
        "startingPos": 944,
        "endingPos": 947
      },
      {
        "id": 20,
        "type": [
          "Number"
        ],
        "matchingTokens": [
          143
        ],
        "entityId": "2.5",
        "confidenceScore": 0.5,
        "wikiLink": "",
        "matchedText": "2.5",
        "relevanceScore": 0,
        "entityEnglishId": "",
        "startingPos": 710,
        "endingPos": 713,
        "unit": "Number"
      },
      {
        "id": 21,
        "type": [
          "URL"
        ],
        "matchingTokens": [
          64
        ],
        "entityId": "cables.as",
        "freebaseTypes": [
          ""
        ],
        "confidenceScore": 0.5,
        "wikiLink": "",
        "matchedText": "cables.as",
        "relevanceScore": 0,
        "entityEnglishId": "",
        "startingPos": 327,
        "endingPos": 336
      },
      {
        "id": 22,
        "type": [
          "Company"
        ],
        "matchingTokens": [
          34,
          35
        ],
        "entityId": "SanDisk X4003",
        "freebaseTypes": [
          "/organization/organization"
        ],
        "confidenceScore": 0.5,
        "wikiLink": "",
        "matchedText": "SanDisk X4003",
        "relevanceScore": 0,
        "entityEnglishId": "",
        "startingPos": 177,
        "endingPos": 190
      },
      {
        "id": 23,
        "type": [
          "URL"
        ],
        "matchingTokens": [
          79
        ],
        "entityId": "https://www.asus.com/Motherboards/Z170-E/specifications/:1",
        "freebaseTypes": [
          ""
        ],
        "confidenceScore": 0.5,
        "wikiLink": "",
        "matchedText": "https://www.asus.com/Motherboards/Z170-E/specifications/:1",
        "relevanceScore": 0,
        "entityEnglishId": "",
        "startingPos": 393,
        "endingPos": 451
      },
      {
        "id": 24,
        "type": [
          "Agent",
          "Organisation",
          "Company"
        ],
        "matchingTokens": [
          29
        ],
        "entityId": "Samsung",
        "freebaseTypes": [
          "/projects/project_participant",
          "/computer/computer_manufacturer_brand",
          "/business/customer",
          "/computer/software_developer",
          "/business/consumer_company",
          "/organization/organization_founder",
          "/business/business_operation",
          "/award/award_presenting_organization",
          "/organization/organization_member",
          "/business/employer",
          "/organization/organization"
        ],
        "confidenceScore": 5.8,
        "wikiLink": "http://en.wikipedia.org/wiki/Samsung",
        "matchedText": "Smasung",
        "freebaseId": "/m/0h1cp1c",
        "relevanceScore": 0.3171,
        "entityEnglishId": "Samsung",
        "startingPos": 155,
        "endingPos": 162,
        "wikidataId": "Q20716",
        "crunchbaseId": "samsung-electronics",
        "lei": "549300KYVNLA5XR0HT53",
        "permid": "4296743020"
      },
      {
        "id": 25,
        "matchingTokens": [
          135,
          136
        ],
        "entityId": "M.2",
        "confidenceScore": 4.104,
        "wikiLink": "http://en.wikipedia.org/wiki/M.2",
        "matchedText": "M.2",
        "freebaseId": "/m/0x0t_r_",
        "relevanceScore": 1,
        "entityEnglishId": "M.2",
        "startingPos": 682,
        "endingPos": 685,
        "wikidataId": "Q15528609"
      },
      {
        "id": 26,
        "matchingTokens": [
          59,
          60
        ],
        "entityId": "Form factor (mobile phones)",
        "confidenceScore": 0.9736,
        "wikiLink": "http://en.wikipedia.org/wiki/Form_factor_(mobile_phones)",
        "matchedText": "form factor",
        "freebaseId": "/m/05mwjxw",
        "relevanceScore": 0.2718,
        "entityEnglishId": "Form factor (mobile phones)",
        "startingPos": 303,
        "endingPos": 314,
        "wikidataId": "Q2636061"
      },
      {
        "id": 27,
        "matchingTokens": [
          58,
          59,
          60
        ],
        "entityId": "Small form factor",
        "confidenceScore": 1.455,
        "wikiLink": "http://en.wikipedia.org/wiki/Small_form_factor",
        "matchedText": "smaller form factor",
        "freebaseId": "/m/06y6hj",
        "relevanceScore": 0.2701,
        "entityEnglishId": "Small form factor",
        "startingPos": 295,
        "endingPos": 314,
        "wikidataId": "Q185149"
      },
      {
        "id": 28,
        "type": [
          "Number"
        ],
        "matchingTokens": [
          109
        ],
        "entityId": "1",
        "confidenceScore": 0.5,
        "wikiLink": "",
        "matchedText": "1",
        "relevanceScore": 0,
        "entityEnglishId": "",
        "startingPos": 567,
        "endingPos": 568
      },
      {
        "id": 29,
        "type": [
          "Number"
        ],
        "matchingTokens": [
          86
        ],
        "entityId": "3",
        "confidenceScore": 0.5,
        "wikiLink": "",
        "matchedText": "3",
        "relevanceScore": 0,
        "entityEnglishId": "",
        "startingPos": 469,
        "endingPos": 470
      },
      {
        "id": 30,
        "matchingTokens": [
          56
        ],
        "entityId": "Solid-state drive",
        "freebaseTypes": [
          "/business/industry",
          "/organization/organization_sector"
        ],
        "confidenceScore": 11.34,
        "wikiLink": "http://en.wikipedia.org/wiki/Solid-state_drive",
        "matchedText": "SSDs",
        "freebaseId": "/m/025_h00",
        "relevanceScore": 0.9596,
        "entityEnglishId": "Solid-state drive",
        "startingPos": 283,
        "endingPos": 287,
        "wikidataId": "Q487343"
      },
      {
        "id": 31,
        "type": [
          "Agent",
          "Organisation",
          "Company"
        ],
        "matchingTokens": [
          201
        ],
        "entityId": "Samsung",
        "freebaseTypes": [
          "/projects/project_participant",
          "/computer/computer_manufacturer_brand",
          "/business/customer",
          "/computer/software_developer",
          "/business/consumer_company",
          "/organization/organization_founder",
          "/business/business_operation",
          "/award/award_presenting_organization",
          "/organization/organization_member",
          "/business/employer",
          "/organization/organization"
        ],
        "confidenceScore": 4.724,
        "wikiLink": "http://en.wikipedia.org/wiki/Samsung",
        "matchedText": "Samsung",
        "freebaseId": "/m/0h1cp1c",
        "relevanceScore": 0.1084,
        "entityEnglishId": "Samsung",
        "startingPos": 936,
        "endingPos": 943,
        "wikidataId": "Q20716",
        "crunchbaseId": "samsung-electronics",
        "lei": "549300KYVNLA5XR0HT53",
        "permid": "4296743020"
      },
      {
        "id": 32,
        "type": [
          "Number"
        ],
        "matchingTokens": [
          50
        ],
        "entityId": "2.5",
        "confidenceScore": 0.5,
        "wikiLink": "",
        "matchedText": "2.5",
        "relevanceScore": 0,
        "entityEnglishId": "",
        "startingPos": 259,
        "endingPos": 262,
        "unit": "Number"
      },
      {
        "id": 33,
        "type": [
          "Number"
        ],
        "matchingTokens": [
          175
        ],
        "entityId": "2",
        "confidenceScore": 0.5,
        "wikiLink": "",
        "matchedText": "2",
        "relevanceScore": 0,
        "entityEnglishId": "",
        "startingPos": 819,
        "endingPos": 820,
        "unit": "Number"
      },
      {
        "id": 34,
        "type": [
          "Number"
        ],
        "matchingTokens": [
          205
        ],
        "entityId": "2",
        "confidenceScore": 0.5,
        "wikiLink": "",
        "matchedText": "2",
        "relevanceScore": 0,
        "entityEnglishId": "",
        "startingPos": 954,
        "endingPos": 955,
        "unit": "Number"
      },
      {
        "id": 35,
        "type": [
          "Number"
        ],
        "matchingTokens": [
          82
        ],
        "entityId": "2",
        "confidenceScore": 0.5,
        "wikiLink": "",
        "matchedText": "2",
        "relevanceScore": 0,
        "entityEnglishId": "",
        "startingPos": 456,
        "endingPos": 457,
        "unit": "Number"
      },
      {
        "id": 36,
        "type": [
          "Number"
        ],
        "matchingTokens": [
          47
        ],
        "entityId": "2",
        "confidenceScore": 0.5,
        "wikiLink": "",
        "matchedText": "2",
        "relevanceScore": 0,
        "entityEnglishId": "",
        "startingPos": 244,
        "endingPos": 245,
        "unit": "Number"
      },
      {
        "id": 37,
        "type": [
          "Number"
        ],
        "matchingTokens": [
          120
        ],
        "entityId": "2",
        "confidenceScore": 0.5,
        "wikiLink": "",
        "matchedText": "2",
        "relevanceScore": 0,
        "entityEnglishId": "",
        "startingPos": 616,
        "endingPos": 617,
        "unit": "Number"
      },
      {
        "id": 38,
        "type": [
          "Number"
        ],
        "matchingTokens": [
          136
        ],
        "entityId": "2",
        "confidenceScore": 0.5,
        "wikiLink": "",
        "matchedText": "2",
        "relevanceScore": 0,
        "entityEnglishId": "",
        "startingPos": 684,
        "endingPos": 685,
        "unit": "Number"
      },
      {
        "id": 39,
        "type": [
          "Number"
        ],
        "matchingTokens": [
          28
        ],
        "entityId": "1",
        "confidenceScore": 0.5,
        "wikiLink": "",
        "matchedText": "1.",
        "relevanceScore": 0,
        "entityEnglishId": "",
        "startingPos": 152,
        "endingPos": 154,
        "unit": "Number"
      },
      {
        "id": 40,
        "type": [
          "Number"
        ],
        "matchingTokens": [
          95
        ],
        "entityId": "22110",
        "confidenceScore": 0.5,
        "wikiLink": "",
        "matchedText": "22110",
        "relevanceScore": 0,
        "entityEnglishId": "",
        "startingPos": 504,
        "endingPos": 509,
        "unit": "Number"
      }
    ]
  },
  "time": 0.1263,
  "ok": true
}