{
  "response": {
    "language": "eng",
    "languageIsReliable": true,
    "entities": [
      {
        "id": 0,
        "type": [
          "Agent",
          "Organisation",
          "Company"
        ],
        "matchingTokens": [
          0,
          1
        ],
        "entityId": "Apple Inc.",
        "freebaseTypes": [
          "/venture_capital/venture_funded_company",
          "/book/publishing_company",
          "/law/inventor",
          "/computer/operating_system_developer",
          "/business/business_operation",
          "/organization/organization",
          "/organization/organization_partnership",
          "/computer/software_developer",
          "/computer/programming_language_designer",
          "/book/author",
          "/award/award_nominee",
          "/business/employer",
          "/computer/protocol_provider",
          "/internet/website_category",
          "/architecture/architectural_structure_owner",
          "/award/award_winner",
          "/cvg/cvg_developer",
          "/projects/project_participant",
          "/cvg/cvg_publisher",
          "/internet/website_owner",
          "/award/ranked_item",
          "/law/patent_assignee",
          "/book/book_subject",
          "/business/consumer_company",
          "/computer/processor_manufacturer",
          "/business/issuer",
          "/computer/computer_manufacturer_brand",
          "/computer/programming_language_developer",
          "/internet/top_level_domain_sponsor",
          "/law/litigant"
        ],
        "confidenceScore": 2.023,
        "wikiLink": "http://en.wikipedia.org/wiki/Apple_Inc.",
        "matchedText": "$AAPL",
        "freebaseId": "/m/0cx49j",
        "relevanceScore": 0.03012,
        "entityEnglishId": "Apple Inc.",
        "startingPos": 0,
        "endingPos": 5,
        "wikidataId": "Q312",
        "crunchbaseId": "apple",
        "lei": "HWUPKR0MPOU8FGXBT394",
        "figi": "BBG001S5N8V8",
        "permid": "4295905573"
      }
    ]
  },
  "time": 0.0122,
  "ok": true
}